<?xml version="1.0" encoding="utf-8"?>
<!-- Generator: Adobe Illustrator 16.0.0, SVG Export Plug-In . SVG Version: 6.00 Build 0)  -->
<!DOCTYPE svg PUBLIC "-//W3C//DTD SVG 1.1//EN" "http://www.w3.org/Graphics/SVG/1.1/DTD/svg11.dtd">
<svg version="1.1" id="Capa_1" xmlns="http://www.w3.org/2000/svg" xmlns:xlink="http://www.w3.org/1999/xlink" x="0px" y="0px"
	 width="547.688px" height="121.94px" viewBox="0 0 547.688 121.94" enable-background="new 0 0 547.688 121.94"
	 xml:space="preserve">
<rect fill="#EEEDEE" width="547.688" height="121.94"/>
<g>
	<path fill="#5492C6" d="M246.753,47.415c-0.429,0.228-0.863,0.396-1.301,0.506c-0.438,0.109-0.902,0.164-1.393,0.164
		c-1.963,0-3.43-0.801-4.403-2.405c-0.972-1.604-1.458-4.021-1.458-7.254c0-3.294,0.519-5.787,1.557-7.478
		c1.039-1.691,2.574-2.537,4.606-2.537c0.447,0,0.867,0.044,1.262,0.131c0.394,0.088,0.771,0.215,1.13,0.381v2.458
		c-0.368-0.184-0.721-0.32-1.058-0.408c-0.337-0.087-0.655-0.131-0.953-0.131c-1.375,0-2.378,0.603-3.009,1.807
		s-0.946,3.121-0.946,5.75c0,2.453,0.3,4.269,0.9,5.447c0.6,1.179,1.526,1.768,2.779,1.768c0.359,0,0.723-0.059,1.091-0.177
		c0.368-0.118,0.767-0.3,1.196-0.545V47.415z"/>
	<path fill="#5492C6" d="M247.505,38.268c0-3.513,0.426-6.034,1.279-7.563c0.854-1.529,2.247-2.293,4.181-2.293
		c1.925,0,3.312,0.76,4.161,2.28c0.849,1.52,1.273,4.045,1.273,7.576c0,3.514-0.424,6.028-1.273,7.543
		c-0.849,1.516-2.236,2.273-4.161,2.273c-1.934,0-3.328-0.757-4.181-2.273C247.932,44.296,247.505,41.782,247.505,38.268z
		 M250.121,38.215c0,2.716,0.22,4.633,0.662,5.75c0.442,1.117,1.178,1.675,2.209,1.675c1.023,0,1.744-0.53,2.164-1.59
		c0.419-1.06,0.629-3.005,0.629-5.835c0-2.76-0.214-4.683-0.643-5.769s-1.154-1.63-2.176-1.63c-1.032,0-1.764,0.548-2.197,1.643
		C250.336,33.555,250.121,35.473,250.121,38.215z"/>
	<path fill="#5492C6" d="M260.269,47.849V28.661h2.392l5.086,13.326V28.661h2.458v19.188h-2.432l-5.06-13.431v13.431H260.269z"/>
	<path fill="#5492C6" d="M274.728,47.849V31.053h-3.562v-2.392h9.725v2.392h-3.562v16.795H274.728z"/>
	<path fill="#5492C6" d="M284.469,38.479v9.37h-2.589V28.661h3.128c2.076,0,3.555,0.386,4.436,1.157s1.32,2.055,1.32,3.851
		c0,1.419-0.302,2.525-0.906,3.318s-1.507,1.264-2.707,1.413l4.56,9.449h-2.772l-4.39-9.37H284.469z M284.469,37.006h0.802
		c1.052,0,1.794-0.245,2.228-0.736s0.65-1.358,0.65-2.602c0-1.034-0.208-1.75-0.624-2.149c-0.416-0.398-1.193-0.598-2.333-0.598
		h-0.723V37.006z"/>
	<path fill="#5492C6" d="M292.594,47.849V28.661h2.589v19.188H292.594z"/>
	<path fill="#5492C6" d="M297.473,47.849V28.661h3.548c1.875,0,3.233,0.386,4.074,1.157c0.842,0.771,1.262,2.006,1.262,3.706
		c0,1.279-0.205,2.267-0.617,2.963c-0.412,0.697-1.069,1.189-1.972,1.479c1.007,0.237,1.739,0.699,2.194,1.387
		c0.455,0.688,0.684,1.68,0.684,2.977c0,1.893-0.438,3.285-1.314,4.179c-0.876,0.894-2.243,1.34-4.1,1.34H297.473z M300.048,36.888
		h0.946c0.973,0,1.687-0.241,2.143-0.723c0.455-0.482,0.684-1.235,0.684-2.261c0-1.078-0.213-1.84-0.638-2.287
		s-1.154-0.67-2.188-0.67h-0.946V36.888z M300.048,45.404h0.868c1.191,0,2.008-0.228,2.45-0.684
		c0.442-0.455,0.664-1.262,0.664-2.418c0-1.165-0.239-2.004-0.716-2.517c-0.479-0.513-1.269-0.769-2.372-0.769h-0.895V45.404z"/>
	<path fill="#5492C6" d="M308.186,42.736V28.661h2.55v14.286c0,0.92,0.206,1.599,0.618,2.037c0.411,0.438,1.042,0.657,1.893,0.657
		c0.85,0,1.478-0.219,1.886-0.657c0.407-0.438,0.61-1.117,0.61-2.037V28.661h2.563v14.075c0,1.857-0.405,3.213-1.216,4.067
		c-0.811,0.854-2.092,1.281-3.844,1.281c-1.753,0-3.034-0.427-3.845-1.281C308.591,45.95,308.186,44.594,308.186,42.736z"/>
	<path fill="#5492C6" d="M325.366,39.688v8.161h-2.668v-8.161l-3.614-11.026h2.668l1.616,5.349c0.105,0.351,0.217,0.791,0.336,1.321
		c0.118,0.53,0.229,1.115,0.335,1.754c0.087-0.561,0.186-1.091,0.296-1.59c0.109-0.5,0.233-0.986,0.374-1.458l1.616-5.375h2.694
		L325.366,39.688z"/>
	<path fill="#5492C6" d="M329.876,47.849V28.661h7.675v2.313h-5.086v5.704h4.652v2.287h-4.652v6.492h5.086v2.392H329.876z"/>
	<path fill="#5492C6" d="M351.422,47.415c-0.429,0.228-0.863,0.396-1.301,0.506c-0.438,0.109-0.902,0.164-1.394,0.164
		c-1.962,0-3.43-0.801-4.402-2.405s-1.459-4.021-1.459-7.254c0-3.294,0.52-5.787,1.558-7.478s2.573-2.537,4.606-2.537
		c0.447,0,0.867,0.044,1.262,0.131c0.395,0.088,0.771,0.215,1.13,0.381v2.458c-0.368-0.184-0.721-0.32-1.058-0.408
		c-0.338-0.087-0.655-0.131-0.953-0.131c-1.375,0-2.379,0.603-3.01,1.807c-0.63,1.205-0.945,3.121-0.945,5.75
		c0,2.453,0.3,4.269,0.899,5.447c0.601,1.179,1.527,1.768,2.78,1.768c0.358,0,0.723-0.059,1.091-0.177
		c0.367-0.118,0.767-0.3,1.195-0.545V47.415z"/>
	<path fill="#5492C6" d="M352.174,38.268c0-3.513,0.427-6.034,1.28-7.563c0.853-1.529,2.246-2.293,4.181-2.293
		c1.925,0,3.312,0.76,4.161,2.28c0.849,1.52,1.272,4.045,1.272,7.576c0,3.514-0.424,6.028-1.272,7.543
		c-0.85,1.516-2.236,2.273-4.161,2.273c-1.935,0-3.328-0.757-4.181-2.273C352.601,44.296,352.174,41.782,352.174,38.268z
		 M354.789,38.215c0,2.716,0.221,4.633,0.662,5.75c0.441,1.117,1.178,1.675,2.21,1.675c1.022,0,1.743-0.53,2.163-1.59
		s0.629-3.005,0.629-5.835c0-2.76-0.214-4.683-0.643-5.769c-0.428-1.086-1.153-1.63-2.176-1.63c-1.032,0-1.764,0.548-2.196,1.643
		S354.789,35.473,354.789,38.215z"/>
	<path fill="#5492C6" d="M364.938,47.849V28.661h2.392l5.086,13.326V28.661h2.458v19.188h-2.432l-5.06-13.431v13.431H364.938z"/>
	<path fill="#5492C6" d="M381.489,47.849V28.661h2.589v16.796h5.546v2.392H381.489z"/>
	<path fill="#5492C6" d="M390.074,38.268c0-3.513,0.427-6.034,1.28-7.563c0.853-1.529,2.246-2.293,4.181-2.293
		c1.925,0,3.312,0.76,4.161,2.28c0.849,1.52,1.272,4.045,1.272,7.576c0,3.514-0.424,6.028-1.272,7.543
		c-0.85,1.516-2.236,2.273-4.161,2.273c-1.935,0-3.328-0.757-4.181-2.273C390.501,44.296,390.074,41.782,390.074,38.268z
		 M392.689,38.215c0,2.716,0.221,4.633,0.662,5.75c0.441,1.117,1.178,1.675,2.21,1.675c1.022,0,1.743-0.53,2.163-1.59
		s0.629-3.005,0.629-5.835c0-2.76-0.214-4.683-0.643-5.769c-0.428-1.086-1.153-1.63-2.176-1.63c-1.032,0-1.764,0.548-2.196,1.643
		S392.689,35.473,392.689,38.215z"/>
	<path fill="#5492C6" d="M402.378,44.484c0.613,0.377,1.179,0.655,1.695,0.834s1.003,0.27,1.459,0.27c0.788,0,1.415-0.23,1.879-0.69
		c0.465-0.46,0.696-1.076,0.696-1.847c0-1.13-0.889-2.422-2.667-3.877c-0.211-0.175-0.368-0.307-0.474-0.394
		c-1.139-0.938-1.937-1.807-2.392-2.609c-0.456-0.802-0.684-1.702-0.684-2.701c0-1.445,0.46-2.65,1.38-3.614
		s2.059-1.446,3.417-1.446c0.596,0,1.17,0.07,1.722,0.21s1.1,0.359,1.643,0.657v2.576c-0.499-0.351-0.987-0.611-1.465-0.782
		s-0.949-0.256-1.413-0.256c-0.814,0-1.468,0.239-1.958,0.716c-0.491,0.478-0.736,1.115-0.736,1.912c0,1.104,0.941,2.41,2.826,3.917
		c0.175,0.14,0.311,0.246,0.407,0.315c1.095,0.885,1.87,1.735,2.326,2.549c0.455,0.815,0.683,1.748,0.683,2.799
		c0,1.472-0.469,2.684-1.405,3.634c-0.938,0.951-2.139,1.426-3.602,1.426c-0.534,0-1.077-0.079-1.63-0.236
		c-0.552-0.158-1.121-0.398-1.708-0.723V44.484z"/>
	<path fill="#5492C6" d="M415.854,38.268c0-3.513,0.427-6.034,1.28-7.563c0.853-1.529,2.246-2.293,4.181-2.293
		c1.925,0,3.312,0.76,4.161,2.28c0.849,1.52,1.272,4.045,1.272,7.576c0,3.514-0.424,6.028-1.272,7.543
		c-0.85,1.516-2.236,2.273-4.161,2.273c-1.935,0-3.328-0.757-4.181-2.273C416.281,44.296,415.854,41.782,415.854,38.268z
		 M418.47,38.215c0,2.716,0.221,4.633,0.662,5.75c0.441,1.117,1.178,1.675,2.21,1.675c1.022,0,1.743-0.53,2.163-1.59
		s0.629-3.005,0.629-5.835c0-2.76-0.214-4.683-0.643-5.769c-0.428-1.086-1.153-1.63-2.176-1.63c-1.032,0-1.764,0.548-2.196,1.643
		S418.47,35.473,418.47,38.215z"/>
	<path fill="#5492C6" d="M428.645,47.849V28.661h3.417c2.61,0,4.448,0.716,5.513,2.149s1.597,3.91,1.597,7.432
		c0,3.531-0.532,6.015-1.597,7.452s-2.902,2.155-5.513,2.155H428.645z M431.26,45.378h1.341c1.454,0,2.477-0.526,3.068-1.577
		c0.591-1.051,0.887-2.913,0.887-5.585c0-2.663-0.293-4.519-0.88-5.565c-0.588-1.047-1.612-1.57-3.075-1.57h-1.341V45.378z"/>
	<path fill="#5492C6" d="M440.488,44.484c0.613,0.377,1.179,0.655,1.695,0.834s1.003,0.27,1.459,0.27c0.788,0,1.415-0.23,1.879-0.69
		c0.465-0.46,0.696-1.076,0.696-1.847c0-1.13-0.889-2.422-2.667-3.877c-0.211-0.175-0.368-0.307-0.474-0.394
		c-1.139-0.938-1.937-1.807-2.392-2.609c-0.456-0.802-0.684-1.702-0.684-2.701c0-1.445,0.46-2.65,1.38-3.614
		s2.059-1.446,3.417-1.446c0.596,0,1.17,0.07,1.722,0.21s1.1,0.359,1.643,0.657v2.576c-0.499-0.351-0.987-0.611-1.465-0.782
		s-0.949-0.256-1.413-0.256c-0.814,0-1.468,0.239-1.958,0.716c-0.491,0.478-0.736,1.115-0.736,1.912c0,1.104,0.941,2.41,2.826,3.917
		c0.175,0.14,0.311,0.246,0.407,0.315c1.095,0.885,1.87,1.735,2.326,2.549c0.455,0.815,0.683,1.748,0.683,2.799
		c0,1.472-0.469,2.684-1.405,3.634c-0.938,0.951-2.139,1.426-3.602,1.426c-0.534,0-1.077-0.079-1.63-0.236
		c-0.552-0.158-1.121-0.398-1.708-0.723V44.484z"/>
	<path fill="#5492C6" d="M450.769,39.832c0-0.42,0.146-0.777,0.44-1.071c0.293-0.293,0.65-0.44,1.071-0.44
		c0.411,0,0.76,0.146,1.044,0.44c0.285,0.294,0.428,0.651,0.428,1.071c0,0.412-0.143,0.76-0.428,1.045
		c-0.284,0.285-0.633,0.427-1.044,0.427c-0.421,0-0.778-0.142-1.071-0.427C450.915,40.592,450.769,40.244,450.769,39.832z
		 M450.769,46.64c0-0.42,0.146-0.777,0.44-1.071c0.293-0.293,0.65-0.44,1.071-0.44c0.411,0,0.76,0.146,1.044,0.44
		c0.285,0.294,0.428,0.651,0.428,1.071c0,0.412-0.143,0.76-0.428,1.045c-0.284,0.284-0.633,0.427-1.044,0.427
		c-0.421,0-0.778-0.143-1.071-0.427C450.915,47.4,450.769,47.051,450.769,46.64z"/>
</g>
<g>
	<path fill="#FFFFFF" d="M-597.42-670.932l-0.592,1.506c-0.289,0.473-0.984,0.871-2.089,1.187v1.39h2.445v11.609h2.13v-15.691
		H-597.42z"/>
	<path fill="#E3273D" d="M-600.101-666.85v-1.39c1.103-0.315,1.798-0.714,2.089-1.187l0.59-1.51h1.894v15.695h-2.13v-11.609
		H-600.101z M-610.274-649.285h27.247v-27.366h-27.247V-649.285z"/>
	<path fill="#FFFFFF" d="M-558.781-657.2h-5.236l3.269-4.765c0.604-0.995,1.063-1.949,1.379-2.854
		c0.315-0.905,0.472-1.754,0.472-2.539c0-1.051-0.342-1.918-1.024-2.598c-0.631-0.71-1.483-1.063-2.559-1.063
		c-1.629,0-2.743,0.589-3.348,1.769c-0.394,0.788-0.59,2.113-0.59,3.976l2.048-0.037v-1.183c0-0.838,0.117-1.487,0.354-1.949
		c0.236-0.458,0.695-0.687,1.378-0.687c0.474,0,0.86,0.188,1.162,0.57c0.302,0.379,0.453,0.83,0.453,1.355
		c0,1.468-1.03,3.736-3.09,6.804l-2.594,3.639l0.053,1.453h7.874V-657.2z"/>
	<path fill="#E0A938" d="M-566.655-655.312l-0.053-1.449l2.594-3.639c2.059-3.067,3.09-5.336,3.09-6.804
		c0-0.525-0.152-0.977-0.453-1.355c-0.303-0.383-0.688-0.57-1.162-0.57c-0.683,0-1.143,0.229-1.379,0.69
		c-0.235,0.458-0.353,1.107-0.353,1.945v1.183l-2.048,0.037c0-1.862,0.195-3.188,0.59-3.976c0.604-1.18,1.719-1.772,3.348-1.772
		c1.075,0,1.928,0.356,2.559,1.066c0.683,0.68,1.024,1.547,1.024,2.598c0,0.789-0.157,1.634-0.473,2.539
		c-0.314,0.904-0.774,1.858-1.378,2.854l-3.27,4.765h5.237v1.889H-566.655z M-576.106-649.285h27.248v-27.325h-27.248V-649.285z"/>
	<path fill="#FFFFFF" d="M-529.239-665.472c-0.104,0.067-0.302,0.191-0.593,0.375l0.199-3.785h4.968v-1.892h-6.782l-0.354,8.316
		h1.891c0.079-0.473,0.173-0.811,0.278-1.025c0.236-0.521,0.709-0.788,1.419-0.788c0.578,0,1.025,0.278,1.341,0.83
		c0.21,0.42,0.315,0.973,0.315,1.655v2.603c0,0.631-0.105,1.146-0.315,1.539c-0.289,0.553-0.725,0.826-1.302,0.826
		c-0.814,0-1.354-0.368-1.616-1.104c-0.105-0.315-0.165-0.694-0.177-1.142c-0.015-0.447-0.022-0.804-0.022-1.066h-2.048v1.146
		c0,1.156,0.315,2.121,0.946,2.898c0.629,0.773,1.524,1.16,2.681,1.16c1.392,0,2.42-0.421,3.077-1.262
		c0.576-0.735,0.867-1.824,0.867-3.271v-2.564c0-1.051-0.212-1.945-0.631-2.681c-0.527-0.867-1.291-1.303-2.288-1.303
		c-0.395,0-0.775,0.075-1.144,0.218C-528.897-665.641-529.135-665.536-529.239-665.472"/>
	<path fill="#E94631" d="M-525.333-656.187c-0.657,0.841-1.686,1.262-3.077,1.262c-1.156,0-2.052-0.387-2.681-1.16
		c-0.631-0.777-0.946-1.742-0.946-2.898v-1.146h2.048c0,0.263,0.008,0.619,0.021,1.066c0.013,0.447,0.072,0.826,0.178,1.142
		c0.263,0.735,0.802,1.104,1.616,1.104c0.577,0,1.013-0.273,1.302-0.826c0.21-0.397,0.315-0.908,0.315-1.539v-2.603
		c0-0.683-0.105-1.235-0.315-1.655c-0.315-0.552-0.763-0.826-1.341-0.826c-0.71,0-1.183,0.263-1.419,0.784
		c-0.105,0.211-0.199,0.553-0.278,1.025h-1.891l0.354-8.32h6.782v1.896h-4.968l-0.199,3.785c0.291-0.184,0.488-0.312,0.593-0.375
		c0.104-0.064,0.34-0.173,0.71-0.315c0.368-0.143,0.749-0.218,1.144-0.218c0.997,0,1.761,0.436,2.288,1.303
		c0.419,0.735,0.631,1.63,0.631,2.681v2.564C-524.466-658.011-524.757-656.922-525.333-656.187 M-541.936-649.285h27.248v-27.366
		h-27.248V-649.285z"/>
	<path fill="#FFFFFF" d="M-495.557-662.555c0.326-0.405,0.829-0.608,1.511-0.608c0.498,0,0.911,0.162,1.237,0.492
		c0.331,0.326,0.494,0.777,0.494,1.355v1.689c0,0.894-0.092,1.521-0.276,1.889c-0.236,0.575-0.76,0.864-1.571,0.864
		c-0.76,0-1.266-0.309-1.515-0.924c-0.248-0.616-0.374-1.371-0.374-2.261C-496.051-661.315-495.888-662.149-495.557-662.555
		 M-495.893-664.067v-2.242c0-0.916,0.1-1.663,0.294-2.241c0.199-0.575,0.716-0.864,1.553-0.864c0.684,0,1.182,0.252,1.495,0.759
		c0.133,0.188,0.275,0.759,0.434,1.716h1.847c-0.104-0.732-0.236-1.374-0.39-1.926c-0.158-0.549-0.327-0.942-0.509-1.18
		c-0.524-0.731-1.5-1.1-2.935-1.1c-1.276,0-2.238,0.405-2.876,1.22c-0.639,0.812-0.958,1.912-0.958,3.301v6.842
		c0,1.494,0.25,2.621,0.747,3.383c0.629,0.916,1.666,1.374,3.107,1.374c1.231,0,2.174-0.432,2.829-1.295
		c0.657-0.867,0.983-1.927,0.983-3.185c0-1.626-0.131-2.793-0.394-3.499c-0.445-1.206-1.349-1.811-2.711-1.811
		c-0.474,0-0.894,0.068-1.26,0.195C-495.001-664.541-495.422-664.356-495.893-664.067"/>
	<path fill="#2FBBE0" d="M-495.557-662.555c-0.331,0.405-0.494,1.239-0.494,2.497c0,0.89,0.126,1.645,0.374,2.261
		c0.249,0.615,0.755,0.924,1.515,0.924c0.812,0,1.335-0.289,1.571-0.864c0.185-0.368,0.276-0.995,0.276-1.889v-1.689
		c0-0.578-0.163-1.029-0.494-1.355c-0.326-0.33-0.739-0.496-1.237-0.496C-494.728-663.167-495.231-662.96-495.557-662.555
		 M-497.191-656.4c-0.497-0.762-0.747-1.889-0.747-3.383v-6.842c0-1.389,0.319-2.489,0.958-3.301c0.638-0.814,1.6-1.22,2.876-1.22
		c1.435,0,2.41,0.368,2.935,1.1c0.182,0.237,0.351,0.631,0.509,1.18c0.153,0.552,0.285,1.193,0.39,1.926h-1.847
		c-0.158-0.957-0.305-1.528-0.434-1.716c-0.313-0.507-0.812-0.759-1.495-0.759c-0.837,0-1.354,0.289-1.553,0.864
		c-0.194,0.578-0.294,1.325-0.294,2.241v2.242c0.471-0.289,0.892-0.474,1.258-0.553c0.366-0.127,0.786-0.195,1.26-0.195
		c1.362,0,2.266,0.602,2.711,1.807c0.263,0.71,0.394,1.877,0.394,3.499c0,1.262-0.326,2.321-0.983,3.188
		c-0.655,0.863-1.598,1.295-2.829,1.295C-495.525-655.026-496.562-655.484-497.191-656.4 M-507.766-649.285h27.247v-27.366h-27.247
		V-649.285z"/>
	<path fill="#FFFFFF" d="M-463.938-668.885h5.403c-0.527,1.13-0.993,2.223-1.4,3.273c-0.407,1.052-0.796,2.129-1.164,3.233
		c-0.525,1.84-1.051,4.221-1.577,7.138h2.169c0.184-1.445,0.381-2.748,0.591-3.905c0.211-1.156,0.46-2.286,0.751-3.391
		c0.789-3.049,1.787-5.245,2.997-6.586v-1.655h-7.77V-668.885z"/>
	<path fill="#F8C21B" d="M-463.938-668.882v-1.896h7.77v1.659c-1.21,1.341-2.208,3.533-2.997,6.582
		c-0.291,1.108-0.54,2.238-0.751,3.395c-0.21,1.157-0.407,2.456-0.591,3.901h-2.169c0.526-2.917,1.052-5.294,1.577-7.138
		c0.368-1.104,0.757-2.182,1.164-3.233c0.407-1.047,0.873-2.14,1.4-3.271H-463.938z M-473.599-649.285h27.249v-27.287h-27.249
		V-649.285z"/>
	<path fill="#FFFFFF" d="M-423.622-659.742c0,1.258-0.169,2.062-0.503,2.418c-0.335,0.354-0.834,0.529-1.502,0.529
		c-0.924,0-1.502-0.446-1.731-1.336l-0.236-1.574c0-1.021,0.079-1.757,0.236-2.2c0.289-0.735,0.877-1.104,1.769-1.104
		c0.813,0,1.376,0.356,1.689,1.063C-423.715-661.395-423.622-660.662-423.622-659.742 M-423.937-666.861
		c0,0.71-0.107,1.221-0.315,1.536c-0.289,0.442-0.747,0.668-1.374,0.668c-1.157,0-1.731-0.684-1.731-2.047
		c0-0.811,0.098-1.449,0.293-1.907c0.197-0.458,0.689-0.687,1.476-0.687c0.601,0,1.061,0.247,1.376,0.747
		C-424.031-668.131-423.937-667.567-423.937-666.861 M-423.505-663.715c0.68-0.395,1.134-0.845,1.357-1.355
		c0.22-0.511,0.332-1.228,0.332-2.145c0-2.516-1.295-3.773-3.89-3.773c-1.339,0-2.31,0.342-2.912,1.021
		c-0.55,0.684-0.824,1.716-0.824,3.105c0,0.736,0.09,1.284,0.274,1.652c0.184,0.368,0.615,0.784,1.299,1.258
		c-0.867,0.657-1.391,1.197-1.573,1.633c-0.184,0.433-0.274,1.304-0.274,2.613c0,1.548,0.233,2.674,0.706,3.384
		c0.575,0.811,1.626,1.217,3.146,1.217c1.729,0,2.884-0.38,3.459-1.142c0.576-0.759,0.867-2.043,0.867-3.853
		c0-1.021-0.107-1.795-0.315-2.32C-422.064-662.941-422.616-663.373-423.505-663.715"/>
	<path fill="#A31C45" d="M-425.626-664.657c0.627,0,1.085-0.226,1.374-0.668c0.208-0.315,0.315-0.826,0.315-1.536
		c0-0.706-0.094-1.27-0.276-1.689c-0.315-0.496-0.771-0.747-1.376-0.747c-0.786,0-1.278,0.229-1.476,0.687
		c-0.195,0.458-0.293,1.097-0.293,1.907C-427.358-665.341-426.784-664.657-425.626-664.657 M-427.358-661.905
		c-0.157,0.447-0.236,1.18-0.236,2.2l0.236,1.574c0.229,0.89,0.808,1.336,1.731,1.336c0.668,0,1.167-0.176,1.502-0.533
		c0.334-0.353,0.503-1.156,0.503-2.414c0-0.916-0.094-1.652-0.276-2.204c-0.315-0.706-0.879-1.063-1.691-1.063
		C-426.483-663.009-427.069-662.641-427.358-661.905 M-421.853-662.416c0.208,0.522,0.315,1.296,0.315,2.321
		c0,1.806-0.291,3.09-0.867,3.853c-0.575,0.758-1.729,1.138-3.459,1.138c-1.521,0-2.571-0.406-3.146-1.217
		c-0.473-0.71-0.706-1.836-0.706-3.384c0-1.31,0.091-2.181,0.274-2.613c0.183-0.432,0.706-0.976,1.573-1.633
		c-0.684-0.47-1.115-0.89-1.299-1.258c-0.185-0.368-0.274-0.916-0.274-1.652c0-1.39,0.274-2.422,0.824-3.105
		c0.603-0.68,1.571-1.021,2.912-1.021c2.595,0,3.89,1.258,3.89,3.773c0,0.917-0.112,1.634-0.332,2.145
		c-0.224,0.511-0.678,0.965-1.357,1.355C-422.616-663.373-422.064-662.941-421.853-662.416 M-439.429-649.285h27.247v-27.287
		h-27.247V-649.285z"/>
	<path fill="#FFFFFF" d="M-389.825-665.979c0,1.231-0.165,2.054-0.493,2.459c-0.329,0.405-0.836,0.612-1.518,0.612
		c-0.707,0-1.181-0.263-1.417-0.789c-0.105-0.289-0.184-0.586-0.236-0.886c-0.051-0.301-0.079-0.691-0.079-1.16v-0.672
		c0-0.575,0.015-0.992,0.041-1.239c0.026-0.248,0.138-0.604,0.334-1.063c0.195-0.459,0.689-0.691,1.477-0.691
		c0.841,0,1.404,0.395,1.695,1.183c0.078,0.236,0.129,0.5,0.157,0.789C-389.839-667.146-389.825-666.662-389.825-665.979
		 M-389.825-662.123v2.021c0,0.954-0.082,1.667-0.24,2.144c-0.236,0.771-0.78,1.153-1.631,1.153c-0.742,0-1.241-0.207-1.493-0.62
		c-0.251-0.413-0.379-1.047-0.379-1.899h-1.968c0,1.378,0.274,2.429,0.822,3.157c0.549,0.729,1.476,1.093,2.782,1.093
		c1.408,0,2.438-0.379,3.075-1.142c0.639-0.758,0.962-1.851,0.962-3.267v-6.694c0-1.573-0.211-2.73-0.627-3.466
		c-0.264-0.443-0.646-0.8-1.157-1.063c-0.509-0.263-1.116-0.395-1.82-0.395c-1.386,0-2.419,0.395-3.097,1.179
		c-0.627,0.785-0.94,1.896-0.94,3.335c0,1.592,0.132,2.74,0.396,3.45c0.448,1.229,1.323,1.844,2.619,1.844
		c0.446,0,0.91-0.079,1.386-0.236L-389.825-662.123z"/>
	<path fill="#ED6B30" d="M-393.193-668.716c-0.196,0.458-0.308,0.814-0.334,1.063c-0.026,0.247-0.041,0.664-0.041,1.239v0.672
		c0,0.469,0.028,0.859,0.079,1.16c0.053,0.3,0.131,0.597,0.236,0.886c0.236,0.526,0.71,0.789,1.417,0.789
		c0.682,0,1.188-0.203,1.518-0.612c0.328-0.405,0.493-1.225,0.493-2.459c0-0.684-0.015-1.168-0.041-1.457s-0.079-0.553-0.155-0.789
		c-0.291-0.788-0.854-1.183-1.695-1.183C-392.503-669.407-392.998-669.175-393.193-668.716 M-394.713-656.164
		c-0.548-0.729-0.822-1.783-0.822-3.161h1.968c0,0.853,0.126,1.486,0.379,1.899c0.252,0.413,0.748,0.62,1.493,0.62
		c0.851,0,1.395-0.383,1.631-1.153c0.158-0.477,0.24-1.189,0.24-2.144v-2.021l-1.31,0.594c-0.476,0.157-0.939,0.236-1.386,0.236
		c-1.296,0-2.171-0.615-2.619-1.844c-0.265-0.706-0.396-1.854-0.396-3.45c0-1.438,0.313-2.55,0.94-3.335
		c0.678-0.784,1.711-1.179,3.097-1.179c0.704,0,1.31,0.135,1.819,0.395c0.508,0.267,0.895,0.619,1.154,1.066
		c0.42,0.731,0.631,1.889,0.631,3.462v6.694c0,1.42-0.323,2.509-0.962,3.267c-0.642,0.763-1.667,1.142-3.075,1.142
		C-393.238-655.075-394.165-655.436-394.713-656.164 M-405.26-649.285h27.247v-27.325h-27.247V-649.285z"/>
	<path fill="#FFFFFF" d="M-363.02-670.864l-0.671,1.536c-0.263,0.473-0.969,0.867-2.125,1.183v1.299h2.56v11.576h1.891v-15.594
		H-363.02z M-353.766-660.625h-3.684l3.644-7.727L-353.766-660.625z M-351.916-655.271v-3.66h1.416v-1.694h-1.416v-10.119h-2.351
		l-4.854,10.236v1.577h5.354v3.66H-351.916z"/>
	<path fill="#2395D3" d="M-357.45-660.625h3.684l-0.04-7.724L-357.45-660.625z M-359.121-658.931v-1.573l4.854-10.24h2.351v10.119
		h1.416v1.694h-1.416v3.66h-1.851v-3.66H-359.121z M-365.816-666.847v-1.299c1.156-0.315,1.862-0.71,2.125-1.183l0.671-1.536h1.654
		v15.594h-1.891v-11.576H-365.816z M-371.093-649.285h27.247v-27.325h-27.247V-649.285z"/>
	<path fill="#FFFFFF" d="M-316.368-668.855v-1.753h-6.819l-0.31,8.17H-322l0.71-1.142c0.315-0.39,0.721-0.589,1.221-0.589
		c0.603,0,1.063,0.21,1.378,0.631c0.261,0.446,0.394,0.983,0.394,1.614v2.914c0,0.684-0.12,1.22-0.353,1.614
		c-0.265,0.342-0.725,0.511-1.38,0.511c-0.657,0-1.117-0.248-1.378-0.747c-0.107-0.263-0.187-0.545-0.236-0.849
		c-0.055-0.301-0.079-0.676-0.079-1.119v-0.515h-2.049v1.112c0,1.321,0.309,2.343,0.926,3.056c0.618,0.714,1.583,1.07,2.896,1.07
		c1.47,0,2.521-0.593,3.148-1.779c0.42-0.92,0.631-2.212,0.631-3.872v-1.779c0-0.973-0.222-1.803-0.669-2.489
		c-0.525-0.789-1.262-1.183-2.204-1.183c-0.473,0-0.906,0.071-1.301,0.214c-0.395,0.146-0.802,0.375-1.221,0.69l0.315-3.781
		H-316.368z M-326.96-655.191v-15.417h-1.968c-0.214,0.8-0.428,1.355-0.651,1.577c-0.25,0.251-0.873,0.533-1.872,0.845v1.34h2.403
		v11.655H-326.96z"/>
	<path fill="#62B146" d="M-322.845-655.95c-0.617-0.709-0.926-1.73-0.926-3.052v-1.112h2.049v0.515c0,0.443,0.024,0.818,0.075,1.119
		c0.054,0.304,0.133,0.586,0.236,0.849c0.263,0.499,0.725,0.747,1.378,0.747c0.657,0,1.115-0.169,1.38-0.511
		c0.236-0.395,0.353-0.931,0.353-1.614v-2.914c0-0.631-0.129-1.168-0.392-1.614c-0.315-0.421-0.773-0.631-1.378-0.631
		c-0.5,0-0.905,0.195-1.221,0.589l-0.71,1.142h-1.494l0.315-8.268h6.812v1.851h-4.886l-0.315,3.781
		c0.421-0.315,0.83-0.544,1.221-0.69c0.395-0.143,0.83-0.214,1.301-0.214c0.944,0,1.681,0.394,2.206,1.183
		c0.445,0.687,0.669,1.517,0.669,2.489v1.779c0,1.66-0.211,2.952-0.629,3.875c-0.631,1.184-1.681,1.776-3.152,1.776
		C-321.266-654.876-322.231-655.232-322.845-655.95 M-331.45-666.847v-1.337c0.997-0.314,1.62-0.601,1.868-0.848
		c0.252-0.248,0.496-0.86,0.729-1.833h1.893v15.673h-2.088v-11.655H-331.45z M-336.922-649.285h27.247v-27.325h-27.247V-649.285z"/>
	<path fill="#62B146" d="M-699.694-693.152c1.209-2.058,2.676-3.943,4.362-5.614l-14.31-15.686
		c-3.598,3.436-6.67,7.425-9.088,11.822L-699.694-693.152z"/>
	<path fill="#E0A938" d="M-664.577-704.242c2.168,0.992,4.181,2.257,6,3.759l14.348-15.665c-3.777-3.261-8.061-5.948-12.716-7.936
		L-664.577-704.242z"/>
	<path fill="#C7C8C9" d="M-631.701-699.509l-19.019,9.483c0.908,2.118,1.552,4.369,1.9,6.717l21.162-1.998
		C-628.285-690.315-629.67-695.089-631.701-699.509"/>
	<path fill="#C7C8C9" d="M-652.09-692.782l19.016-9.479c-2.355-4.376-5.356-8.354-8.888-11.8l-14.347,15.664
		C-654.677-696.719-653.253-694.834-652.09-692.782"/>
	<path fill="#C7C8C9" d="M-703.481-679.248c0-0.426,0.013-0.858,0.034-1.281l-21.163-1.894c-0.071,1.049-0.106,2.108-0.106,3.175
		c0,4.059,0.5,8,1.44,11.767l20.438-5.862C-703.255-675.245-703.481-677.222-703.481-679.248"/>
	<path fill="#F8C21B" d="M-654.755-661.838c-1.503,1.833-3.24,3.466-5.162,4.855l11.17,18.091c4.149-2.813,7.842-6.24,10.943-10.16
		L-654.755-661.838z"/>
	<path fill="#E94631" d="M-648.523-679.248c0,2.005-0.213,3.958-0.627,5.837l20.438,5.869c0.932-3.751,1.43-7.672,1.43-11.707
		c0-1.001-0.037-1.998-0.096-2.989l-21.159,2.001C-648.527-679.905-648.523-679.578-648.523-679.248"/>
	<path fill="#C7C8C9" d="M-696.904-661.436l-16.913,12.856c3.147,3.875,6.873,7.251,11.047,10.007l11.166-18.068
		C-693.565-658.004-695.355-659.618-696.904-661.436"/>
	<path fill="#2395D3" d="M-703.14-683.596c0.38-2.388,1.075-4.675,2.026-6.813l-19.011-9.472c-2.102,4.468-3.542,9.307-4.195,14.387
		L-703.14-683.596z"/>
	<path fill="#A31C45" d="M-651.354-637.247l-11.153-18.072c-2.03,1.146-4.214,2.047-6.515,2.651l3.94,20.899
		C-660.186-632.895-655.567-634.761-651.354-637.247"/>
	<path fill="#2FBBE0" d="M-649.965-670.439c-0.74,2.174-1.741,4.224-2.972,6.112l16.97,12.801c2.755-3.962,4.931-8.348,6.421-13.045
		L-649.965-670.439z"/>
	<path fill="#ED6B30" d="M-672.045-652.06c-1.29,0.188-2.608,0.289-3.957,0.289c-1.081,0-2.145-0.067-3.194-0.188l-3.934,20.899
		c2.33,0.342,4.708,0.521,7.128,0.521c2.688,0,5.322-0.222,7.89-0.638L-672.045-652.06z"/>
	<path fill="#E3273D" d="M-674.239-706.677c2.359,0.154,4.639,0.603,6.796,1.31l7.626-19.835c-4.539-1.603-9.383-2.557-14.422-2.729
		V-706.677z"/>
	<path fill="#C7C8C9" d="M-682.235-652.484c-2.379-0.556-4.639-1.419-6.736-2.549l-11.175,18.079c4.298,2.464,9,4.284,13.984,5.347
		L-682.235-652.484z"/>
	<path fill="#C7C8C9" d="M-684.255-705.464c2.203-0.694,4.523-1.121,6.934-1.233v-21.25c-5.112,0.133-10.016,1.066-14.619,2.662
		L-684.255-705.464z"/>
	<path fill="#C7C8C9" d="M-698.769-663.884c-1.347-1.986-2.449-4.172-3.239-6.488l-20.425,5.861
		c1.546,4.87,3.839,9.406,6.749,13.483L-698.769-663.884z"/>
	<path fill="#C7C8C9" d="M-693.025-700.81c1.792-1.421,3.771-2.619,5.887-3.562l-7.679-19.813
		c-4.575,1.922-8.788,4.521-12.523,7.671L-693.025-700.81z"/>
</g>
<g>
	<path fill="#FFFFFF" d="M-601.093-785.01l-0.6,1.527c-0.293,0.483-1,0.885-2.119,1.207v1.406h2.479v11.776h2.161v-15.917H-601.093z
		"/>
	<path fill="#E3273D" d="M-603.812-780.869v-1.406c1.12-0.322,1.826-0.724,2.119-1.207l0.602-1.525h1.917v15.915h-2.159v-11.776
		H-603.812z M-614.129-763.056h27.632v-27.754h-27.632V-763.056z"/>
	<path fill="#FFFFFF" d="M-561.908-771.082h-5.311l3.314-4.831c0.611-1.011,1.078-1.976,1.398-2.896
		c0.319-0.918,0.479-1.776,0.479-2.576c0-1.064-0.349-1.942-1.04-2.635c-0.64-0.718-1.506-1.076-2.595-1.076
		c-1.65,0-2.781,0.598-3.395,1.796c-0.4,0.798-0.598,2.142-0.598,4.032l2.075-0.04v-1.197c0-0.852,0.119-1.51,0.359-1.977
		s0.705-0.699,1.397-0.699c0.48,0,0.872,0.192,1.177,0.577c0.307,0.387,0.461,0.846,0.461,1.377c0,1.49-1.045,3.789-3.132,6.897
		l-2.632,3.694l0.054,1.47h7.985V-771.082z"/>
	<path fill="#E0A938" d="M-569.893-769.163l-0.054-1.472l2.63-3.692c2.089-3.11,3.134-5.41,3.134-6.899
		c0-0.531-0.154-0.99-0.461-1.377c-0.305-0.385-0.696-0.577-1.177-0.577c-0.692,0-1.157,0.234-1.397,0.699s-0.359,1.125-0.359,1.977
		v1.199l-2.075,0.038c0-1.889,0.197-3.234,0.598-4.032c0.613-1.198,1.742-1.796,3.395-1.796c1.089,0,1.955,0.358,2.595,1.078
		c0.691,0.69,1.04,1.57,1.04,2.633c0,0.8-0.16,1.658-0.479,2.578c-0.32,0.918-0.787,1.883-1.399,2.894l-3.313,4.833h5.311v1.917
		H-569.893z M-579.478-763.054h27.632v-27.712h-27.632V-763.054z"/>
	<path fill="#FFFFFF" d="M-531.95-779.472c-0.106,0.067-0.306,0.194-0.602,0.381l0.202-3.84h5.038v-1.919h-6.879l-0.358,8.438h1.918
		c0.079-0.48,0.175-0.827,0.281-1.04c0.24-0.533,0.72-0.8,1.439-0.8c0.586,0,1.039,0.28,1.359,0.84
		c0.213,0.427,0.32,0.984,0.32,1.68v2.637c0,0.642-0.107,1.161-0.32,1.562c-0.293,0.56-0.735,0.839-1.319,0.839
		c-0.826,0-1.375-0.371-1.64-1.119c-0.106-0.32-0.167-0.704-0.179-1.159c-0.016-0.453-0.021-0.813-0.021-1.08h-2.079v1.159
		c0,1.175,0.319,2.154,0.959,2.94s1.546,1.181,2.719,1.181c1.413,0,2.452-0.427,3.121-1.28c0.584-0.746,0.878-1.853,0.878-3.32
		v-2.599c0-1.066-0.214-1.973-0.639-2.719c-0.534-0.88-1.31-1.319-2.32-1.319c-0.4,0-0.788,0.072-1.16,0.219
		C-531.603-779.645-531.844-779.538-531.95-779.472"/>
	<path fill="#E94631" d="M-527.991-770.053c-0.667,0.854-1.706,1.278-3.119,1.278c-1.173,0-2.079-0.391-2.719-1.179
		c-0.64-0.786-0.959-1.766-0.959-2.938v-1.161h2.077c0,0.269,0.005,0.627,0.022,1.082c0.012,0.451,0.072,0.837,0.179,1.159
		c0.265,0.746,0.813,1.119,1.64,1.119c0.584,0,1.026-0.281,1.319-0.841c0.213-0.398,0.32-0.92,0.32-1.56v-2.639
		c0-0.693-0.107-1.253-0.32-1.68c-0.32-0.56-0.773-0.84-1.359-0.84c-0.72,0-1.199,0.267-1.439,0.8
		c-0.106,0.213-0.202,0.562-0.281,1.04h-1.918l0.358-8.437h6.879v1.917h-5.038l-0.202,3.838c0.296-0.185,0.493-0.31,0.602-0.377
		c0.105-0.066,0.347-0.173,0.72-0.319c0.372-0.146,0.76-0.221,1.16-0.221c1.013,0,1.786,0.439,2.318,1.319
		c0.427,0.748,0.641,1.654,0.641,2.719v2.601C-527.111-771.905-527.405-770.799-527.991-770.053 M-544.828-763.056h27.632v-27.754
		h-27.632V-763.056z"/>
	<path fill="#FFFFFF" d="M-494.144-773.66c0,1.275-0.17,2.092-0.509,2.452c-0.341,0.357-0.847,0.539-1.523,0.539
		c-0.938,0-1.522-0.453-1.757-1.355l-0.24-1.596c0-1.038,0.08-1.78,0.24-2.233c0.293-0.745,0.889-1.116,1.793-1.116
		c0.825,0,1.396,0.358,1.716,1.076C-494.238-775.336-494.144-774.592-494.144-773.66 M-494.464-780.878
		c0,0.718-0.106,1.237-0.319,1.555c-0.294,0.454-0.756,0.679-1.394,0.679c-1.174,0-1.756-0.691-1.756-2.074
		c0-0.824,0.099-1.468,0.299-1.934c0.198-0.465,0.697-0.697,1.494-0.697c0.611,0,1.078,0.253,1.396,0.758
		C-494.557-782.167-494.464-781.596-494.464-780.878 M-494.026-777.688c0.69-0.399,1.149-0.858,1.376-1.376
		c0.225-0.519,0.337-1.242,0.337-2.173c0-2.553-1.313-3.829-3.944-3.829c-1.357,0-2.34,0.347-2.953,1.038
		c-0.557,0.693-0.836,1.74-0.836,3.149c0,0.744,0.091,1.304,0.279,1.675c0.186,0.374,0.623,0.798,1.316,1.276
		c-0.878,0.664-1.411,1.216-1.596,1.654c-0.187,0.439-0.278,1.323-0.278,2.652c0,1.568,0.238,2.711,0.718,3.429
		c0.583,0.824,1.647,1.237,3.189,1.237c1.753,0,2.924-0.387,3.509-1.157c0.583-0.771,0.878-2.073,0.878-3.909
		c0-1.035-0.106-1.82-0.32-2.352C-492.564-776.903-493.124-777.343-494.026-777.688"/>
	<path fill="#A31C45" d="M-496.179-778.645c0.638,0,1.104-0.227,1.396-0.679c0.213-0.319,0.319-0.837,0.319-1.557
		c0-0.716-0.093-1.287-0.277-1.714c-0.32-0.505-0.787-0.758-1.396-0.758c-0.797,0-1.296,0.234-1.496,0.699
		c-0.198,0.464-0.301,1.109-0.301,1.933C-497.935-779.338-497.349-778.645-496.179-778.645 M-497.935-775.855
		c-0.156,0.453-0.236,1.197-0.236,2.235l0.236,1.594c0.236,0.906,0.822,1.355,1.759,1.355c0.677,0,1.185-0.18,1.523-0.539
		c0.337-0.358,0.507-1.175,0.507-2.452c0-0.93-0.094-1.674-0.278-2.231c-0.317-0.718-0.891-1.076-1.714-1.076
		C-497.044-776.97-497.642-776.599-497.935-775.855 M-492.351-776.372c0.214,0.529,0.318,1.314,0.318,2.352
		c0,1.834-0.291,3.136-0.878,3.909c-0.584,0.77-1.754,1.155-3.507,1.155c-1.542,0-2.606-0.413-3.191-1.235
		c-0.478-0.72-0.718-1.862-0.718-3.429c0-1.331,0.094-2.213,0.278-2.652c0.188-0.438,0.72-0.99,1.598-1.654
		c-0.691-0.479-1.131-0.902-1.316-1.278c-0.187-0.371-0.281-0.929-0.281-1.675c0-1.407,0.281-2.458,0.84-3.147
		c0.609-0.693,1.594-1.038,2.949-1.038c2.631,0,3.948,1.276,3.948,3.827c0,0.932-0.114,1.654-0.339,2.175
		c-0.227,0.518-0.686,0.977-1.374,1.376C-493.122-777.343-492.564-776.904-492.351-776.372 M-510.173-763.054h27.632v-27.674
		h-27.632V-763.054z"/>
	<path fill="#FFFFFF" d="M-459.87-779.985c0,1.253-0.165,2.083-0.5,2.496c-0.334,0.413-0.846,0.619-1.537,0.619
		c-0.718,0-1.197-0.267-1.438-0.798c-0.106-0.294-0.187-0.593-0.239-0.899c-0.054-0.304-0.08-0.698-0.08-1.178v-0.68
		c0-0.585,0.013-1.004,0.04-1.257c0.026-0.253,0.139-0.613,0.341-1.078c0.197-0.466,0.696-0.7,1.496-0.7
		c0.853,0,1.424,0.399,1.718,1.199c0.079,0.24,0.133,0.507,0.159,0.798C-459.884-781.17-459.87-780.677-459.87-779.985
		 M-459.87-776.071v2.047c0,0.968-0.082,1.693-0.241,2.175c-0.242,0.778-0.794,1.169-1.656,1.169c-0.753,0-1.257-0.209-1.512-0.628
		c-0.256-0.419-0.385-1.063-0.385-1.927h-1.998c0,1.397,0.28,2.465,0.836,3.204c0.555,0.738,1.497,1.108,2.82,1.108
		c1.43,0,2.471-0.387,3.118-1.16c0.649-0.771,0.976-1.875,0.976-3.313v-6.79c0-1.597-0.214-2.768-0.637-3.513
		c-0.265-0.453-0.654-0.813-1.171-1.079c-0.518-0.265-1.133-0.398-1.849-0.398c-1.405,0-2.45,0.398-3.14,1.192
		c-0.636,0.796-0.954,1.923-0.954,3.381c0,1.619,0.136,2.786,0.402,3.5c0.457,1.247,1.342,1.869,2.656,1.869
		c0.455,0,0.923-0.08,1.404-0.239L-459.87-776.071z"/>
	<path fill="#ED6B30" d="M-463.285-782.762c-0.198,0.467-0.313,0.825-0.339,1.08c-0.025,0.253-0.04,0.672-0.04,1.257v0.678
		c0,0.479,0.026,0.874,0.08,1.179c0.053,0.308,0.133,0.605,0.239,0.898c0.24,0.535,0.718,0.8,1.438,0.8
		c0.691,0,1.205-0.208,1.538-0.621c0.332-0.411,0.499-1.243,0.499-2.496c0-0.691-0.013-1.183-0.04-1.476
		c-0.028-0.293-0.08-0.56-0.159-0.8c-0.294-0.798-0.866-1.197-1.72-1.197C-462.584-783.46-463.085-783.226-463.285-782.762
		 M-464.826-770.033c-0.558-0.739-0.834-1.805-0.834-3.202h1.996c0,0.864,0.127,1.506,0.383,1.925
		c0.257,0.419,0.759,0.63,1.515,0.63c0.859,0,1.411-0.391,1.653-1.169c0.161-0.483,0.243-1.207,0.243-2.175v-2.047l-1.327,0.599
		c-0.483,0.159-0.951,0.239-1.408,0.239c-1.314,0-2.199-0.624-2.652-1.869c-0.271-0.716-0.402-1.883-0.402-3.5
		c0-1.458,0.318-2.585,0.954-3.381c0.688-0.796,1.732-1.192,3.136-1.192c0.716,0,1.333,0.132,1.849,0.398
		c0.517,0.267,0.906,0.626,1.171,1.079c0.425,0.745,0.637,1.916,0.637,3.513v6.79c0,1.436-0.324,2.542-0.974,3.313
		c-0.649,0.773-1.688,1.16-3.118,1.16C-463.331-768.923-464.269-769.295-464.826-770.033 M-475.524-763.054h27.634v-27.712h-27.634
		V-763.054z"/>
	<path fill="#FFFFFF" d="M-431.701-784.907l-0.598,1.56c-0.293,0.479-0.997,0.88-2.113,1.199v1.359h2.432v11.793h2.153v-15.911
		H-431.701z M-424.165-784.907c-0.24,0.958-0.499,1.576-0.776,1.854c-0.28,0.28-0.912,0.579-1.895,0.896v1.358h2.511v11.802h2.075
		v-15.911H-424.165z"/>
	<path fill="#F99E27" d="M-426.835-780.8v-1.354c0.982-0.319,1.614-0.618,1.895-0.896c0.277-0.28,0.538-0.896,0.776-1.854h1.913
		v15.909h-2.071V-780.8H-426.835z M-434.414-780.787v-1.359c1.118-0.319,1.822-0.722,2.113-1.201l0.6-1.558h1.874v15.909h-2.153
		v-11.791H-434.414z M-440.872-763.054h27.632v-27.674h-27.632V-763.054z"/>
	<path fill="#FFFFFF" d="M-398.075-785.058c-0.319,0.988-0.611,1.615-0.878,1.881c-0.267,0.269-0.906,0.573-1.915,0.924v1.359h2.436
		v11.809h2.115v-15.893L-398.075-785.058z M-385.575-771.003h-5.17l3.186-4.94c1.215-2.159,1.824-3.958,1.824-5.397
		c0-1.091-0.345-1.984-1.038-2.677c-0.692-0.693-1.598-1.04-2.715-1.04c-1.572,0-2.675,0.613-3.314,1.838
		c-0.4,0.851-0.598,2.195-0.598,4.032l2.035,0.04l-0.04-1.156c0-0.801,0.091-1.426,0.279-1.879c0.292-0.664,0.785-0.998,1.478-0.998
		c0.56,0,0.984,0.188,1.277,0.559c0.318,0.319,0.479,0.786,0.479,1.397c0,0.613-0.112,1.266-0.339,1.957
		c-0.227,0.693-0.539,1.331-0.937,1.917l-4.353,6.75l-0.002,1.516h7.947V-771.003z"/>
	<path fill="#BE8B2C" d="M-393.522-769.083l0.002-1.518l4.351-6.75c0.399-0.584,0.712-1.224,0.938-1.917
		c0.227-0.691,0.339-1.342,0.339-1.957c0-0.611-0.16-1.078-0.479-1.396c-0.293-0.373-0.719-0.561-1.279-0.561
		c-0.69,0-1.184,0.334-1.478,0.998c-0.185,0.453-0.277,1.08-0.277,1.876l0.038,1.159l-2.035-0.04c0-1.835,0.199-3.182,0.6-4.032
		c0.64-1.225,1.742-1.838,3.313-1.838c1.119,0,2.024,0.347,2.717,1.04c0.691,0.692,1.038,1.586,1.038,2.679
		c0,1.438-0.607,3.238-1.822,5.396l-3.188,4.942h5.17v1.918H-393.522z M-400.87-780.894v-1.363c1.013-0.347,1.65-0.653,1.917-0.92
		c0.265-0.266,0.561-0.893,0.88-1.881l1.756,0.08v15.895h-2.117v-11.811H-400.87z M-406.221-763.054h27.634v-27.712h-27.634
		V-763.054z"/>
	<path fill="#FFFFFF" d="M-363.382-784.938l-0.678,1.56c-0.269,0.478-0.986,0.878-2.157,1.197v1.319h2.595v11.738h1.917v-15.814
		H-363.382z M-354-774.556h-3.736l3.698-7.832L-354-774.556z M-352.121-769.123v-3.715h1.436v-1.718h-1.436v-10.262h-2.384
		l-4.924,10.382v1.598H-354v3.715H-352.121z"/>
	<path fill="#2395D3" d="M-357.736-774.556H-354l-0.038-7.832L-357.736-774.556z M-359.43-772.838v-1.598l4.926-10.382h2.382v10.262
		h1.438v1.718h-1.438v3.713H-354v-3.713H-359.43z M-366.217-780.863v-1.319c1.171-0.319,1.889-0.718,2.155-1.197l0.68-1.558h1.675
		v15.813h-1.915v-11.738H-366.217z M-371.568-763.054h27.632v-27.712h-27.632V-763.054z"/>
	<path fill="#FFFFFF" d="M-316.072-782.9v-1.778h-6.913l-0.315,8.286h1.52l0.716-1.157c0.319-0.4,0.732-0.6,1.239-0.6
		c0.611,0,1.077,0.213,1.397,0.64c0.265,0.453,0.399,0.997,0.399,1.637v2.955c0,0.693-0.121,1.237-0.359,1.64
		c-0.267,0.345-0.733,0.516-1.397,0.516c-0.667,0-1.133-0.251-1.397-0.758c-0.106-0.267-0.187-0.552-0.24-0.858
		c-0.055-0.307-0.08-0.686-0.08-1.139v-0.518h-2.075v1.125c0,1.342,0.311,2.374,0.937,3.1c0.627,0.726,1.605,1.085,2.937,1.085
		c1.488,0,2.557-0.6,3.194-1.803c0.425-0.935,0.638-2.245,0.638-3.928v-1.803c0-0.988-0.225-1.83-0.678-2.525
		c-0.535-0.802-1.279-1.201-2.237-1.201c-0.478,0-0.917,0.072-1.317,0.219c-0.399,0.146-0.813,0.379-1.237,0.699l0.32-3.833
		H-316.072z M-326.813-769.045v-15.634h-1.996c-0.217,0.81-0.434,1.373-0.66,1.598c-0.253,0.253-0.886,0.539-1.896,0.858v1.359
		h2.436v11.818H-326.813z"/>
	<path fill="#62B146" d="M-322.642-769.811c-0.624-0.724-0.937-1.758-0.937-3.098v-1.127h2.075v0.518
		c0,0.455,0.026,0.832,0.08,1.139s0.134,0.592,0.238,0.858c0.269,0.507,0.732,0.76,1.399,0.76c0.666,0,1.131-0.173,1.397-0.52
		c0.239-0.398,0.359-0.944,0.359-1.638v-2.955c0-0.64-0.135-1.184-0.399-1.637c-0.32-0.425-0.786-0.64-1.397-0.64
		c-0.507,0-0.918,0.199-1.237,0.6l-0.72,1.159h-1.518l0.319-8.387h6.908v1.877h-4.952l-0.318,3.833
		c0.427-0.318,0.84-0.553,1.239-0.699c0.396-0.146,0.838-0.221,1.315-0.221c0.96,0,1.704,0.401,2.235,1.203
		c0.453,0.697,0.682,1.537,0.682,2.525v1.805c0,1.681-0.215,2.991-0.64,3.926c-0.64,1.203-1.704,1.803-3.196,1.803
		C-321.039-768.726-322.015-769.085-322.642-769.811 M-331.366-780.863v-1.359c1.009-0.317,1.644-0.605,1.896-0.858
		c0.251-0.253,0.499-0.87,0.738-1.856h1.918v15.893h-2.117v-11.818H-331.366z M-336.916-763.054h27.632v-27.712h-27.632V-763.054z"
		/>
	<path fill="#62B146" d="M-704.866-811.519c1.222-2.081,2.707-3.984,4.409-5.674l-14.464-15.854
		c-3.634,3.476-6.738,7.506-9.183,11.949L-704.866-811.519z"/>
	<path fill="#E0A938" d="M-669.375-822.728c2.192,1.002,4.225,2.281,6.066,3.797l14.499-15.832c-3.819-3.293-8.147-6.01-12.85-8.02
		L-669.375-822.728z"/>
	<path fill="#C7C8C9" d="M-636.147-817.944l-19.222,9.582c0.916,2.143,1.567,4.418,1.919,6.792l21.389-2.021
		C-632.695-808.651-634.096-813.478-636.147-817.944"/>
	<path fill="#C7C8C9" d="M-656.755-811.147l19.22-9.576c-2.382-4.426-5.417-8.446-8.984-11.929l-14.5,15.833
		C-659.368-815.124-657.93-813.219-656.755-811.147"/>
	<path fill="#C7C8C9" d="M-708.693-797.468c0-0.43,0.013-0.864,0.036-1.293l-21.389-1.913c-0.072,1.059-0.106,2.129-0.106,3.206
		c0,4.104,0.504,8.086,1.455,11.895l20.656-5.927C-708.463-793.422-708.693-795.421-708.693-797.468"/>
	<path fill="#C7C8C9" d="M-659.448-779.869c-1.521,1.851-3.272,3.499-5.217,4.904l11.289,18.284
		c4.193-2.843,7.926-6.308,11.06-10.269L-659.448-779.869z"/>
	<path fill="#E94631" d="M-653.149-797.468c0,2.026-0.215,4.001-0.632,5.898l20.654,5.935c0.942-3.794,1.445-7.755,1.445-11.833
		c0-1.013-0.034-2.016-0.097-3.02l-21.383,2.022C-653.153-798.132-653.149-797.801-653.149-797.468"/>
	<path fill="#F99E27" d="M-702.046-779.466l-17.09,12.995c3.18,3.912,6.946,7.328,11.161,10.113l11.287-18.263
		C-698.671-775.996-700.478-777.628-702.046-779.466"/>
	<path fill="#2395D3" d="M-708.347-801.862c0.382-2.414,1.085-4.723,2.048-6.887l-19.214-9.57c-2.125,4.516-3.58,9.405-4.24,14.539
		L-708.347-801.862z"/>
	<path fill="#A31C45" d="M-656.009-755.021l-11.273-18.261c-2.053,1.157-4.257,2.065-6.582,2.677l3.981,21.12
		C-664.935-750.622-660.268-752.51-656.009-755.021"/>
	<path fill="#C7C8C9" d="M-654.606-788.564c-0.748,2.195-1.761,4.267-3.004,6.179l17.151,12.934
		c2.784-4.003,4.983-8.437,6.489-13.182L-654.606-788.564z"/>
	<path fill="#ED6B30" d="M-676.922-769.989c-1.304,0.192-2.635,0.291-3.999,0.291c-1.091,0-2.17-0.068-3.229-0.188l-3.978,21.122
		c2.357,0.345,4.762,0.527,7.207,0.527c2.717,0,5.377-0.225,7.974-0.646L-676.922-769.989z"/>
	<path fill="#E3273D" d="M-679.14-825.188c2.386,0.154,4.688,0.609,6.87,1.326l7.707-20.049c-4.588-1.619-9.483-2.583-14.577-2.758
		V-825.188z"/>
	<path fill="#C7C8C9" d="M-687.221-770.418c-2.405-0.562-4.689-1.434-6.809-2.578l-11.294,18.272
		c4.343,2.492,9.097,4.331,14.133,5.405L-687.221-770.418z"/>
	<path fill="#C7C8C9" d="M-689.264-823.963c2.228-0.702,4.574-1.131,7.009-1.247v-21.477c-5.166,0.135-10.124,1.078-14.773,2.69
		L-689.264-823.963z"/>
	<path fill="#BE8B2C" d="M-703.93-781.938c-1.361-2.011-2.477-4.218-3.273-6.56l-20.645,5.925c1.565,4.92,3.88,9.507,6.82,13.625
		L-703.93-781.938z"/>
	<path fill="#C7C8C9" d="M-698.125-819.259c1.811-1.438,3.812-2.648,5.95-3.6l-7.762-20.023c-4.623,1.943-8.88,4.568-12.656,7.754
		L-698.125-819.259z"/>
</g>
<g>
	<path fill="#FFFFFF" d="M-606.157-534.53l-0.596,1.521c-0.292,0.481-0.996,0.884-2.112,1.202v1.403h2.471v11.728h2.152v-15.854
		H-606.157z"/>
	<path fill="#E3273D" d="M-608.865-530.404v-1.401c1.115-0.32,1.818-0.721,2.112-1.2l0.598-1.522h1.909v15.854h-2.148v-11.729
		H-608.865z M-619.14-512.662h27.52v-27.641h-27.52V-512.662z"/>
	<path fill="#FFFFFF" d="M-567.127-520.657h-5.291l3.302-4.813c0.608-1.005,1.073-1.969,1.392-2.883
		c0.319-0.916,0.479-1.771,0.479-2.567c0-1.058-0.346-1.933-1.034-2.624c-0.637-0.713-1.5-1.071-2.586-1.071
		c-1.645,0-2.771,0.597-3.38,1.788c-0.397,0.796-0.597,2.135-0.597,4.016l2.068-0.037v-1.195c0-0.848,0.118-1.502,0.356-1.968
		c0.239-0.463,0.704-0.694,1.393-0.694c0.478,0,0.868,0.191,1.174,0.572c0.305,0.388,0.457,0.843,0.457,1.373
		c0,1.483-1.04,3.773-3.12,6.869l-2.618,3.679l0.051,1.464h7.955V-520.657z"/>
	<path fill="#E0A938" d="M-575.083-518.747l-0.051-1.466l2.616-3.675c2.082-3.1,3.122-5.39,3.122-6.873
		c0-0.529-0.152-0.985-0.459-1.369c-0.304-0.385-0.694-0.576-1.172-0.576c-0.69,0-1.153,0.231-1.393,0.698
		c-0.238,0.462-0.356,1.118-0.356,1.968v1.191l-2.068,0.039c0-1.883,0.199-3.222,0.597-4.016c0.609-1.193,1.733-1.79,3.38-1.79
		c1.088,0,1.949,0.358,2.584,1.075c0.688,0.688,1.036,1.563,1.036,2.624c0,0.797-0.159,1.649-0.479,2.563
		c-0.318,0.916-0.783,1.878-1.394,2.885l-3.3,4.811h5.289v1.91H-575.083z M-584.628-512.662h27.521v-27.599h-27.521V-512.662z"/>
	<path fill="#FFFFFF" d="M-534.151-523.227c0,1.272-0.166,2.086-0.506,2.444c-0.338,0.356-0.842,0.537-1.516,0.537
		c-0.935,0-1.517-0.453-1.75-1.353l-0.239-1.589c0-1.031,0.08-1.771,0.239-2.225c0.29-0.739,0.886-1.109,1.786-1.109
		c0.821,0,1.391,0.356,1.709,1.069C-534.242-524.894-534.151-524.153-534.151-523.227 M-534.469-530.415
		c0,0.715-0.106,1.232-0.318,1.551c-0.29,0.451-0.751,0.675-1.388,0.675c-1.167,0-1.747-0.689-1.747-2.066
		c0-0.821,0.099-1.462,0.298-1.927c0.197-0.463,0.694-0.692,1.488-0.692c0.609,0,1.072,0.252,1.391,0.753
		C-534.56-531.697-534.469-531.128-534.469-530.415 M-534.031-527.237c0.688-0.398,1.146-0.854,1.371-1.369
		c0.224-0.518,0.335-1.236,0.335-2.163c0-2.543-1.308-3.813-3.931-3.813c-1.351,0-2.329,0.345-2.939,1.031
		c-0.556,0.69-0.832,1.735-0.832,3.137c0,0.743,0.091,1.301,0.276,1.67c0.185,0.37,0.622,0.795,1.311,1.27
		c-0.872,0.663-1.403,1.213-1.587,1.649c-0.188,0.437-0.279,1.316-0.279,2.64c0,1.564,0.239,2.702,0.715,3.417
		c0.582,0.821,1.641,1.23,3.177,1.23c1.748,0,2.913-0.385,3.497-1.15c0.58-0.771,0.872-2.067,0.872-3.896
		c0-1.029-0.106-1.813-0.318-2.34C-532.575-526.456-533.132-526.892-534.031-527.237"/>
	<path fill="#A31C45" d="M-536.175-528.189c0.633,0,1.1-0.224,1.39-0.675c0.21-0.318,0.318-0.834,0.318-1.549
		s-0.093-1.284-0.278-1.707c-0.318-0.503-0.781-0.757-1.389-0.757c-0.796,0-1.293,0.235-1.49,0.696
		c-0.201,0.465-0.3,1.105-0.3,1.927C-537.924-528.878-537.34-528.189-536.175-528.189 M-537.924-525.409
		c-0.159,0.451-0.235,1.191-0.235,2.223l0.235,1.589c0.233,0.901,0.819,1.351,1.752,1.351c0.674,0,1.18-0.179,1.518-0.535
		c0.336-0.356,0.504-1.172,0.504-2.442c0-0.925-0.095-1.669-0.276-2.223c-0.318-0.717-0.888-1.075-1.707-1.075
		C-537.037-526.522-537.632-526.152-537.924-525.409 M-532.362-525.925c0.21,0.529,0.316,1.309,0.316,2.344
		c0,1.826-0.292,3.123-0.874,3.892c-0.582,0.768-1.747,1.148-3.495,1.148c-1.534,0-2.595-0.409-3.179-1.229
		c-0.474-0.717-0.713-1.854-0.713-3.417c0-1.322,0.093-2.203,0.277-2.64c0.186-0.437,0.715-0.986,1.589-1.646
		c-0.687-0.478-1.124-0.902-1.313-1.274c-0.182-0.369-0.276-0.925-0.276-1.666c0-1.401,0.276-2.448,0.834-3.139
		c0.609-0.687,1.589-1.031,2.939-1.031c2.621,0,3.933,1.271,3.933,3.812c0,0.927-0.113,1.649-0.339,2.165s-0.681,0.975-1.367,1.369
		C-533.13-526.892-532.577-526.454-532.362-525.925 M-550.114-512.662h27.52v-27.561h-27.52V-512.662z"/>
	<path fill="#FFFFFF" d="M-506.468-534.428l-0.595,1.555c-0.292,0.478-0.994,0.876-2.105,1.194v1.354h2.42v11.746h2.146v-15.85
		H-506.468z M-498.962-534.428c-0.239,0.956-0.497,1.572-0.773,1.847c-0.279,0.281-0.908,0.576-1.887,0.896v1.35h2.501v11.758h2.067
		v-15.85H-498.962z"/>
	<path fill="#F99E27" d="M-501.623-530.334v-1.348c0.979-0.319,1.607-0.618,1.885-0.896c0.278-0.278,0.536-0.895,0.775-1.847h1.908
		v15.846h-2.067v-11.756H-501.623z M-509.168-530.324v-1.354c1.111-0.318,1.813-0.717,2.105-1.194l0.595-1.551h1.866v15.846h-2.143
		v-11.746H-509.168z M-515.603-512.662h27.521v-27.561h-27.521V-512.662z"/>
	<path fill="#FFFFFF" d="M-460.329-532.428v-1.772h-6.886l-0.314,8.253h1.513l0.714-1.151c0.318-0.398,0.731-0.598,1.234-0.598
		c0.608,0,1.073,0.211,1.392,0.638c0.264,0.451,0.398,0.993,0.398,1.631v2.942c0,0.69-0.12,1.231-0.358,1.631
		c-0.266,0.346-0.729,0.517-1.393,0.517c-0.663,0-1.126-0.251-1.392-0.757c-0.106-0.264-0.186-0.548-0.239-0.855
		c-0.053-0.304-0.079-0.683-0.079-1.134v-0.516h-2.067v1.122c0,1.335,0.312,2.363,0.934,3.086c0.623,0.722,1.599,1.082,2.924,1.082
		c1.482,0,2.547-0.599,3.182-1.797c0.423-0.93,0.638-2.234,0.638-3.911v-1.797c0-0.982-0.226-1.823-0.677-2.515
		c-0.533-0.797-1.272-1.195-2.229-1.195c-0.477,0-0.914,0.072-1.313,0.217c-0.398,0.147-0.808,0.377-1.232,0.695l0.318-3.815
		H-460.329z M-471.028-518.628V-534.2h-1.985c-0.216,0.806-0.435,1.369-0.66,1.593c-0.252,0.252-0.88,0.535-1.889,0.854v1.354h2.426
		v11.772H-471.028z"/>
	<path fill="#62B146" d="M-466.873-519.39c-0.622-0.721-0.934-1.749-0.934-3.086v-1.121h2.067v0.517
		c0,0.449,0.026,0.828,0.079,1.134c0.054,0.304,0.133,0.59,0.239,0.854c0.266,0.504,0.729,0.755,1.392,0.755
		c0.664,0,1.127-0.171,1.393-0.517c0.238-0.397,0.358-0.94,0.358-1.631v-2.942c0-0.638-0.135-1.18-0.398-1.631
		c-0.316-0.425-0.783-0.638-1.392-0.638c-0.503,0-0.916,0.199-1.233,0.598l-0.717,1.155h-1.511l0.318-8.354h6.88v1.869h-4.931
		l-0.318,3.817c0.425-0.318,0.834-0.55,1.232-0.697c0.398-0.143,0.836-0.217,1.314-0.217c0.954,0,1.695,0.4,2.229,1.199
		c0.449,0.689,0.675,1.528,0.675,2.512v1.796c0,1.679-0.215,2.981-0.638,3.914c-0.637,1.195-1.697,1.794-3.182,1.794
		C-465.274-518.31-466.25-518.67-466.873-519.39 M-475.562-530.4v-1.35c1.009-0.319,1.637-0.605,1.889-0.857
		c0.251-0.25,0.497-0.868,0.736-1.849h1.909v15.828h-2.108V-530.4H-475.562z M-481.091-512.662h27.523v-27.599h-27.523V-512.662z"/>
	<path fill="#62B146" d="M-712.385-566.453c1.212-2.063,2.685-3.956,4.375-5.632l-14.354-15.736c-3.61,3.448-6.69,7.449-9.115,11.86
		L-712.385-566.453z"/>
	<path fill="#E0A938" d="M-677.157-577.581c2.175,0.996,4.194,2.264,6.021,3.77l14.391-15.713c-3.791-3.27-8.087-5.966-12.756-7.961
		L-677.157-577.581z"/>
	<path fill="#C7C8C9" d="M-644.179-572.83l-19.077,9.51c0.908,2.128,1.555,4.384,1.904,6.74l21.228-2.002
		C-640.75-563.608-642.142-568.398-644.179-572.83"/>
	<path fill="#C7C8C9" d="M-664.632-566.085l19.077-9.508c-2.365-4.39-5.374-8.382-8.917-11.837l-14.393,15.715
		C-667.223-570.031-665.798-568.143-664.632-566.085"/>
	<path fill="#C7C8C9" d="M-716.184-552.505c0-0.427,0.013-0.859,0.034-1.284l-21.228-1.9c-0.072,1.051-0.108,2.112-0.108,3.184
		c0,4.071,0.5,8.025,1.445,11.804l20.503-5.882C-715.958-548.491-716.184-550.473-716.184-552.505"/>
	<path fill="#C7C8C9" d="M-667.304-535.038c-1.509,1.835-3.248,3.474-5.179,4.865l11.207,18.15
		c4.161-2.822,7.866-6.264,10.974-10.193L-667.304-535.038z"/>
	<path fill="#C7C8C9" d="M-661.052-552.505c0,2.012-0.216,3.969-0.63,5.854l20.503,5.89c0.933-3.766,1.434-7.697,1.434-11.744
		c0-1.007-0.036-2.004-0.095-2.998l-21.227,2.008C-661.058-553.166-661.052-552.837-661.052-552.505"/>
	<path fill="#F99E27" d="M-709.586-534.637l-16.964,12.897c3.156,3.885,6.895,7.271,11.082,10.037l11.2-18.127
		C-706.237-531.194-708.031-532.814-709.586-534.637"/>
	<path fill="#C7C8C9" d="M-715.84-556.869c0.383-2.396,1.077-4.688,2.033-6.834l-19.071-9.5c-2.108,4.483-3.554,9.337-4.208,14.431
		L-715.84-556.869z"/>
	<path fill="#A31C45" d="M-663.893-510.375l-11.188-18.125c-2.035,1.149-4.225,2.052-6.535,2.656l3.954,20.964
		C-672.752-506.01-668.12-507.882-663.893-510.375"/>
	<path fill="#C7C8C9" d="M-662.499-543.671c-0.741,2.181-1.748,4.238-2.983,6.137l17.025,12.834c2.761-3.971,4.945-8.37,6.44-13.08
		L-662.499-543.671z"/>
	<path fill="#C7C8C9" d="M-684.648-525.23c-1.295,0.186-2.619,0.288-3.969,0.288c-1.085,0-2.154-0.068-3.205-0.189l-3.948,20.965
		c2.34,0.344,4.726,0.523,7.153,0.523c2.694,0,5.336-0.22,7.915-0.641L-684.648-525.23z"/>
	<path fill="#E3273D" d="M-686.85-580.021c2.367,0.153,4.652,0.601,6.817,1.316l7.652-19.9c-4.555-1.606-9.414-2.562-14.469-2.736
		V-580.021z"/>
	<path fill="#C7C8C9" d="M-694.871-525.657c-2.386-0.558-4.654-1.425-6.759-2.559l-11.209,18.137
		c4.31,2.473,9.028,4.297,14.027,5.362L-694.871-525.657z"/>
	<path fill="#C7C8C9" d="M-696.898-578.804c2.209-0.7,4.538-1.125,6.956-1.238v-21.318c-5.125,0.137-10.046,1.069-14.664,2.672
		L-696.898-578.804z"/>
	<path fill="#C7C8C9" d="M-711.456-537.093c-1.352-1.996-2.458-4.185-3.249-6.51l-20.49,5.879c1.551,4.885,3.852,9.436,6.768,13.524
		L-711.456-537.093z"/>
	<path fill="#C7C8C9" d="M-705.695-574.135c1.797-1.428,3.783-2.63,5.905-3.575l-7.703-19.875
		c-4.589,1.931-8.814,4.536-12.561,7.697L-705.695-574.135z"/>
</g>
<g>
	<path fill="#FFFFFF" d="M-615.513-424.215l-0.6,1.528c-0.293,0.482-1,0.886-2.121,1.206v1.41h2.48v11.784h2.163v-15.928H-615.513z"
		/>
	<path fill="#E3273D" d="M-618.233-420.071v-1.408c1.12-0.322,1.827-0.724,2.121-1.208l0.602-1.526h1.919v15.928h-2.161v-11.786
		H-618.233z M-628.559-402.243h27.652v-27.774h-27.652V-402.243z"/>
	<path fill="#FFFFFF" d="M-576.299-410.277h-5.313l3.317-4.836c0.611-1.01,1.078-1.977,1.398-2.896
		c0.319-0.918,0.479-1.777,0.479-2.578c0-1.064-0.349-1.941-1.04-2.637c-0.641-0.719-1.507-1.077-2.597-1.077
		c-1.652,0-2.784,0.598-3.397,1.795c-0.4,0.8-0.599,2.145-0.599,4.037l2.077-0.04v-1.198c0-0.852,0.12-1.512,0.36-1.98
		c0.24-0.465,0.705-0.697,1.398-0.697c0.479,0,0.872,0.194,1.178,0.578c0.307,0.387,0.461,0.844,0.461,1.377
		c0,1.49-1.046,3.792-3.135,6.903l-2.633,3.694l0.053,1.471h7.991V-410.277z"/>
	<path fill="#E0A938" d="M-584.29-408.357l-0.053-1.475l2.631-3.692c2.091-3.113,3.137-5.415,3.137-6.905
		c0-0.529-0.154-0.988-0.461-1.375c-0.306-0.386-0.698-0.58-1.178-0.58c-0.693,0-1.158,0.234-1.398,0.701
		c-0.24,0.465-0.36,1.125-0.36,1.977v1.198l-2.077,0.04c0-1.891,0.198-3.237,0.599-4.034c0.613-1.2,1.743-1.798,3.397-1.798
		c1.09,0,1.956,0.358,2.597,1.079c0.691,0.691,1.04,1.572,1.04,2.637c0,0.799-0.16,1.658-0.479,2.578
		c-0.32,0.918-0.787,1.885-1.4,2.898l-3.315,4.833h5.313v1.919H-584.29z M-593.881-402.243h27.653v-27.732h-27.653V-402.243z"/>
	<path fill="#FFFFFF" d="M-544.876-421.884l-0.283,8.076h-3.68L-544.876-421.884z M-543.077-408.287v-3.721h1.28v-1.801h-1.28
		v-10.287h-2.427l-5.137,10.407v1.681h5.481v3.721H-543.077z"/>
	<path fill="#C4202F" d="M-548.839-413.81h3.682l0.281-8.074L-548.839-413.81z M-550.64-412.007v-1.681l5.136-10.405h2.427v10.283
		h1.28v1.803h-1.28v3.723h-2.08v-3.723H-550.64z M-559.206-402.243h27.652v-27.774h-27.652V-402.243z"/>
	<path fill="#FFFFFF" d="M-511.64-418.672c-0.11,0.066-0.309,0.194-0.602,0.381l0.201-3.841h5.042v-1.923h-6.886l-0.358,8.444h1.921
		c0.08-0.479,0.171-0.824,0.281-1.04c0.24-0.531,0.721-0.8,1.438-0.8c0.59,0,1.044,0.279,1.364,0.84
		c0.213,0.427,0.319,0.987,0.319,1.681v2.641c0,0.641-0.106,1.16-0.319,1.561c-0.294,0.559-0.736,0.841-1.323,0.841
		c-0.826,0-1.375-0.37-1.638-1.121c-0.111-0.32-0.168-0.705-0.18-1.16c-0.019-0.451-0.022-0.813-0.022-1.08h-2.081v1.16
		c0,1.176,0.32,2.155,0.96,2.941c0.641,0.787,1.548,1.182,2.722,1.182c1.413,0,2.454-0.425,3.12-1.28
		c0.587-0.747,0.881-1.854,0.881-3.323v-2.601c0-1.067-0.214-1.974-0.641-2.721c-0.533-0.88-1.307-1.318-2.32-1.318
		c-0.4,0-0.789,0.072-1.158,0.217C-511.293-418.845-511.536-418.739-511.64-418.672"/>
	<path fill="#E94631" d="M-507.681-409.249c-0.666,0.855-1.707,1.284-3.12,1.284c-1.174,0-2.081-0.396-2.722-1.182
		c-0.64-0.788-0.96-1.768-0.96-2.941v-1.162h2.081c0,0.267,0.008,0.629,0.019,1.082c0.012,0.453,0.072,0.84,0.18,1.16
		c0.271,0.747,0.815,1.119,1.642,1.119c0.587,0,1.025-0.278,1.323-0.839c0.209-0.4,0.319-0.92,0.319-1.561v-2.643
		c0-0.693-0.11-1.254-0.319-1.681c-0.32-0.561-0.778-0.838-1.361-0.838c-0.724,0-1.204,0.265-1.443,0.8
		c-0.107,0.212-0.198,0.561-0.278,1.04h-1.921l0.362-8.444h6.882v1.921h-5.045l-0.198,3.841c0.293-0.187,0.491-0.313,0.598-0.381
		c0.11-0.064,0.351-0.172,0.721-0.32c0.377-0.145,0.762-0.219,1.162-0.219c1.014,0,1.787,0.44,2.32,1.32
		c0.427,0.747,0.641,1.653,0.641,2.723v2.601C-506.8-411.1-507.094-409.992-507.681-409.249 M-524.527-402.243h27.654v-27.774
		h-27.654V-402.243z"/>
	<path fill="#FFFFFF" d="M-477.461-415.709c0.331-0.411,0.846-0.619,1.535-0.619c0.507,0,0.926,0.168,1.258,0.499
		c0.335,0.332,0.499,0.793,0.499,1.376v1.719c0,0.902-0.095,1.543-0.278,1.913c-0.24,0.586-0.773,0.878-1.597,0.878
		c-0.773,0-1.284-0.313-1.535-0.938c-0.252-0.627-0.382-1.389-0.382-2.294C-477.961-414.454-477.793-415.298-477.461-415.709
		 M-477.801-417.248v-2.272c0-0.932,0.1-1.69,0.302-2.275c0.198-0.585,0.724-0.878,1.573-0.878c0.693,0,1.2,0.259,1.517,0.77
		c0.134,0.19,0.282,0.771,0.438,1.745h1.879c-0.106-0.745-0.24-1.396-0.4-1.957c-0.156-0.558-0.331-0.954-0.515-1.194
		c-0.529-0.747-1.524-1.12-2.976-1.12c-1.3,0-2.271,0.411-2.919,1.238c-0.648,0.825-0.976,1.941-0.976,3.352v6.941
		c0,1.519,0.255,2.663,0.762,3.434c0.637,0.932,1.688,1.396,3.151,1.396c1.25,0,2.207-0.44,2.873-1.316
		c0.663-0.879,0.999-1.955,0.999-3.231c0-1.65-0.134-2.834-0.4-3.552c-0.453-1.224-1.372-1.837-2.755-1.837
		c-0.477,0-0.903,0.068-1.276,0.2C-476.897-417.725-477.32-417.537-477.801-417.248"/>
	<path fill="#2FBBE0" d="M-477.461-415.711c-0.332,0.413-0.496,1.258-0.496,2.534c0,0.907,0.122,1.671,0.378,2.294
		c0.251,0.625,0.766,0.939,1.535,0.939c0.823,0,1.356-0.292,1.597-0.878c0.187-0.374,0.278-1.011,0.278-1.917v-1.715
		c0-0.583-0.168-1.044-0.499-1.376c-0.332-0.331-0.751-0.499-1.254-0.499C-476.615-416.329-477.126-416.123-477.461-415.711
		 M-479.119-409.465c-0.503-0.771-0.754-1.917-0.754-3.434v-6.943c0-1.408,0.323-2.526,0.972-3.35
		c0.647-0.825,1.619-1.236,2.919-1.236c1.455,0,2.446,0.371,2.976,1.114c0.187,0.24,0.358,0.641,0.515,1.2
		c0.16,0.557,0.294,1.208,0.4,1.955h-1.875c-0.16-0.976-0.309-1.555-0.442-1.745c-0.32-0.515-0.823-0.77-1.513-0.77
		c-0.854,0-1.379,0.293-1.577,0.876c-0.202,0.587-0.302,1.346-0.302,2.275v2.274c0.48-0.293,0.907-0.479,1.277-0.556
		c0.373-0.138,0.8-0.202,1.276-0.202c1.383,0,2.302,0.613,2.755,1.837c0.267,0.716,0.4,1.901,0.4,3.55
		c0,1.278-0.336,2.354-0.999,3.233c-0.666,0.876-1.623,1.316-2.873,1.316C-477.427-408.069-478.479-408.536-479.119-409.465
		 M-489.85-402.243h27.654v-27.774h-27.654V-402.243z"/>
	<path fill="#FFFFFF" d="M-439.133-413.166c0,1.28-0.168,2.096-0.507,2.456c-0.34,0.357-0.847,0.539-1.524,0.539
		c-0.938,0-1.524-0.454-1.757-1.356l-0.24-1.597c0-1.037,0.08-1.782,0.24-2.237c0.289-0.743,0.888-1.114,1.795-1.114
		c0.823,0,1.395,0.357,1.715,1.076C-439.225-414.84-439.133-414.095-439.133-413.166 M-439.449-420.387
		c0,0.717-0.11,1.238-0.32,1.557c-0.294,0.455-0.759,0.679-1.398,0.679c-1.17,0-1.753-0.692-1.753-2.075
		c0-0.827,0.099-1.471,0.297-1.936s0.697-0.697,1.498-0.697c0.609,0,1.074,0.255,1.395,0.758
		C-439.545-421.677-439.449-421.105-439.449-420.387 M-439.012-417.194c0.69-0.4,1.151-0.857,1.376-1.378
		c0.225-0.52,0.339-1.242,0.339-2.174c0-2.555-1.314-3.832-3.951-3.832c-1.356,0-2.34,0.349-2.953,1.039
		c-0.557,0.693-0.835,1.741-0.835,3.151c0,0.745,0.092,1.306,0.278,1.677c0.187,0.373,0.625,0.799,1.314,1.276
		c-0.876,0.665-1.41,1.218-1.593,1.658c-0.19,0.438-0.282,1.322-0.282,2.652c0,1.569,0.24,2.713,0.721,3.433
		c0.583,0.823,1.646,1.235,3.189,1.235c1.757,0,2.927-0.385,3.514-1.155c0.583-0.773,0.876-2.076,0.876-3.913
		c0-1.036-0.106-1.821-0.316-2.354C-437.548-416.409-438.108-416.849-439.012-417.194"/>
	<path fill="#A31C45" d="M-441.168-418.152c0.64,0,1.104-0.227,1.398-0.681c0.21-0.318,0.316-0.838,0.316-1.555
		c0-0.72-0.092-1.292-0.278-1.715c-0.32-0.507-0.785-0.76-1.395-0.76c-0.801,0-1.3,0.234-1.498,0.699s-0.297,1.112-0.297,1.936
		C-442.921-418.844-442.338-418.152-441.168-418.152 M-442.921-415.361c-0.16,0.453-0.24,1.198-0.24,2.237l0.24,1.597
		c0.232,0.902,0.819,1.354,1.757,1.354c0.678,0,1.185-0.18,1.524-0.539c0.339-0.358,0.507-1.176,0.507-2.454
		c0-0.93-0.092-1.675-0.278-2.233c-0.32-0.719-0.892-1.078-1.715-1.078C-442.033-416.477-442.632-416.104-442.921-415.361
		 M-437.339-415.879c0.214,0.534,0.32,1.317,0.32,2.355c0,1.837-0.289,3.14-0.876,3.909c-0.587,0.774-1.757,1.159-3.514,1.159
		c-1.543,0-2.606-0.414-3.189-1.238c-0.48-0.719-0.721-1.862-0.721-3.43c0-1.33,0.092-2.218,0.282-2.654
		c0.183-0.438,0.717-0.991,1.593-1.656c-0.689-0.479-1.132-0.905-1.314-1.278c-0.187-0.371-0.278-0.932-0.278-1.675
		c0-1.41,0.278-2.462,0.835-3.151c0.613-0.693,1.597-1.039,2.953-1.039c2.637,0,3.951,1.275,3.951,3.83
		c0,0.932-0.114,1.656-0.339,2.176c-0.225,0.519-0.686,0.978-1.376,1.376C-438.108-416.849-437.548-416.409-437.339-415.879
		 M-455.173-402.551h27.65v-27.694h-27.65V-402.551z"/>
	<path fill="#FFFFFF" d="M-404.833-419.187c0,1.254-0.164,2.085-0.499,2.496c-0.332,0.416-0.847,0.621-1.54,0.621
		c-0.716,0-1.196-0.267-1.437-0.796c-0.106-0.296-0.187-0.595-0.24-0.899c-0.053-0.309-0.08-0.701-0.08-1.182v-0.678
		c0-0.587,0.016-1.007,0.042-1.26c0.023-0.254,0.138-0.611,0.34-1.08c0.198-0.465,0.697-0.699,1.497-0.699
		c0.854,0,1.426,0.399,1.719,1.2c0.08,0.24,0.134,0.507,0.16,0.798C-404.845-420.372-404.833-419.876-404.833-419.187
		 M-404.833-415.269v2.048c0,0.968-0.08,1.694-0.24,2.176c-0.244,0.779-0.793,1.172-1.657,1.172c-0.751,0-1.258-0.211-1.514-0.633
		c-0.255-0.415-0.385-1.063-0.385-1.926h-1.996c0,1.398,0.278,2.468,0.834,3.206c0.557,0.74,1.498,1.109,2.824,1.109
		c1.429,0,2.469-0.387,3.117-1.16c0.651-0.771,0.976-1.877,0.976-3.315v-6.793c0-1.601-0.21-2.771-0.633-3.517
		c-0.267-0.454-0.659-0.813-1.174-1.081c-0.519-0.265-1.136-0.398-1.852-0.398c-1.402,0-2.451,0.398-3.141,1.193
		c-0.636,0.797-0.952,1.925-0.952,3.384c0,1.619,0.133,2.786,0.399,3.502c0.458,1.246,1.342,1.871,2.66,1.871
		c0.453,0,0.922-0.08,1.406-0.24L-404.833-415.269z"/>
	<path fill="#ED6B30" d="M-408.247-421.964c-0.202,0.467-0.316,0.826-0.34,1.078c-0.026,0.255-0.042,0.675-0.042,1.26v0.678
		c0,0.48,0.027,0.875,0.08,1.182c0.054,0.307,0.134,0.604,0.24,0.899c0.24,0.531,0.721,0.798,1.437,0.798
		c0.693,0,1.208-0.205,1.54-0.619c0.335-0.413,0.499-1.244,0.499-2.498c0-0.691-0.012-1.185-0.038-1.479
		c-0.026-0.293-0.08-0.56-0.16-0.8c-0.293-0.797-0.865-1.196-1.719-1.196C-407.55-422.662-408.049-422.429-408.247-421.964
		 M-409.791-409.226c-0.556-0.738-0.834-1.81-0.834-3.208h1.996c0,0.867,0.13,1.509,0.385,1.93c0.256,0.42,0.763,0.629,1.514,0.629
		c0.861,0,1.413-0.391,1.657-1.168c0.16-0.483,0.24-1.212,0.24-2.18v-2.046l-1.326,0.598c-0.484,0.16-0.953,0.24-1.406,0.24
		c-1.318,0-2.202-0.623-2.66-1.871c-0.267-0.716-0.399-1.883-0.399-3.502c0-1.459,0.316-2.587,0.952-3.384
		c0.689-0.797,1.738-1.193,3.141-1.193c0.716,0,1.333,0.133,1.852,0.4c0.515,0.264,0.907,0.625,1.17,1.079
		c0.427,0.744,0.637,1.916,0.637,3.515v6.793c0,1.438-0.324,2.546-0.976,3.317c-0.648,0.771-1.688,1.16-3.117,1.16
		C-408.293-408.117-409.234-408.486-409.791-409.226 M-420.499-402.243h27.654v-27.732h-27.654V-402.243z"/>
	<path fill="#FFFFFF" d="M-377.938-424.213c-0.24,0.935-0.499,1.564-0.777,1.882c-0.281,0.324-0.914,0.617-1.901,0.884v1.364h2.481
		v11.798h2.08v-15.928H-377.938z M-367.21-416.691c1.174-0.724,1.761-1.863,1.761-3.418c0-1.342-0.267-2.374-0.801-3.098
		c-0.613-0.831-1.563-1.247-2.843-1.247c-1.521,0-2.575,0.472-3.159,1.41c-0.483,0.781-0.724,1.978-0.724,3.592h2.164v-0.76
		c0-0.747,0.1-1.319,0.302-1.723c0.198-0.4,0.629-0.599,1.299-0.599c0.667,0,1.132,0.263,1.398,0.793
		c0.16,0.373,0.24,0.952,0.24,1.749c0,1.505-0.746,2.26-2.24,2.26h-0.721v1.921c1.44,0,2.336,0.225,2.683,0.68
		c0.267,0.349,0.4,1.309,0.4,2.879c0,0.751-0.106,1.324-0.32,1.725c-0.213,0.4-0.693,0.6-1.44,0.6c-0.75,0-1.28-0.305-1.601-0.92
		c-0.187-0.48-0.281-1.134-0.281-1.963v-0.68h-2.081v1.2c0,1.362,0.293,2.416,0.881,3.163c0.613,0.693,1.615,1.04,3.002,1.04
		c1.574,0,2.668-0.438,3.281-1.322c0.48-0.718,0.721-1.919,0.721-3.601c0-0.641-0.016-1.1-0.042-1.38
		c-0.027-0.28-0.106-0.553-0.24-0.821C-365.808-415.769-366.356-416.264-367.21-416.691"/>
	<path fill="#3F8147" d="M-366.01-409.409c-0.613,0.884-1.707,1.322-3.281,1.322c-1.391,0-2.389-0.347-3.002-1.04
		c-0.588-0.747-0.881-1.801-0.881-3.161v-1.202h2.081v0.682c0,0.827,0.091,1.48,0.281,1.961c0.32,0.615,0.854,0.92,1.601,0.92
		c0.743,0,1.224-0.199,1.44-0.6c0.214-0.4,0.32-0.974,0.32-1.721c0-1.574-0.134-2.534-0.4-2.883
		c-0.347-0.451-1.242-0.678-2.683-0.678v-1.923h0.721c1.494,0,2.244-0.753,2.244-2.264c0-0.793-0.08-1.376-0.24-1.745
		c-0.271-0.53-0.735-0.793-1.402-0.793c-0.666,0-1.101,0.198-1.303,0.599c-0.198,0.399-0.298,0.976-0.298,1.723v0.76h-2.16
		c0-1.614,0.24-2.811,0.72-3.59c0.584-0.939,1.639-1.412,3.159-1.412c1.284,0,2.229,0.416,2.843,1.247
		c0.534,0.724,0.801,1.756,0.801,3.098c0,1.555-0.587,2.694-1.761,3.418c0.854,0.427,1.398,0.922,1.639,1.48
		c0.134,0.269,0.213,0.541,0.24,0.821c0.026,0.28,0.042,0.739,0.042,1.38C-365.289-411.328-365.529-410.126-366.01-409.409
		 M-380.616-420.083v-1.364c0.987-0.267,1.62-0.56,1.897-0.88c0.282-0.324,0.541-0.951,0.781-1.886h1.883v15.928h-2.08v-11.798
		H-380.616z M-385.817-402.243h27.65v-27.774h-27.65V-402.243z"/>
	<path fill="#FFFFFF" d="M-330.28-422.102v-1.783h-6.921l-0.315,8.292h1.521l0.716-1.154c0.32-0.4,0.735-0.603,1.242-0.603
		c0.61,0,1.079,0.214,1.398,0.641c0.264,0.453,0.4,0.998,0.4,1.639v2.957c0,0.693-0.122,1.238-0.362,1.639
		c-0.267,0.347-0.731,0.518-1.398,0.518s-1.132-0.251-1.398-0.758c-0.106-0.267-0.187-0.553-0.24-0.859
		c-0.053-0.307-0.08-0.688-0.08-1.14v-0.521h-2.076v1.128c0,1.344,0.313,2.375,0.938,3.103c0.629,0.724,1.607,1.086,2.938,1.086
		c1.49,0,2.561-0.603,3.197-1.805c0.427-0.936,0.641-2.246,0.641-3.931v-1.805c0-0.988-0.225-1.83-0.679-2.526
		c-0.537-0.802-1.28-1.202-2.24-1.202c-0.477,0-0.919,0.072-1.319,0.22c-0.399,0.146-0.812,0.379-1.238,0.699l0.32-3.834H-330.28z
		 M-341.03-408.239v-15.646h-1.997c-0.217,0.812-0.435,1.376-0.663,1.601c-0.251,0.255-0.884,0.539-1.897,0.859v1.358h2.438v11.828
		H-341.03z"/>
	<path fill="#62B146" d="M-336.857-409.004c-0.625-0.725-0.938-1.759-0.938-3.103v-1.128h2.076v0.522
		c0,0.453,0.027,0.833,0.08,1.138c0.054,0.307,0.134,0.593,0.24,0.859c0.267,0.507,0.731,0.76,1.398,0.76s1.132-0.173,1.398-0.52
		c0.24-0.4,0.362-0.945,0.362-1.639v-2.957c0-0.641-0.137-1.186-0.4-1.639c-0.319-0.427-0.788-0.639-1.398-0.639
		c-0.507,0-0.918,0.2-1.238,0.601l-0.72,1.158h-1.521l0.319-8.392h6.913v1.875h-4.954l-0.32,3.838
		c0.427-0.32,0.843-0.551,1.242-0.699c0.396-0.147,0.839-0.22,1.315-0.22c0.96,0,1.707,0.4,2.236,1.202
		c0.454,0.696,0.683,1.538,0.683,2.526v1.805c0,1.685-0.214,2.995-0.641,3.933c-0.64,1.2-1.703,1.803-3.197,1.803
		C-335.254-407.918-336.229-408.281-336.857-409.004 M-345.588-420.067v-1.356c1.01-0.32,1.646-0.606,1.897-0.861
		c0.252-0.252,0.499-0.873,0.739-1.856h1.921v15.904h-2.119v-11.83H-345.588z M-351.141-402.243h27.65v-27.732h-27.65V-402.243z"/>
	<path fill="#62B146" d="M-720.865-441.123c1.217-2.075,2.698-3.973,4.396-5.657l-14.421-15.813
		c-3.628,3.466-6.722,7.484-9.159,11.918L-720.865-441.123z"/>
	<path fill="#E0A938" d="M-685.47-452.302c2.186,0.999,4.215,2.275,6.05,3.788l14.461-15.788c-3.809-3.287-8.126-5.998-12.817-7.999
		L-685.47-452.302z"/>
	<path fill="#C4202F" d="M-652.332-447.531l-19.17,9.557c0.913,2.136,1.563,4.403,1.913,6.772l21.331-2.014
		C-648.889-438.265-650.285-443.076-652.332-447.531"/>
	<path fill="#C7C8C9" d="M-672.883-440.751l19.166-9.554c-2.376-4.413-5.4-8.421-8.959-11.895l-14.462,15.79
		C-675.487-444.718-674.057-442.821-672.883-440.751"/>
	<path fill="#3F8147" d="M-724.682-427.109c0-0.429,0.013-0.865,0.034-1.288l-21.329-1.911c-0.072,1.057-0.108,2.124-0.108,3.199
		c0,4.093,0.505,8.064,1.452,11.861l20.601-5.908C-724.453-423.076-724.682-425.067-724.682-427.109"/>
	<path fill="#C7C8C9" d="M-675.569-409.559c-1.517,1.847-3.264,3.49-5.204,4.892l11.261,18.233
		c4.18-2.835,7.903-6.291,11.026-10.239L-675.569-409.559z"/>
	<path fill="#E94631" d="M-669.288-427.109c0,2.022-0.215,3.988-0.63,5.884l20.599,5.918c0.939-3.784,1.44-7.736,1.44-11.802
		c0-1.01-0.036-2.012-0.095-3.012l-21.329,2.018C-669.293-427.772-669.288-427.443-669.288-427.109"/>
	<path fill="#C7C8C9" d="M-718.053-409.155l-17.043,12.958c3.17,3.904,6.926,7.307,11.133,10.087l11.253-18.215
		C-714.686-405.697-716.489-407.324-718.053-409.155"/>
	<path fill="#C7C8C9" d="M-724.337-431.492c0.385-2.408,1.083-4.714,2.042-6.869l-19.162-9.544c-2.119,4.502-3.57,9.38-4.228,14.498
		L-724.337-431.492z"/>
	<path fill="#A31C45" d="M-672.142-384.778l-11.242-18.212c-2.044,1.153-4.245,2.061-6.566,2.67l3.973,21.063
		C-681.042-380.392-676.389-382.273-672.142-384.778"/>
	<path fill="#2FBBE0" d="M-670.741-418.23c-0.745,2.188-1.757,4.256-2.997,6.162l17.106,12.896c2.776-3.989,4.969-8.412,6.47-13.145
		L-670.741-418.23z"/>
	<path fill="#ED6B30" d="M-692.996-399.707c-1.301,0.19-2.629,0.292-3.988,0.292c-1.088,0-2.165-0.067-3.22-0.19l-3.965,21.065
		c2.351,0.345,4.746,0.525,7.185,0.525c2.708,0,5.363-0.221,7.953-0.644L-692.996-399.707z"/>
	<path fill="#E3273D" d="M-695.208-454.756c2.378,0.154,4.674,0.606,6.85,1.322l7.688-19.995c-4.577-1.616-9.458-2.574-14.538-2.751
		V-454.756z"/>
	<path fill="#C7C8C9" d="M-703.268-400.133c-2.397-0.561-4.674-1.429-6.789-2.568l-11.265,18.223
		c4.331,2.482,9.072,4.317,14.094,5.389L-703.268-400.133z"/>
	<path fill="#C7C8C9" d="M-705.304-453.533c2.222-0.701,4.56-1.13,6.989-1.242v-21.422c-5.15,0.137-10.095,1.077-14.734,2.685
		L-705.304-453.533z"/>
	<path fill="#C7C8C9" d="M-719.932-411.623c-1.358-2.004-2.467-4.207-3.264-6.543l-20.587,5.91c1.559,4.908,3.87,9.479,6.8,13.589
		L-719.932-411.623z"/>
	<path fill="#C7C8C9" d="M-714.143-448.842c1.808-1.433,3.801-2.641,5.933-3.589l-7.739-19.972
		c-4.609,1.94-8.856,4.558-12.621,7.736L-714.143-448.842z"/>
</g>
<g>
	<path fill="#FFFFFF" d="M256.083,67.393l-0.602,1.531c-0.294,0.485-1.001,0.888-2.125,1.21v1.412h2.487v11.81h2.167V67.393H256.083
		z"/>
	<path fill="#E3273D" d="M253.357,71.544v-1.409c1.122-0.323,1.829-0.726,2.125-1.211l0.6-1.531h1.927v15.963h-2.167V71.544H253.357
		z M243.01,89.412h27.711V61.579H243.01V89.412z"/>
	<path fill="#FFFFFF" d="M295.381,81.321h-5.326l3.324-4.846c0.613-1.013,1.081-1.98,1.401-2.903
		c0.32-0.921,0.481-1.781,0.481-2.583c0-1.067-0.348-1.947-1.042-2.643c-0.642-0.72-1.51-1.08-2.603-1.08
		c-1.656,0-2.791,0.601-3.404,1.801c-0.401,0.802-0.6,2.148-0.6,4.045l2.082-0.04v-1.201c0-0.854,0.119-1.513,0.359-1.982
		c0.24-0.467,0.708-0.7,1.402-0.7c0.481,0,0.873,0.193,1.181,0.578c0.307,0.388,0.461,0.848,0.461,1.381
		c0,1.494-1.048,3.8-3.142,6.918l-2.638,3.703l0.053,1.475h8.009V81.321z"/>
	<path fill="#E0A938" d="M287.372,83.246l-0.053-1.479l2.638-3.701c2.094-3.118,3.14-5.426,3.14-6.917
		c0-0.533-0.152-0.994-0.459-1.381c-0.308-0.388-0.701-0.579-1.181-0.579c-0.696,0-1.162,0.233-1.402,0.701
		c-0.24,0.467-0.359,1.127-0.359,1.981v1.201l-2.085,0.041c0-1.897,0.201-3.244,0.603-4.045c0.613-1.201,1.748-1.804,3.404-1.804
		c1.093,0,1.961,0.362,2.603,1.082c0.694,0.695,1.04,1.575,1.04,2.644c0,0.801-0.159,1.662-0.479,2.582
		c-0.32,0.922-0.788,1.889-1.401,2.903l-3.324,4.846h5.326v1.925H287.372z M277.761,89.371h27.711V61.579h-27.711V89.371z"/>
	<path fill="#FFFFFF" d="M324.929,75.915c0.332-0.412,0.847-0.619,1.538-0.619c0.507,0,0.928,0.168,1.26,0.5
		c0.334,0.332,0.5,0.794,0.5,1.379v1.721c0,0.904-0.094,1.546-0.279,1.918c-0.241,0.589-0.774,0.88-1.6,0.88
		c-0.774,0-1.287-0.313-1.541-0.938c-0.252-0.628-0.379-1.393-0.379-2.3C324.428,77.174,324.594,76.328,324.929,75.915
		 M324.589,74.374v-2.277c0-0.935,0.099-1.692,0.299-2.28c0.201-0.586,0.727-0.879,1.579-0.879c0.694,0,1.2,0.258,1.52,0.772
		c0.136,0.188,0.281,0.771,0.44,1.747h1.881c-0.107-0.747-0.241-1.399-0.399-1.961c-0.157-0.559-0.332-0.958-0.516-1.198
		c-0.532-0.748-1.527-1.121-2.983-1.121c-1.301,0-2.276,0.413-2.926,1.24c-0.648,0.827-0.976,1.945-0.976,3.358v6.957
		c0,1.521,0.254,2.67,0.76,3.44c0.64,0.934,1.694,1.399,3.16,1.399c1.254,0,2.212-0.44,2.879-1.319
		c0.666-0.88,1.001-1.96,1.001-3.238c0-1.654-0.135-2.84-0.401-3.559c-0.453-1.227-1.372-1.84-2.758-1.84
		c-0.479,0-0.908,0.066-1.281,0.199C325.493,73.895,325.067,74.083,324.589,74.374"/>
	<path fill="#2FBBE0" d="M324.929,75.915c-0.335,0.415-0.501,1.259-0.501,2.54c0,0.907,0.127,1.674,0.38,2.299
		c0.254,0.626,0.766,0.939,1.54,0.939c0.826,0,1.359-0.292,1.601-0.88c0.185-0.372,0.279-1.014,0.279-1.918v-1.722
		c0-0.584-0.167-1.046-0.501-1.378c-0.332-0.335-0.752-0.501-1.26-0.501C325.773,75.294,325.262,75.502,324.929,75.915
		 M323.269,82.173c-0.507-0.772-0.761-1.92-0.761-3.439v-6.959c0-1.411,0.325-2.531,0.976-3.358c0.649-0.826,1.625-1.24,2.924-1.24
		c1.459,0,2.453,0.373,2.985,1.121c0.185,0.239,0.356,0.639,0.517,1.2c0.158,0.56,0.291,1.212,0.397,1.959h-1.88
		c-0.16-0.976-0.307-1.559-0.439-1.748c-0.319-0.514-0.828-0.772-1.521-0.772c-0.854,0-1.38,0.294-1.579,0.88
		c-0.199,0.587-0.299,1.348-0.299,2.28v2.279c0.479-0.293,0.904-0.48,1.279-0.561c0.373-0.133,0.799-0.2,1.28-0.2
		c1.384,0,2.306,0.614,2.759,1.84c0.266,0.72,0.399,1.907,0.399,3.56c0,1.28-0.334,2.359-1,3.239s-1.627,1.32-2.879,1.32
		C324.962,83.574,323.908,83.106,323.269,82.173 M312.511,89.412h27.712V61.579h-27.712V89.412z"/>
	<path fill="#FFFFFF" d="M356.462,67.417l-0.601,1.563c-0.293,0.481-1.002,0.882-2.12,1.203v1.363h2.438v11.827h2.161V67.417
		H356.462z M364.019,67.417c-0.241,0.96-0.501,1.581-0.78,1.859c-0.28,0.281-0.913,0.58-1.899,0.899v1.36h2.519v11.838h2.081V67.417
		H364.019z"/>
	<path fill="#F99E27" d="M361.339,71.537v-1.36c0.986-0.319,1.619-0.62,1.899-0.899c0.279-0.28,0.539-0.899,0.78-1.86h1.92v15.956
		h-2.081V71.537H361.339z M353.741,71.546v-1.362c1.118-0.321,1.825-0.722,2.12-1.202l0.599-1.565h1.881v15.956h-2.161V71.546
		H353.741z M347.264,89.332h27.712V61.579h-27.712V89.332z"/>
	<path fill="#FFFFFF" d="M390.184,67.305c-0.321,0.991-0.615,1.619-0.881,1.887c-0.267,0.271-0.909,0.574-1.923,0.925v1.364h2.444
		v11.842h2.119V67.385L390.184,67.305z M402.719,81.401h-5.185l3.197-4.955c1.218-2.166,1.827-3.969,1.827-5.414
		c0-1.094-0.346-1.988-1.041-2.684s-1.604-1.043-2.723-1.043c-1.577,0-2.685,0.614-3.324,1.842
		c-0.401,0.854-0.602,2.201-0.602,4.045l2.043,0.039l-0.04-1.159c0-0.804,0.092-1.429,0.28-1.882
		c0.292-0.668,0.787-1.002,1.482-1.002c0.561,0,0.986,0.188,1.279,0.56c0.32,0.32,0.48,0.787,0.48,1.401s-0.112,1.269-0.34,1.963
		c-0.225,0.695-0.542,1.334-0.939,1.923l-4.364,6.769l-0.002,1.52h7.97V81.401z"/>
	<path fill="#BE8B2C" d="M394.751,83.326v-1.522l4.362-6.769c0.401-0.586,0.713-1.228,0.941-1.922
		c0.228-0.694,0.34-1.349,0.34-1.963s-0.16-1.082-0.48-1.402c-0.293-0.373-0.72-0.56-1.279-0.56c-0.695,0-1.188,0.333-1.482,1.002
		c-0.187,0.453-0.282,1.081-0.282,1.881l0.042,1.161l-2.043-0.039c0-1.842,0.202-3.191,0.602-4.045
		c0.64-1.229,1.747-1.843,3.322-1.843c1.121,0,2.029,0.349,2.725,1.043c0.693,0.693,1.041,1.589,1.041,2.687
		c0,1.442-0.609,3.248-1.827,5.412l-3.197,4.954h5.185v1.925H394.751z M387.38,71.48v-1.365c1.016-0.348,1.656-0.654,1.921-0.922
		c0.268-0.269,0.562-0.896,0.883-1.888l1.762,0.08v15.94h-2.121V71.48H387.38z M382.015,89.371h27.712V61.579h-27.712V89.371z"/>
	<path fill="#FFFFFF" d="M437.67,69.469v-1.785h-6.932l-0.316,8.311h1.52l0.722-1.16c0.321-0.4,0.733-0.602,1.241-0.602
		c0.615,0,1.081,0.213,1.401,0.642c0.268,0.455,0.401,1,0.401,1.642v2.965c0,0.694-0.122,1.239-0.359,1.642
		c-0.267,0.346-0.736,0.519-1.401,0.519c-0.668,0-1.138-0.252-1.401-0.761c-0.11-0.267-0.19-0.554-0.24-0.86
		c-0.058-0.308-0.08-0.688-0.08-1.142v-0.521h-2.086v1.131c0,1.345,0.313,2.379,0.943,3.106c0.627,0.728,1.608,1.089,2.944,1.089
		c1.493,0,2.563-0.602,3.2-1.809c0.428-0.937,0.642-2.25,0.642-3.938v-1.81c0-0.99-0.225-1.836-0.68-2.531
		c-0.534-0.804-1.283-1.204-2.241-1.204c-0.481,0-0.921,0.071-1.321,0.219c-0.401,0.146-0.817,0.379-1.241,0.699l0.32-3.842H437.67z
		 M426.896,83.364v-15.68h-2.001c-0.218,0.812-0.436,1.379-0.66,1.604c-0.256,0.255-0.89,0.54-1.906,0.861v1.362h2.444v11.853
		H426.896z"/>
	<path fill="#62B146" d="M431.082,82.596c-0.63-0.726-0.943-1.763-0.943-3.107v-1.13h2.086v0.52c0,0.454,0.022,0.835,0.08,1.142
		c0.053,0.308,0.134,0.595,0.24,0.861c0.264,0.508,0.733,0.76,1.401,0.76c0.665,0,1.135-0.172,1.398-0.52
		c0.24-0.4,0.362-0.946,0.362-1.643v-2.963c0-0.641-0.134-1.188-0.401-1.642c-0.32-0.426-0.786-0.642-1.401-0.642
		c-0.508,0-0.92,0.201-1.241,0.601l-0.722,1.161h-1.52l0.32-8.409h6.928v1.882h-4.965l-0.32,3.845
		c0.424-0.32,0.84-0.554,1.241-0.699c0.4-0.147,0.84-0.222,1.321-0.222c0.958,0,1.707,0.402,2.241,1.207
		c0.455,0.695,0.68,1.541,0.68,2.531v1.807c0,1.689-0.214,3.004-0.642,3.94c-0.638,1.206-1.707,1.808-3.2,1.808
		C432.69,83.684,431.709,83.322,431.082,82.596 M422.333,71.51v-1.361c1.013-0.321,1.646-0.606,1.902-0.86
		c0.252-0.254,0.5-0.874,0.74-1.864h1.921v15.939h-2.123V71.51H422.333z M416.767,89.371h27.709V61.579h-27.709V89.371z"/>
	<path fill="#62B146" d="M147.002,44.074c1.22-2.079,2.704-3.983,4.405-5.67l-14.453-15.846c-3.635,3.473-6.736,7.501-9.178,11.944
		L147.002,44.074z"/>
	<path fill="#E0A938" d="M182.474,32.871c2.19,1.001,4.224,2.28,6.062,3.795l14.492-15.822c-3.816-3.292-8.144-6.009-12.844-8.015
		L182.474,32.871z"/>
	<path fill="#C7C8C9" d="M215.682,37.652l-19.21,9.578c0.916,2.141,1.566,4.413,1.918,6.786l21.375-2.017
		C219.133,46.938,217.732,42.116,215.682,37.652"/>
	<path fill="#C7C8C9" d="M195.086,44.446l19.208-9.575c-2.381-4.42-5.412-8.438-8.978-11.918l-14.493,15.823
		C192.477,40.471,193.911,42.374,195.086,44.446"/>
	<path fill="#C7C8C9" d="M143.178,58.117c0-0.43,0.013-0.866,0.034-1.292l-21.374-1.914c-0.073,1.06-0.11,2.129-0.11,3.206
		c0,4.1,0.506,8.082,1.455,11.886l20.646-5.922C143.406,62.16,143.178,60.165,143.178,58.117"/>
	<path fill="#C7C8C9" d="M192.396,75.705c-1.52,1.851-3.272,3.498-5.215,4.901l11.284,18.275c4.189-2.842,7.92-6.307,11.051-10.264
		L192.396,75.705z"/>
	<path fill="#C7C8C9" d="M198.69,58.118c0,2.025-0.216,3.997-0.632,5.895l20.644,5.93c0.94-3.791,1.442-7.75,1.442-11.825
		c0-1.013-0.035-2.019-0.095-3.019l-21.374,2.021C198.685,57.453,198.69,57.784,198.69,58.118"/>
	<path fill="#F99E27" d="M149.821,76.11L132.74,89.097c3.177,3.912,6.942,7.323,11.157,10.105l11.278-18.252
		C153.194,79.577,151.387,77.946,149.821,76.11"/>
	<path fill="#C7C8C9" d="M143.522,53.725c0.386-2.413,1.085-4.722,2.047-6.883l-19.202-9.564c-2.124,4.512-3.579,9.4-4.237,14.529
		L143.522,53.725z"/>
	<path fill="#C7C8C9" d="M195.831,100.539L184.564,82.29c-2.049,1.155-4.255,2.065-6.58,2.675l3.981,21.108
		C186.911,104.934,191.574,103.052,195.831,100.539"/>
	<path fill="#2FBBE0" d="M197.234,67.015c-0.748,2.194-1.761,4.266-3.003,6.177l17.142,12.924c2.782-3.998,4.98-8.429,6.485-13.173
		L197.234,67.015z"/>
	<path fill="#C7C8C9" d="M174.931,85.581c-1.304,0.189-2.635,0.291-3.997,0.291c-1.09,0-2.168-0.068-3.226-0.191l-3.974,21.11
		c2.355,0.348,4.756,0.527,7.2,0.527c2.714,0,5.375-0.222,7.97-0.646L174.931,85.581z"/>
	<path fill="#E3273D" d="M172.714,30.412c2.384,0.154,4.685,0.606,6.865,1.325l7.704-20.038c-4.585-1.618-9.478-2.581-14.569-2.756
		V30.412z"/>
	<path fill="#C7C8C9" d="M164.638,85.152c-2.403-0.562-4.685-1.433-6.804-2.575l-11.289,18.262c4.341,2.488,9.091,4.327,14.125,5.4
		L164.638,85.152z"/>
	<path fill="#C7C8C9" d="M162.597,31.637c2.226-0.704,4.569-1.131,7.004-1.245V8.925c-5.162,0.137-10.116,1.078-14.766,2.69
		L162.597,31.637z"/>
	<path fill="#BE8B2C" d="M147.938,73.638c-1.361-2.01-2.474-4.216-3.271-6.557l-20.632,5.921c1.562,4.919,3.879,9.5,6.816,13.619
		L147.938,73.638z"/>
	<path fill="#C7C8C9" d="M153.739,36.338c1.811-1.437,3.809-2.646,5.946-3.597l-7.756-20.014c-4.62,1.944-8.875,4.567-12.649,7.75
		L153.739,36.338z"/>
</g>
</svg>
