<?xml version="1.0" encoding="utf-8"?>
<!-- Generator: Adobe Illustrator 16.0.0, SVG Export Plug-In . SVG Version: 6.00 Build 0)  -->
<!DOCTYPE svg PUBLIC "-//W3C//DTD SVG 1.1//EN" "http://www.w3.org/Graphics/SVG/1.1/DTD/svg11.dtd">
<svg version="1.1"
	 id="svg8595" sodipodi:docname="CARICOM.svg" inkscape:version="0.91 r13725" xmlns:sodipodi="http://sodipodi.sourceforge.net/DTD/sodipodi-0.dtd" xmlns:inkscape="http://www.inkscape.org/namespaces/inkscape" xmlns:rdf="http://www.w3.org/1999/02/22-rdf-syntax-ns#" xmlns:cc="http://creativecommons.org/ns#" xmlns:dc="http://purl.org/dc/elements/1.1/" xmlns:svg="http://www.w3.org/2000/svg"
	 xmlns="http://www.w3.org/2000/svg" xmlns:xlink="http://www.w3.org/1999/xlink" x="0px" y="0px" width="260px" height="260px"
	 viewBox="229.5 107 260 260" enable-background="new 229.5 107 260 260" xml:space="preserve">
<sodipodi:namedview  inkscape:pageopacity="0.0" inkscape:current-layer="layer1" inkscape:document-units="px" inkscape:pageshadow="2" inkscape:window-x="-8" inkscape:window-y="-8" inkscape:window-maximized="1" inkscape:window-width="1600" fit-margin-bottom="0" inkscape:window-height="837" fit-margin-right="0" inkscape:cx="88.599222" inkscape:cy="294.35057" showgrid="false" fit-margin-top="0" fit-margin-left="0" borderopacity="1.0" inkscape:zoom="0.34" id="base" pagecolor="#ffffff" bordercolor="#666666" showguides="false">
	</sodipodi:namedview>
<g id="layer1" transform="translate(1391.4286,-571.40979)" inkscape:groupmode="layer" inkscape:label="Laag 1">
	
		<circle id="path9169" fill="#FCD116" stroke="#007A4D" stroke-width="20.233" stroke-linecap="round" stroke-linejoin="round" cx="-1031.929" cy="808.41" r="114.076"/>
	<g id="g4801" transform="matrix(0.94117721,0,0,0.94117721,-62.436192,49.697065)">
		<path id="rect4752" inkscape:connector-curvature="0" fill="#0F0F0F" d="M-1088.955,739.617c-5.574,0-10.359,4.786-10.359,10.361
			v11.09v51.575v11.093c0,5.574,4.784,10.358,10.359,10.358h11.092h51.577h11.09c5.574,0,10.359-4.784,10.359-10.358v-11.093v-7.941
			h-19.082v7.941c0,1.477-0.89,2.368-2.367,2.368h-51.577c-1.477,0-2.368-0.891-2.368-2.368v-51.575
			c0-1.477,0.891-2.368,2.368-2.368h51.577c1.476,0,2.367,0.891,2.367,2.368v7.942h19.082v-7.942v-11.091
			c0-5.574-4.785-10.36-10.359-10.36h-11.09h-51.577H-1088.955L-1088.955,739.617z"/>
		<path id="path4783" inkscape:connector-curvature="0" fill="#0F0F0F" d="M-1044.975,778.169c-5.575,0-10.359,4.785-10.359,10.36
			v11.091v51.576v11.092c0,5.574,4.784,10.358,10.359,10.358h11.092h51.577h11.09c5.574,0,10.36-4.784,10.36-10.358v-11.092v-7.941
			h-19.083v7.941c0,1.477-0.889,2.368-2.367,2.368h-51.577c-1.476,0-2.368-0.891-2.368-2.368V799.62
			c0-1.477,0.891-2.369,2.368-2.369h51.577c1.478,0,2.367,0.892,2.367,2.369v7.942h19.083v-7.942v-11.091
			c0-5.575-4.786-10.36-10.36-10.36h-11.09h-51.577H-1044.975z"/>
	</g>
</g>
</svg>
