<?xml version="1.0" encoding="utf-8"?>
<!-- Generator: Adobe Illustrator 23.1.0, SVG Export Plug-In . SVG Version: 6.00 Build 0)  -->
<svg version="1.1" id="Layer_1" xmlns="http://www.w3.org/2000/svg" xmlns:xlink="http://www.w3.org/1999/xlink" x="0px" y="0px"
	 viewBox="0 0 300 300" style="enable-background:new 0 0 300 300;" xml:space="preserve">
<style type="text/css">
	.st0{opacity:0.9;clip-path:url(#SVGID_2_);}
	.st1{clip-path:url(#SVGID_4_);}
	.st2{clip-path:url(#SVGID_6_);fill:#EDF8FE;}
	.st3{clip-path:url(#SVGID_8_);fill:#FFFFFF;}
	.st4{clip-path:url(#SVGID_10_);fill:#21B8C8;}
	.st5{clip-path:url(#SVGID_12_);fill:#00ACCE;}
	.st6{clip-path:url(#SVGID_14_);fill:#6278A1;}
	.st7{clip-path:url(#SVGID_16_);fill:#008FB4;}
	.st8{clip-path:url(#SVGID_18_);fill:#DC4226;}
	.st9{opacity:0.15;clip-path:url(#SVGID_20_);}
	.st10{clip-path:url(#SVGID_22_);}
	.st11{clip-path:url(#SVGID_24_);fill:#FFFFFF;}
	.st12{clip-path:url(#SVGID_26_);fill:#FFFFFF;}
	.st13{clip-path:url(#SVGID_28_);fill:#FFFFFF;}
	.st14{clip-path:url(#SVGID_30_);fill:#F15A29;}
	.st15{clip-path:url(#SVGID_32_);fill:#F15A29;}
	.st16{clip-path:url(#SVGID_34_);fill:#F15A29;}
	.st17{clip-path:url(#SVGID_36_);fill:#F15A29;}
	.st18{clip-path:url(#SVGID_38_);fill:#F15A29;}
	.st19{clip-path:url(#SVGID_40_);fill:#F15A29;}
	.st20{opacity:0.17;clip-path:url(#SVGID_42_);}
	.st21{clip-path:url(#SVGID_44_);}
	.st22{clip-path:url(#SVGID_46_);}
	.st23{clip-path:url(#SVGID_48_);}
	.st24{clip-path:url(#SVGID_50_);}
	.st25{clip-path:url(#SVGID_52_);}
	.st26{clip-path:url(#SVGID_54_);}
	.st27{clip-path:url(#SVGID_56_);}
	.st28{clip-path:url(#SVGID_58_);fill:#F7941D;}
	.st29{clip-path:url(#SVGID_60_);fill:#F7941D;}
	.st30{clip-path:url(#SVGID_62_);fill:#F7941D;}
	.st31{clip-path:url(#SVGID_64_);fill:#F7941D;}
	.st32{clip-path:url(#SVGID_66_);fill:#F7941D;}
	.st33{clip-path:url(#SVGID_68_);fill:none;stroke:#008FB4;stroke-width:0.4308;stroke-miterlimit:10;}
	.st34{clip-path:url(#SVGID_70_);fill:none;stroke:#008FB4;stroke-width:0.4308;stroke-miterlimit:10;}
	.st35{clip-path:url(#SVGID_72_);fill:none;stroke:#008FB4;stroke-width:0.4308;stroke-miterlimit:10;}
	.st36{clip-path:url(#SVGID_74_);fill:none;stroke:#008FB4;stroke-width:0.4308;stroke-miterlimit:10;}
	.st37{clip-path:url(#SVGID_76_);fill:#FFFFFF;}
	.st38{clip-path:url(#SVGID_78_);fill:#B1DED6;}
	.st39{clip-path:url(#SVGID_80_);fill:#B1DED6;}
	.st40{clip-path:url(#SVGID_82_);fill:#FFFFFF;}
	.st41{clip-path:url(#SVGID_84_);fill:#59B047;}
	.st42{clip-path:url(#SVGID_86_);fill:#66CEF6;}
	.st43{clip-path:url(#SVGID_88_);fill:#FFC425;}
	.st44{clip-path:url(#SVGID_90_);fill:none;}
	.st45{clip-path:url(#SVGID_92_);fill:none;stroke:#F7D64B;stroke-width:3.95;stroke-linecap:round;stroke-miterlimit:10;}
	.st46{clip-path:url(#SVGID_94_);fill:none;}
	.st47{clip-path:url(#SVGID_96_);fill:none;stroke:#F7D64B;stroke-width:3.95;stroke-linecap:round;stroke-miterlimit:10;}
	.st48{clip-path:url(#SVGID_98_);fill:none;}
	.st49{clip-path:url(#SVGID_100_);fill:none;stroke:#F7D64B;stroke-width:3.95;stroke-linecap:round;stroke-miterlimit:10;}
	.st50{clip-path:url(#SVGID_102_);fill:none;}
	.st51{clip-path:url(#SVGID_104_);fill:none;stroke:#F7D64B;stroke-width:3.95;stroke-linecap:round;stroke-miterlimit:10;}
	.st52{clip-path:url(#SVGID_106_);fill:none;}
	.st53{clip-path:url(#SVGID_108_);fill:none;stroke:#F7D64B;stroke-width:3.95;stroke-linecap:round;stroke-miterlimit:10;}
	.st54{clip-path:url(#SVGID_110_);fill:none;}
	.st55{clip-path:url(#SVGID_112_);fill:none;stroke:#F7D64B;stroke-width:3.95;stroke-linecap:round;stroke-miterlimit:10;}
	.st56{clip-path:url(#SVGID_114_);fill:none;}
	.st57{clip-path:url(#SVGID_116_);fill:none;stroke:#F7D64B;stroke-width:3.95;stroke-linecap:round;stroke-miterlimit:10;}
	.st58{clip-path:url(#SVGID_118_);fill:none;}
	.st59{clip-path:url(#SVGID_120_);fill:none;stroke:#F7D64B;stroke-width:3.95;stroke-linecap:round;stroke-miterlimit:10;}
	.st60{clip-path:url(#SVGID_122_);fill:none;}
	.st61{clip-path:url(#SVGID_124_);fill:none;stroke:#F7D64B;stroke-width:3.95;stroke-linecap:round;stroke-miterlimit:10;}
	.st62{clip-path:url(#SVGID_126_);fill:none;}
	.st63{clip-path:url(#SVGID_128_);fill:none;stroke:#F7D64B;stroke-width:3.95;stroke-linecap:round;stroke-miterlimit:10;}
	.st64{clip-path:url(#SVGID_130_);fill:none;}
	.st65{clip-path:url(#SVGID_132_);fill:none;stroke:#F7D64B;stroke-width:3.95;stroke-linecap:round;stroke-miterlimit:10;}
	.st66{clip-path:url(#SVGID_134_);fill:none;}
	.st67{clip-path:url(#SVGID_136_);fill:none;stroke:#F7D64B;stroke-width:3.95;stroke-linecap:round;stroke-miterlimit:10;}
	.st68{clip-path:url(#SVGID_138_);fill:#DC4226;}
	.st69{opacity:0.149;clip-path:url(#SVGID_140_);}
	.st70{clip-path:url(#SVGID_142_);}
	.st71{clip-path:url(#SVGID_144_);fill:#FFFFFF;}
	.st72{clip-path:url(#SVGID_146_);fill:#B1DED6;}
	.st73{clip-path:url(#SVGID_148_);fill:none;stroke:#FFFFFF;stroke-width:0.7826;stroke-linecap:round;stroke-miterlimit:10;}
	.st74{clip-path:url(#SVGID_150_);fill:#B1DED6;}
	.st75{clip-path:url(#SVGID_152_);fill:#FFFFFF;}
	.st76{clip-path:url(#SVGID_154_);fill:#B1DED6;}
	.st77{clip-path:url(#SVGID_156_);fill:#FFFFFF;}
	.st78{clip-path:url(#SVGID_158_);fill:#B1DED6;}
	.st79{clip-path:url(#SVGID_160_);fill:#FFFFFF;}
	.st80{clip-path:url(#SVGID_162_);fill:#B1DED6;}
	.st81{clip-path:url(#SVGID_164_);fill:#FFFFFF;}
	.st82{clip-path:url(#SVGID_166_);fill:#B1DED6;}
	.st83{clip-path:url(#SVGID_168_);fill:none;stroke:#FFFFFF;stroke-width:0.7826;stroke-linecap:round;stroke-miterlimit:10;}
	.st84{clip-path:url(#SVGID_170_);fill:#B1DED6;}
	.st85{clip-path:url(#SVGID_172_);fill:none;stroke:#FFFFFF;stroke-width:0.7826;stroke-linecap:round;stroke-miterlimit:10;}
	.st86{clip-path:url(#SVGID_174_);fill:#B1DED6;}
	.st87{clip-path:url(#SVGID_176_);fill:#FFFFFF;}
	.st88{clip-path:url(#SVGID_178_);fill:#B1DED6;}
	.st89{clip-path:url(#SVGID_180_);fill:#FFFFFF;}
	.st90{clip-path:url(#SVGID_182_);fill:#B1DED6;}
	.st91{clip-path:url(#SVGID_184_);fill:#FFFFFF;}
	.st92{clip-path:url(#SVGID_186_);fill:#006699;}
	.st93{clip-path:url(#SVGID_190_);fill:#59B047;}
	.st94{clip-path:url(#SVGID_192_);fill:#59B047;}
	.st95{clip-path:url(#SVGID_194_);fill:#59B047;}
	.st96{clip-path:url(#SVGID_196_);fill:#59B047;}
	.st97{clip-path:url(#SVGID_198_);fill:#59B047;}
	.st98{clip-path:url(#SVGID_200_);fill:#59B047;}
	.st99{clip-path:url(#SVGID_202_);fill:#59B047;}
	.st100{clip-path:url(#SVGID_204_);fill:#59B047;}
	.st101{clip-path:url(#SVGID_206_);fill:#59B047;}
	.st102{clip-path:url(#SVGID_208_);fill:#FFC425;}
	.st103{clip-path:url(#SVGID_210_);fill:#21B8C8;}
	.st104{opacity:0.48;clip-path:url(#SVGID_212_);}
	.st105{clip-path:url(#SVGID_214_);}
	.st106{clip-path:url(#SVGID_216_);fill:#B1DED6;}
	.st107{clip-path:url(#SVGID_218_);fill:#AFE1F1;}
	.st108{opacity:0.48;clip-path:url(#SVGID_220_);}
	.st109{clip-path:url(#SVGID_222_);}
	.st110{clip-path:url(#SVGID_224_);fill:#21B8C8;}
	.st111{clip-path:url(#SVGID_226_);fill:#21B8C8;}
	.st112{clip-path:url(#SVGID_228_);fill:#21B8C8;}
	.st113{clip-path:url(#SVGID_230_);fill:#21B8C8;}
	.st114{clip-path:url(#SVGID_232_);fill:#DC4226;}
	.st115{clip-path:url(#SVGID_234_);fill:#FFC425;}
	.st116{clip-path:url(#SVGID_236_);fill:#102938;}
	.st117{clip-path:url(#SVGID_238_);fill:#102938;}
	.st118{clip-path:url(#SVGID_240_);fill:#102938;}
	.st119{clip-path:url(#SVGID_242_);fill:#102938;}
	.st120{clip-path:url(#SVGID_244_);fill:#102938;}
	.st121{clip-path:url(#SVGID_246_);fill:#102938;}
	.st122{clip-path:url(#SVGID_248_);fill:#102938;}
	.st123{clip-path:url(#SVGID_250_);fill:#102938;}
	.st124{opacity:0.149;clip-path:url(#SVGID_252_);}
	.st125{clip-path:url(#SVGID_254_);}
	.st126{clip-path:url(#SVGID_256_);fill:#FFFFFF;}
	.st127{opacity:0.149;clip-path:url(#SVGID_258_);}
	.st128{clip-path:url(#SVGID_260_);}
	.st129{clip-path:url(#SVGID_262_);fill:#1D1D1B;}
	.st130{clip-path:url(#SVGID_264_);fill:#394A4A;}
	.st131{clip-path:url(#SVGID_266_);fill:#394A4A;}
	.st132{clip-path:url(#SVGID_268_);fill:#293A39;}
	.st133{clip-path:url(#SVGID_270_);fill:#293A39;}
	.st134{clip-path:url(#SVGID_272_);fill:#85D4EB;}
	.st135{clip-path:url(#SVGID_274_);fill:#5BA3D9;}
	.st136{clip-path:url(#SVGID_276_);fill:#4A8CCA;}
	.st137{clip-path:url(#SVGID_278_);fill:#DEECF1;}
	.st138{clip-path:url(#SVGID_280_);fill:#C6E2E7;}
	.st139{clip-path:url(#SVGID_282_);fill:#3F5A5A;}
	.st140{clip-path:url(#SVGID_284_);fill:#394A4A;}
	.st141{clip-path:url(#SVGID_286_);fill:#AFE1F1;}
	.st142{clip-path:url(#SVGID_288_);fill:#4B6970;}
	.st143{clip-path:url(#SVGID_290_);fill:#394A4A;}
	.st144{clip-path:url(#SVGID_292_);fill:#394A4A;}
	.st145{clip-path:url(#SVGID_294_);fill:#5BA3D9;}
	.st146{clip-path:url(#SVGID_296_);fill:#FFFFFF;}
	.st147{clip-path:url(#SVGID_298_);fill:#3F5A5A;}
	.st148{clip-path:url(#SVGID_300_);fill:#AFE1F1;}
	.st149{clip-path:url(#SVGID_302_);fill:#4B6970;}
	.st150{clip-path:url(#SVGID_304_);fill:#394A4A;}
	.st151{clip-path:url(#SVGID_306_);fill:#394A4A;}
	.st152{clip-path:url(#SVGID_308_);fill:#5BA3D9;}
	.st153{clip-path:url(#SVGID_310_);fill:#FFFFFF;}
	.st154{clip-path:url(#SVGID_312_);fill:#3F5A5A;}
	.st155{clip-path:url(#SVGID_314_);fill:#AFE1F1;}
	.st156{clip-path:url(#SVGID_316_);fill:#4B6970;}
	.st157{clip-path:url(#SVGID_318_);fill:#3F5A5A;}
	.st158{clip-path:url(#SVGID_320_);fill:#0090C2;}
	.st159{clip-path:url(#SVGID_322_);fill:#64C6BB;}
	.st160{clip-path:url(#SVGID_324_);fill:#64C6BB;}
	.st161{clip-path:url(#SVGID_326_);fill:#64C6BB;}
	.st162{clip-path:url(#SVGID_328_);fill:#64C6BB;}
	.st163{clip-path:url(#SVGID_330_);fill:#4EBE98;}
	.st164{clip-path:url(#SVGID_332_);fill:#4EBE98;}
	.st165{clip-path:url(#SVGID_334_);fill:#4EBE98;}
	.st166{clip-path:url(#SVGID_336_);fill:#4EBE98;}
	.st167{fill:#FFC425;}
	.st168{fill:#ECEBF0;}
	.st169{opacity:0.32;clip-path:url(#SVGID_338_);}
	.st170{clip-path:url(#SVGID_340_);fill:#FFC425;}
	.st171{opacity:0.32;clip-path:url(#SVGID_342_);}
	.st172{clip-path:url(#SVGID_344_);fill:#ECEBF0;}
	.st173{fill:#D7D7E2;}
	.st174{clip-path:url(#SVGID_346_);fill:#FFC425;}
	.st175{opacity:0.32;clip-path:url(#SVGID_348_);}
	.st176{clip-path:url(#SVGID_350_);}
	.st177{clip-path:url(#SVGID_352_);fill:#FFFFFF;}
	.st178{clip-path:url(#SVGID_354_);fill:#FFC425;}
	.st179{clip-path:url(#SVGID_356_);fill:#FFC425;}
	.st180{opacity:0.32;clip-path:url(#SVGID_358_);}
	.st181{clip-path:url(#SVGID_360_);}
	.st182{clip-path:url(#SVGID_362_);fill:#FFFFFF;}
	.st183{clip-path:url(#SVGID_364_);fill:#FFC425;}
	.st184{clip-path:url(#SVGID_366_);fill:#64C6BB;}
	.st185{clip-path:url(#SVGID_368_);fill:#53C1B3;}
</style>
<g>
	<g>
		<g>
			<defs>
				<rect id="SVGID_1_" x="5" y="5" width="290" height="290"/>
			</defs>
			<clipPath id="SVGID_2_">
				<use xlink:href="#SVGID_1_"  style="overflow:visible;"/>
			</clipPath>
			<g class="st0">
				<g>
					<g>
						<defs>
							<rect id="SVGID_3_" x="5" y="5" width="290" height="290"/>
						</defs>
						<clipPath id="SVGID_4_">
							<use xlink:href="#SVGID_3_"  style="overflow:visible;"/>
						</clipPath>
						<g class="st1">
							<g>
								<defs>
									<rect id="SVGID_5_" x="5" y="5" width="290" height="290"/>
								</defs>
								<clipPath id="SVGID_6_">
									<use xlink:href="#SVGID_5_"  style="overflow:visible;"/>
								</clipPath>
								<path class="st2" d="M295,150c0,80.1-64.9,145-145,145S5,230.1,5,150S69.9,5,150,5S295,69.9,295,150"/>
							</g>
						</g>
					</g>
				</g>
			</g>
		</g>
		<g>
			<defs>
				<rect id="SVGID_7_" x="5" y="5" width="290" height="290"/>
			</defs>
			<clipPath id="SVGID_8_">
				<use xlink:href="#SVGID_7_"  style="overflow:visible;"/>
			</clipPath>
			<path class="st3" d="M117.6,151.3c0,17.6,14.3,31.9,31.9,31.9s31.9-14.3,31.9-31.9s-14.3-31.9-31.9-31.9
				C131.8,119.5,117.6,133.7,117.6,151.3"/>
		</g>
		<g>
			<defs>
				<rect id="SVGID_9_" x="5" y="5" width="290" height="290"/>
			</defs>
			<clipPath id="SVGID_10_">
				<use xlink:href="#SVGID_9_"  style="overflow:visible;"/>
			</clipPath>
			<path class="st4" d="M108.1,65.2c0,22.8,18.5,41.3,41.3,41.3s41.3-18.5,41.3-41.3s-18.5-41.3-41.3-41.3
				C126.6,23.9,108.1,42.4,108.1,65.2"/>
		</g>
		<g>
			<defs>
				<rect id="SVGID_11_" x="5" y="5" width="290" height="290"/>
			</defs>
			<clipPath id="SVGID_12_">
				<use xlink:href="#SVGID_11_"  style="overflow:visible;"/>
			</clipPath>
			<path class="st5" d="M183.3,107.3c0,22.8,18.5,41.3,41.3,41.3s41.3-18.5,41.3-41.3S247.4,66,224.6,66
				C201.8,65.9,183.3,84.4,183.3,107.3"/>
		</g>
		<g>
			<defs>
				<rect id="SVGID_13_" x="5" y="5" width="290" height="290"/>
			</defs>
			<clipPath id="SVGID_14_">
				<use xlink:href="#SVGID_13_"  style="overflow:visible;"/>
			</clipPath>
			<path class="st6" d="M224.1,148.6h0.1C224.2,148.6,224.2,148.6,224.1,148.6L224.1,148.6 M224,148.6L224,148.6L224,148.6
				L224,148.6 M224,148.6C223.9,148.5,223.9,148.5,224,148.6C223.9,148.5,223.9,148.5,224,148.6 M223.9,148.5L223.9,148.5
				L223.9,148.5L223.9,148.5 M223.9,148.5L223.9,148.5c-0.1,0-0.2,0-0.2,0S223.8,148.5,223.9,148.5 M223.5,148.5L223.5,148.5
				c-0.1,0-0.2,0-0.3,0C223.3,148.5,223.4,148.5,223.5,148.5 M223.2,148.5h-0.1C223.1,148.5,223.1,148.5,223.2,148.5 M222.9,148.5
				c-0.1,0-0.1,0-0.2,0C222.8,148.5,222.9,148.5,222.9,148.5 M222.7,148.5c-0.1,0-0.1,0-0.2,0C222.6,148.5,222.7,148.5,222.7,148.5
				 M222.4,148.5c-0.1,0-0.1,0-0.2,0C222.3,148.5,222.3,148.5,222.4,148.5 M222.2,148.5c-0.1,0-0.1,0-0.2,0
				C222.1,148.5,222.2,148.5,222.2,148.5 M221.9,148.5h-0.1C221.8,148.5,221.8,148.5,221.9,148.5 M221.7,148.5c-0.1,0-0.2,0-0.3,0
				C221.6,148.4,221.7,148.5,221.7,148.5 M221.3,148.4c-0.1,0-0.2,0-0.3,0C221.1,148.4,221.2,148.4,221.3,148.4 M220.8,148.4
				c-0.1,0-0.2,0-0.3,0C220.6,148.4,220.7,148.4,220.8,148.4 M220.3,148.3c-0.1,0-0.2,0-0.3,0C220.1,148.3,220.2,148.3,220.3,148.3
				 M219.7,148.3c-0.1,0-0.1,0-0.2,0C219.5,148.2,219.6,148.3,219.7,148.3 M219.2,148.2c-0.1,0-0.1,0-0.2,0
				C219.1,148.2,219.1,148.2,219.2,148.2 M218,148L218,148L218,148 M217.6,148L217.6,148L217.6,148 M216.5,147.8L216.5,147.8
				L216.5,147.8"/>
		</g>
		<g>
			<defs>
				<rect id="SVGID_15_" x="5" y="5" width="290" height="290"/>
			</defs>
			<clipPath id="SVGID_16_">
				<use xlink:href="#SVGID_15_"  style="overflow:visible;"/>
			</clipPath>
			<path class="st7" d="M115.6,87.9L115.6,87.9V89l0,0V87.9z"/>
		</g>
		<g>
			<defs>
				<rect id="SVGID_17_" x="5" y="5" width="290" height="290"/>
			</defs>
			<clipPath id="SVGID_18_">
				<use xlink:href="#SVGID_17_"  style="overflow:visible;"/>
			</clipPath>
			<path class="st8" d="M248.4,92.7c-3.8-6-11.7-6.5-16.7-4.8c-3.8,1.3-6.6,5-7.1,5.6c-0.5-0.6-3.1-4.2-7-5.5
				c-5-1.7-13-1.3-16.8,4.7c-1.5,2.4-6.3,10.1,4,21.9c0,0,9.7,11.2,18.7,16.7c0.4,0.2,0.9,0.6,1,0.5c0,0,0.6-0.3,1-0.5
				c9-5.4,18.8-16.7,18.8-16.7C254.6,102.8,249.9,95.1,248.4,92.7"/>
		</g>
		<g>
			<defs>
				<rect id="SVGID_19_" x="5" y="5" width="290" height="290"/>
			</defs>
			<clipPath id="SVGID_20_">
				<use xlink:href="#SVGID_19_"  style="overflow:visible;"/>
			</clipPath>
			<g class="st9">
				<g>
					<g>
						<defs>
							<rect id="SVGID_21_" x="198.4" y="87.1" width="52.4" height="44.8"/>
						</defs>
						<clipPath id="SVGID_22_">
							<use xlink:href="#SVGID_21_"  style="overflow:visible;"/>
						</clipPath>
						<g class="st10">
							<g>
								<defs>
									<rect id="SVGID_23_" x="198.4" y="87.1" width="52.4" height="44.8"/>
								</defs>
								<clipPath id="SVGID_24_">
									<use xlink:href="#SVGID_23_"  style="overflow:visible;"/>
								</clipPath>
								<path class="st11" d="M248.4,92.7c-3.8-6-11.7-6.5-16.7-4.8c-3.8,1.3-6.6,5-7.1,5.6c-0.5-0.6-3.1-4.2-7-5.5
									c-5-1.7-13-1.3-16.8,4.7c-1.5,2.4-6.3,10.1,4,21.9c0,0,9.7,11.2,18.7,16.7c0.4,0.2,0.9,0.6,1,0.5c0,0,0.6-0.3,1-0.5
									c9-5.4,18.8-16.7,18.8-16.7C254.6,102.8,249.9,95.1,248.4,92.7"/>
							</g>
						</g>
					</g>
				</g>
			</g>
		</g>
		<g>
			<defs>
				<rect id="SVGID_25_" x="5" y="5" width="290" height="290"/>
			</defs>
			<clipPath id="SVGID_26_">
				<use xlink:href="#SVGID_25_"  style="overflow:visible;"/>
			</clipPath>
			<path class="st12" d="M223,114.7c-0.4,0-0.7-0.1-0.8-0.3l-6.1-9.9l-2.3,4.5c-0.1,0.2-0.4,0.4-0.8,0.4h-6.6
				c-0.5,0-0.9-0.2-0.9-0.5s0.4-0.5,0.9-0.5h6l2.9-5.6c0.1-0.2,0.4-0.4,0.8-0.4c0.4,0,0.7,0.1,0.8,0.3l6.1,9.8l3.2-7.4
				c0.1-0.2,0.4-0.4,0.8-0.4c0.4,0,0.7,0.1,0.9,0.3l2.5,3.2l2.8-6.8c0.1-0.2,0.4-0.4,0.8-0.4c0.4,0,0.7,0.1,0.9,0.3l2.1,3.5h8
				c0.5,0,0.9,0.2,0.9,0.5s-0.4,0.5-0.9,0.5h-8.6c-0.4,0-0.7-0.1-0.8-0.3l-1.3-2.2l-2.7,6.5c-0.1,0.2-0.4,0.4-0.8,0.4
				c-0.4,0-0.7-0.1-0.9-0.3l-2.6-3.3l-3.3,7.6C223.7,114.5,223.3,114.7,223,114.7L223,114.7z"/>
		</g>
		<g>
			<defs>
				<rect id="SVGID_27_" x="5" y="5" width="290" height="290"/>
			</defs>
			<clipPath id="SVGID_28_">
				<use xlink:href="#SVGID_27_"  style="overflow:visible;"/>
			</clipPath>
			<path class="st13" d="M207.2,109c0,0.2,0,0.5-0.1,0.7s-0.2,0.4-0.4,0.6s-0.4,0.3-0.6,0.4c-0.2,0.1-0.5,0.1-0.7,0.1
				s-0.5,0-0.7-0.1s-0.4-0.2-0.6-0.4c-0.2-0.2-0.3-0.4-0.4-0.6c-0.1-0.2-0.1-0.5-0.1-0.7s0-0.5,0.1-0.7s0.2-0.4,0.4-0.6
				s0.4-0.3,0.6-0.4c0.2-0.1,0.5-0.1,0.7-0.1c0.3,0,0.5,0,0.7,0.1s0.4,0.2,0.6,0.4c0.2,0.2,0.3,0.4,0.4,0.6
				C207.1,108.5,207.2,108.7,207.2,109"/>
		</g>
	</g>
	<g>
		<g>
			<defs>
				<path id="SVGID_29_" d="M108.1,65.2c0,22.8,18.5,41.3,41.3,41.3s41.3-18.5,41.3-41.3s-18.5-41.3-41.3-41.3
					C126.6,23.9,108.1,42.4,108.1,65.2"/>
			</defs>
			<clipPath id="SVGID_30_">
				<use xlink:href="#SVGID_29_"  style="overflow:visible;"/>
			</clipPath>
			<path class="st14" d="M171.9,75.3v2.6c0,0.2,0,0.5,0,0.7c0.6-0.3,1-0.9,1-1.7C172.9,76.2,172.5,75.6,171.9,75.3"/>
		</g>
		<g>
			<defs>
				<path id="SVGID_31_" d="M108.1,65.2c0,22.8,18.5,41.3,41.3,41.3s41.3-18.5,41.3-41.3s-18.5-41.3-41.3-41.3
					C126.6,23.9,108.1,42.4,108.1,65.2"/>
			</defs>
			<clipPath id="SVGID_32_">
				<use xlink:href="#SVGID_31_"  style="overflow:visible;"/>
			</clipPath>
			<path class="st15" d="M168.1,83.9c-0.9,0.4-1.8,0.7-2.9,0.7c-1,0-2-0.2-2.9-0.7v0.3l2.9,2.9l2.9-2.9V83.9z"/>
		</g>
		<g>
			<defs>
				<path id="SVGID_33_" d="M108.1,65.2c0,22.8,18.5,41.3,41.3,41.3s41.3-18.5,41.3-41.3s-18.5-41.3-41.3-41.3
					C126.6,23.9,108.1,42.4,108.1,65.2"/>
			</defs>
			<clipPath id="SVGID_34_">
				<use xlink:href="#SVGID_33_"  style="overflow:visible;"/>
			</clipPath>
			<path class="st16" d="M160.5,73.1v4.8c0,2.6,2.1,4.8,4.8,4.8c2.6,0,4.8-2.1,4.8-4.8v-4.8c-1.7-0.2-3.3-0.7-4.8-1.7
				C163.8,72.3,162.2,72.9,160.5,73.1"/>
		</g>
		<g>
			<defs>
				<path id="SVGID_35_" d="M108.1,65.2c0,22.8,18.5,41.3,41.3,41.3s41.3-18.5,41.3-41.3s-18.5-41.3-41.3-41.3
					C126.6,23.9,108.1,42.4,108.1,65.2"/>
			</defs>
			<clipPath id="SVGID_36_">
				<use xlink:href="#SVGID_35_"  style="overflow:visible;"/>
			</clipPath>
			<path class="st17" d="M158.6,75.3c-0.6,0.3-1,0.9-1,1.6s0.4,1.3,1,1.7c0-0.2,0-0.5,0-0.7V75.3z"/>
		</g>
		<g>
			<defs>
				<path id="SVGID_37_" d="M108.1,65.2c0,22.8,18.5,41.3,41.3,41.3s41.3-18.5,41.3-41.3s-18.5-41.3-41.3-41.3
					C126.6,23.9,108.1,42.4,108.1,65.2"/>
			</defs>
			<clipPath id="SVGID_38_">
				<use xlink:href="#SVGID_37_"  style="overflow:visible;"/>
			</clipPath>
			<path class="st18" d="M165.3,69.1l1,0.7c1.4,0.9,3,1.4,4.7,1.4h1v2c0.3,0.1,0.7,0.2,1,0.4v-2.2c0-3.8-3.1-6.9-6.9-6.9
				c-1.5,0-3,0.5-4.1,1.4l-1.8,1.4h-0.1c-1.3,0.4-2.2,1.7-2.2,3.1v3.2c0.3-0.2,0.6-0.3,1-0.4v-2h1c1.7,0,3.3-0.5,4.7-1.4L165.3,69.1
				z"/>
		</g>
		<g>
			<defs>
				<path id="SVGID_39_" d="M108.1,65.2c0,22.8,18.5,41.3,41.3,41.3s41.3-18.5,41.3-41.3s-18.5-41.3-41.3-41.3
					C126.6,23.9,108.1,42.4,108.1,65.2"/>
			</defs>
			<clipPath id="SVGID_40_">
				<use xlink:href="#SVGID_39_"  style="overflow:visible;"/>
			</clipPath>
			<path class="st19" d="M175.3,85.6l-5.3-1.8v-1.3c0.5-0.5,0.9-1.2,1.3-1.8c1.9-0.2,3.5-1.8,3.5-3.8v-5.5c0-4.9-3.9-8.8-8.8-8.8
				c-1.9,0-3.8,0.6-5.3,1.8l-1.6,1.2c-2,0.7-3.4,2.7-3.4,4.8v6.5c0,2,1.5,3.6,3.5,3.8c0.3,0.7,0.7,1.3,1.3,1.8v1.3l-5.3,1.8
				c-1.9,0.6-3.3,2.5-3.3,4.5v16.8c0.6,0,1.3-0.1,1.9-0.1l20.9-1.6c0.7-0.7,3.2-10.7,3.8-11.4v-3.6
				C178.6,88.1,177.3,86.3,175.3,85.6 M170,77.9c0,2.6-2.1,4.8-4.8,4.8c-2.6,0-4.8-2.1-4.8-4.8v-4.8c1.7-0.2,3.3-0.7,4.8-1.7
				c1.4,0.9,3.1,1.5,4.8,1.7V77.9z M171.9,78.6c0-0.2,0-0.5,0-0.7v-2.6c0.6,0.3,1,0.9,1,1.6S172.5,78.2,171.9,78.6 M157.7,76.9
				c0-0.7,0.4-1.3,1-1.6v2.6c0,0.2,0,0.5,0,0.7C158.1,78.2,157.7,77.6,157.7,76.9 M159.6,71.2h-1v2c-0.3,0.1-0.7,0.2-1,0.4v-3.2
				c0-1.4,0.9-2.6,2.2-3.1h0.1l1.8-1.4c1.2-0.9,2.7-1.4,4.1-1.4c3.8,0,6.9,3.1,6.9,6.9v2.2c-0.3-0.2-0.6-0.3-1-0.4v-2h-1
				c-1.7,0-3.3-0.5-4.7-1.4l-1-0.7l-1,0.7C162.9,70.7,161.2,71.2,159.6,71.2 M160,86l1.3-0.4 M165.3,87l-2.9-2.9v-0.3
				c0.9,0.4,1.8,0.6,2.9,0.6c1,0,2-0.2,2.9-0.6v0.3L165.3,87z M169.3,85.6l1.3,0.4"/>
		</g>
		<g>
			<defs>
				<path id="SVGID_41_" d="M108.1,65.2c0,22.8,18.5,41.3,41.3,41.3s41.3-18.5,41.3-41.3s-18.5-41.3-41.3-41.3
					C126.6,23.9,108.1,42.4,108.1,65.2"/>
			</defs>
			<clipPath id="SVGID_42_">
				<use xlink:href="#SVGID_41_"  style="overflow:visible;"/>
			</clipPath>
			<g class="st20">
				<g>
					<g>
						<defs>
							<rect id="SVGID_43_" x="151.9" y="62.6" width="26.6" height="44.2"/>
						</defs>
						<clipPath id="SVGID_44_">
							<use xlink:href="#SVGID_43_"  style="overflow:visible;"/>
						</clipPath>
						<g class="st21">
							<g>
								<defs>
									<rect id="SVGID_45_" x="151.9" y="62.6" width="26.6" height="44.2"/>
								</defs>
								<clipPath id="SVGID_46_">
									<use xlink:href="#SVGID_45_"  style="overflow:visible;"/>
								</clipPath>
								<path class="st22" d="M171.9,75.3v2.6c0,0.2,0,0.5,0,0.7c0.6-0.3,1-0.9,1-1.7C172.9,76.2,172.5,75.6,171.9,75.3"/>
							</g>
							<g>
								<defs>
									<rect id="SVGID_47_" x="151.9" y="62.6" width="26.6" height="44.2"/>
								</defs>
								<clipPath id="SVGID_48_">
									<use xlink:href="#SVGID_47_"  style="overflow:visible;"/>
								</clipPath>
								<path class="st23" d="M168.1,83.9c-0.9,0.4-1.8,0.7-2.9,0.7c-1,0-2-0.2-2.9-0.7v0.3l2.9,2.9l2.9-2.9V83.9z"/>
							</g>
							<g>
								<defs>
									<rect id="SVGID_49_" x="151.9" y="62.6" width="26.6" height="44.2"/>
								</defs>
								<clipPath id="SVGID_50_">
									<use xlink:href="#SVGID_49_"  style="overflow:visible;"/>
								</clipPath>
								<path class="st24" d="M160.5,73.1v4.8c0,2.6,2.1,4.8,4.8,4.8c2.6,0,4.8-2.1,4.8-4.8v-4.8c-1.7-0.2-3.3-0.7-4.8-1.7
									C163.8,72.3,162.2,72.9,160.5,73.1"/>
							</g>
							<g>
								<defs>
									<rect id="SVGID_51_" x="151.9" y="62.6" width="26.6" height="44.2"/>
								</defs>
								<clipPath id="SVGID_52_">
									<use xlink:href="#SVGID_51_"  style="overflow:visible;"/>
								</clipPath>
								<path class="st25" d="M158.6,75.3c-0.6,0.3-1,0.9-1,1.6s0.4,1.3,1,1.7c0-0.2,0-0.5,0-0.7V75.3z"/>
							</g>
							<g>
								<defs>
									<rect id="SVGID_53_" x="151.9" y="62.6" width="26.6" height="44.2"/>
								</defs>
								<clipPath id="SVGID_54_">
									<use xlink:href="#SVGID_53_"  style="overflow:visible;"/>
								</clipPath>
								<path class="st26" d="M165.3,69.1l1,0.7c1.4,0.9,3,1.4,4.7,1.4h1v2c0.3,0.1,0.7,0.2,1,0.4v-2.2c0-3.8-3.1-6.9-6.9-6.9
									c-1.5,0-3,0.5-4.1,1.4l-1.8,1.4h-0.1c-1.3,0.4-2.2,1.7-2.2,3.1v3.2c0.3-0.2,0.6-0.3,1-0.4v-2h1c1.7,0,3.3-0.5,4.7-1.4
									L165.3,69.1z"/>
							</g>
							<g>
								<defs>
									<rect id="SVGID_55_" x="151.9" y="62.6" width="26.6" height="44.2"/>
								</defs>
								<clipPath id="SVGID_56_">
									<use xlink:href="#SVGID_55_"  style="overflow:visible;"/>
								</clipPath>
								<path class="st27" d="M175.3,85.6l-5.3-1.8v-1.3c0.5-0.5,0.9-1.2,1.3-1.8c1.9-0.2,3.5-1.8,3.5-3.8v-5.5
									c0-4.9-3.9-8.8-8.8-8.8c-1.9,0-3.8,0.6-5.3,1.8l-1.6,1.2c-2,0.7-3.4,2.7-3.4,4.8v6.5c0,2,1.5,3.6,3.5,3.8
									c0.3,0.7,0.7,1.3,1.3,1.8v1.3l-5.3,1.8c-1.9,0.6-3.3,2.5-3.3,4.5v16.8c0.6,0,1.3-0.1,1.9-0.1l20.9-1.6
									c0.7-0.7,3.2-10.7,3.8-11.4v-3.6C178.6,88.1,177.3,86.3,175.3,85.6 M170,77.9c0,2.6-2.1,4.8-4.8,4.8c-2.6,0-4.8-2.1-4.8-4.8
									v-4.8c1.7-0.2,3.3-0.7,4.8-1.7c1.4,0.9,3.1,1.5,4.8,1.7V77.9z M171.9,78.6c0-0.2,0-0.5,0-0.7v-2.6c0.6,0.3,1,0.9,1,1.6
									S172.5,78.2,171.9,78.6 M157.7,76.9c0-0.7,0.4-1.3,1-1.6v2.6c0,0.2,0,0.5,0,0.7C158.1,78.2,157.7,77.6,157.7,76.9
									 M159.6,71.2h-1v2c-0.3,0.1-0.7,0.2-1,0.4v-3.2c0-1.4,0.9-2.6,2.2-3.1h0.1l1.8-1.4c1.2-0.9,2.7-1.4,4.1-1.4
									c3.8,0,6.9,3.1,6.9,6.9v2.2c-0.3-0.2-0.6-0.3-1-0.4v-2h-1c-1.7,0-3.3-0.5-4.7-1.4l-1-0.7l-1,0.7
									C162.9,70.7,161.2,71.2,159.6,71.2 M160,86l1.3-0.4 M165.3,87l-2.9-2.9v-0.3c0.9,0.4,1.8,0.6,2.9,0.6c1,0,2-0.2,2.9-0.6v0.3
									L165.3,87z M169.3,85.6l1.3,0.4"/>
							</g>
						</g>
					</g>
				</g>
			</g>
		</g>
		<g>
			<defs>
				<path id="SVGID_57_" d="M108.1,65.2c0,22.8,18.5,41.3,41.3,41.3s41.3-18.5,41.3-41.3s-18.5-41.3-41.3-41.3
					C126.6,23.9,108.1,42.4,108.1,65.2"/>
			</defs>
			<clipPath id="SVGID_58_">
				<use xlink:href="#SVGID_57_"  style="overflow:visible;"/>
			</clipPath>
			<path class="st28" d="M142.4,75.2v-4.8c0-2.2-1.3-4.1-3.4-4.8l-1.6-1.2c-1.5-1.1-3.4-1.8-5.3-1.8c-4.9,0-8.8,3.9-8.8,8.8
				c0,0-0.1,2.1,0.2,4c0.4,1.9,1.2,3.4,2.8,4.4c0.3,0.7,1.2,2.2,1.7,2.7v1.3l-5.3,1.8c-1.9,0.6-3.2,2.5-3.3,4.5v1
				c0.6,0.9-0.5,11.5,0.1,12.3l24.6,3.1c0.6,0.1,1.3,0.2,1.9,0.2V90.1c0-2.1-1.3-3.9-3.3-4.5l-5.3-1.8v-1.3c0.5-0.5,1.4-2,1.7-2.7
				 M137.7,77.9c0,2.6-2.1,4.8-4.8,4.8c-2.6,0-4.8-2.1-4.8-4.8v-3.8c0-0.5,0.4-1,1-1h7.6c0.5,0,1,0.4,1,1V77.9z M139.5,78.6
				c0-0.2,0-0.5,0-0.7v-2.6c0.6,0.3,1,0.9,1,1.6S140.1,78.2,139.5,78.6 M125.3,76.9c0-0.7,0.4-1.3,1-1.6v2.6c0,0.2,0,0.5,0,0.7
				C125.7,78.2,125.3,77.6,125.3,76.9 M126.4,73.2c-0.4,0.1-0.8,0.2-1.1,0.4v-2.2c0-3.8,3.1-6.9,6.9-6.9c1.5,0,3,0.5,4.1,1.4
				l1.8,1.4h0.1c1.3,0.4,2.2,1.7,2.2,3.1v3.2c-0.3-0.2-0.7-0.4-1.1-0.4c-0.4-1.2-1.4-2-2.7-2H129C127.8,71.2,126.8,72,126.4,73.2
				 M127.6,86l1.3-0.4 M130.1,84.1v-0.3c0.9,0.4,1.8,0.6,2.9,0.6c1,0,2-0.2,2.9-0.6v0.3H130.1z M137,85.6l1.3,0.4"/>
		</g>
		<g>
			<defs>
				<path id="SVGID_59_" d="M108.1,65.2c0,22.8,18.5,41.3,41.3,41.3s41.3-18.5,41.3-41.3s-18.5-41.3-41.3-41.3
					C126.6,23.9,108.1,42.4,108.1,65.2"/>
			</defs>
			<clipPath id="SVGID_60_">
				<use xlink:href="#SVGID_59_"  style="overflow:visible;"/>
			</clipPath>
			<path class="st29" d="M136.7,73.1h-7.6c-0.5,0-1,0.4-1,1v3.8c0,2.6,2.1,4.8,4.8,4.8c2.6,0,4.8-2.1,4.8-4.8v-3.8
				C137.7,73.5,137.2,73.1,136.7,73.1"/>
		</g>
		<g>
			<defs>
				<path id="SVGID_61_" d="M108.1,65.2c0,22.8,18.5,41.3,41.3,41.3s41.3-18.5,41.3-41.3s-18.5-41.3-41.3-41.3
					C126.6,23.9,108.1,42.4,108.1,65.2"/>
			</defs>
			<clipPath id="SVGID_62_">
				<use xlink:href="#SVGID_61_"  style="overflow:visible;"/>
			</clipPath>
			<path class="st30" d="M136.7,71.2c1.3,0,2.3,0.8,2.7,2c0.4,0.1,0.8,0.2,1.1,0.4v-3.2c0-1.4-0.9-2.6-2.2-3.1h-0.1l-1.8-1.4
				c-1.2-0.9-2.7-1.4-4.1-1.4c-3.8,0-6.9,3.1-6.9,6.9v2.2c0.3-0.2,0.7-0.4,1.1-0.4c0.4-1.2,1.4-2,2.7-2H136.7z"/>
		</g>
		<g>
			<defs>
				<path id="SVGID_63_" d="M108.1,65.2c0,22.8,18.5,41.3,41.3,41.3s41.3-18.5,41.3-41.3s-18.5-41.3-41.3-41.3
					C126.6,23.9,108.1,42.4,108.1,65.2"/>
			</defs>
			<clipPath id="SVGID_64_">
				<use xlink:href="#SVGID_63_"  style="overflow:visible;"/>
			</clipPath>
			<path class="st31" d="M139.6,75.3v2.6c0,0.2,0,0.5,0,0.7c0.6-0.3,1-0.9,1-1.7C140.5,76.2,140.1,75.6,139.6,75.3"/>
		</g>
		<g>
			<defs>
				<path id="SVGID_65_" d="M108.1,65.2c0,22.8,18.5,41.3,41.3,41.3s41.3-18.5,41.3-41.3s-18.5-41.3-41.3-41.3
					C126.6,23.9,108.1,42.4,108.1,65.2"/>
			</defs>
			<clipPath id="SVGID_66_">
				<use xlink:href="#SVGID_65_"  style="overflow:visible;"/>
			</clipPath>
			<path class="st32" d="M126.3,75.3c-0.6,0.3-1,0.9-1,1.6s0.4,1.3,1,1.7c0-0.2,0-0.5,0-0.7V75.3z"/>
		</g>
		<g>
			<defs>
				<path id="SVGID_67_" d="M108.1,65.2c0,22.8,18.5,41.3,41.3,41.3s41.3-18.5,41.3-41.3s-18.5-41.3-41.3-41.3
					C126.6,23.9,108.1,42.4,108.1,65.2"/>
			</defs>
			<clipPath id="SVGID_68_">
				<use xlink:href="#SVGID_67_"  style="overflow:visible;"/>
			</clipPath>
			<line class="st33" x1="140.8" y1="91.8" x2="140.8" y2="107"/>
		</g>
		<g>
			<defs>
				<path id="SVGID_69_" d="M108.1,65.2c0,22.8,18.5,41.3,41.3,41.3s41.3-18.5,41.3-41.3s-18.5-41.3-41.3-41.3
					C126.6,23.9,108.1,42.4,108.1,65.2"/>
			</defs>
			<clipPath id="SVGID_70_">
				<use xlink:href="#SVGID_69_"  style="overflow:visible;"/>
			</clipPath>
			<line class="st34" x1="124.7" y1="91.8" x2="124.7" y2="105.4"/>
		</g>
		<g>
			<defs>
				<path id="SVGID_71_" d="M108.1,65.2c0,22.8,18.5,41.3,41.3,41.3s41.3-18.5,41.3-41.3s-18.5-41.3-41.3-41.3
					C126.6,23.9,108.1,42.4,108.1,65.2"/>
			</defs>
			<clipPath id="SVGID_72_">
				<use xlink:href="#SVGID_71_"  style="overflow:visible;"/>
			</clipPath>
			<line class="st35" x1="157.1" y1="91.8" x2="157.1" y2="105.4"/>
		</g>
		<g>
			<defs>
				<path id="SVGID_73_" d="M108.1,65.2c0,22.8,18.5,41.3,41.3,41.3s41.3-18.5,41.3-41.3s-18.5-41.3-41.3-41.3
					C126.6,23.9,108.1,42.4,108.1,65.2"/>
			</defs>
			<clipPath id="SVGID_74_">
				<use xlink:href="#SVGID_73_"  style="overflow:visible;"/>
			</clipPath>
			<line class="st36" x1="173.2" y1="91.8" x2="173.2" y2="107"/>
		</g>
		<g>
			<defs>
				<path id="SVGID_75_" d="M108.1,65.2c0,22.8,18.5,41.3,41.3,41.3s41.3-18.5,41.3-41.3s-18.5-41.3-41.3-41.3
					C126.6,23.9,108.1,42.4,108.1,65.2"/>
			</defs>
			<clipPath id="SVGID_76_">
				<use xlink:href="#SVGID_75_"  style="overflow:visible;"/>
			</clipPath>
			<path class="st37" d="M144.8,33.9c-1.5-1.1-3.2-1.7-5.1-1.7c-4.6,0-8.4,3.8-8.4,8.4c0,0.2,0,0.5,0,0.7c-2.5,1.2-4.2,3.7-4.2,6.7
				c0,4.1,3.3,7.4,7.4,7.4l13.7-0.2h2.1l13.7,0.2c4.1,0,7.4-3.3,7.4-7.4c0-3.7-2.8-6.8-6.4-7.3c-0.5-5.9-5.5-10.6-11.5-10.6
				C150,30.1,146.9,31.5,144.8,33.9 M152.3,64.8c0,0.6-0.5,1.1-1.1,1.1H147c-0.6,0-1.1-0.5-1.1-1.1v-1.1h6.3v1.1H152.3z M148.1,52.2
				c0-0.6,0.5-1.1,1.1-1.1s1.1,0.5,1.1,1.1s-0.5,1.1-1.1,1.1S148.1,52.8,148.1,52.2 M153.6,58.1c-0.8,0.6-1.3,1.5-1.3,2.5v1.1h-2.1
				v-6.5c1.2-0.4,2.1-1.6,2.1-3c0-1.7-1.4-3.2-3.2-3.2c-1.7,0-3.2,1.4-3.2,3.2c0,1.4,0.9,2.5,2.1,3v6.5h-2v-1.1c0-1-0.5-1.9-1.3-2.5
				c-2.2-1.6-3.3-4.4-2.9-7.1c0.5-3.2,3.2-5.8,6.4-6.1c0.3,0,0.6,0,0.9,0c1.8,0,3.5,0.7,4.9,1.9c1.6,1.4,2.5,3.4,2.5,5.5
				C156.6,54.5,155.5,56.7,153.6,58.1 M153.4,32.2c5.2,0,9.5,4.3,9.5,9.5v1.1h1.1c2.9,0,5.3,2.4,5.3,5.3c0,2.9-2.4,5.3-5.3,5.3h-5.3
				c0-0.4,0.1-0.7,0.1-1.1c0-2.7-1.2-5.3-3.2-7.1s-4.7-2.7-7.4-2.4c-4.2,0.5-7.6,3.8-8.3,7.9c-0.1,0.9-0.1,1.7-0.1,2.6h-5.3
				c-2.9,0-5.3-2.4-5.3-5.3c0-2.9,2.4-5.3,5.3-5.3c0.9,0,1.8,0.2,2.6,0.7l1.1-1.8c-1.1-0.6-2.4-1-3.7-1c-0.4,0-0.7,0-1,0.1v-0.1
				c0-3.5,2.8-6.3,6.3-6.3c1.4,0,2.7,0.5,3.8,1.3c-1.1,1.8-1.7,3.8-1.7,6.1h2.1C143.9,36.4,148.2,32.2,153.4,32.2"/>
		</g>
		<g>
			<defs>
				<path id="SVGID_77_" d="M108.1,65.2c0,22.8,18.5,41.3,41.3,41.3s41.3-18.5,41.3-41.3s-18.5-41.3-41.3-41.3
					C126.6,23.9,108.1,42.4,108.1,65.2"/>
			</defs>
			<clipPath id="SVGID_78_">
				<use xlink:href="#SVGID_77_"  style="overflow:visible;"/>
			</clipPath>
			<path class="st38" d="M146,64.8c0,0.6,0.5,1.1,1.1,1.1h4.2c0.6,0,1.1-0.5,1.1-1.1v-1.1H146V64.8z"/>
		</g>
		<g>
			<defs>
				<path id="SVGID_79_" d="M108.1,65.2c0,22.8,18.5,41.3,41.3,41.3s41.3-18.5,41.3-41.3s-18.5-41.3-41.3-41.3
					C126.6,23.9,108.1,42.4,108.1,65.2"/>
			</defs>
			<clipPath id="SVGID_80_">
				<use xlink:href="#SVGID_79_"  style="overflow:visible;"/>
			</clipPath>
			<path class="st39" d="M154.1,46.7c-1.4-1.2-3.1-1.9-4.9-1.9c-0.3,0-0.6,0-0.9,0c-3.2,0.4-5.9,2.9-6.4,6.1
				c-0.4,2.7,0.7,5.4,2.9,7.1c0.8,0.6,1.3,1.5,1.3,2.5v1.1h2.1v-6.5c-1.6-0.6-2.6-2.3-1.9-4.2c0.3-0.8,0.9-1.4,1.7-1.7
				c2.2-0.8,4.4,0.8,4.4,2.9c0,1.4-0.9,2.5-2.1,3v6.5h2.1v-1.1c0-1,0.5-1.9,1.3-2.5c1.9-1.4,3-3.6,3-5.9
				C156.6,50.1,155.7,48.1,154.1,46.7"/>
		</g>
		<g>
			<defs>
				<path id="SVGID_81_" d="M108.1,65.2c0,22.8,18.5,41.3,41.3,41.3s41.3-18.5,41.3-41.3s-18.5-41.3-41.3-41.3
					C126.6,23.9,108.1,42.4,108.1,65.2"/>
			</defs>
			<clipPath id="SVGID_82_">
				<use xlink:href="#SVGID_81_"  style="overflow:visible;"/>
			</clipPath>
			<path class="st40" d="M141.8,41.7c0-2.2,0.6-4.3,1.7-6.1c-1.1-0.8-2.4-1.3-3.8-1.3c-3.5,0-6.4,2.9-6.3,6.4l0,0
				c0.3-0.1,0.7-0.1,1-0.1c1.3,0,2.6,0.3,3.7,1l-1.1,1.8c-1.5-0.9-3.4-1-5-0.1c-1.5,0.7-2.5,2.2-2.8,3.9c-0.5,3.3,2,6.1,5.2,6.1h5.3
				c-0.1-0.8-0.1-1.7,0.1-2.6c0.6-4.1,4.1-7.5,8.3-7.9c2.7-0.3,5.4,0.6,7.4,2.4c2,1.8,3.2,4.4,3.2,7.1c0,0.4,0,0.7-0.1,1.1h5.2
				c2.7,0,5.1-2,5.4-4.8c0.3-3.1-2.2-5.8-5.2-5.8h-1.1v-1c0-4.3-2.8-8.2-7-9.2c-6.3-1.6-12,3.1-12,9.2h-2.1V41.7z"/>
		</g>
	</g>
	<g>
		<g>
			<defs>
				<rect id="SVGID_83_" x="5" y="5" width="290" height="290"/>
			</defs>
			<clipPath id="SVGID_84_">
				<use xlink:href="#SVGID_83_"  style="overflow:visible;"/>
			</clipPath>
			<path class="st41" d="M183.8,194.9c0,22.6,18.1,41,40.7,41.3h1.3c22.5-0.3,40.7-18.7,40.7-41.3c0-22.8-18.5-41.3-41.3-41.3
				C202.3,153.6,183.8,172.1,183.8,194.9"/>
		</g>
	</g>
	<g>
		<g>
			<defs>
				<path id="SVGID_85_" d="M183.8,194.9c0,22.6,18.2,41,40.7,41.3h1.3c22.5-0.3,40.7-18.7,40.7-41.3c0-22.8-18.5-41.3-41.3-41.3
					C202.3,153.6,183.8,172.1,183.8,194.9"/>
			</defs>
			<clipPath id="SVGID_86_">
				<use xlink:href="#SVGID_85_"  style="overflow:visible;"/>
			</clipPath>
			<rect x="183.8" y="153.6" class="st42" width="82.6" height="84.6"/>
		</g>
		<g>
			<defs>
				<path id="SVGID_87_" d="M183.8,194.9c0,22.6,18.2,41,40.7,41.3h1.3c22.5-0.3,40.7-18.7,40.7-41.3c0-22.8-18.5-41.3-41.3-41.3
					C202.3,153.6,183.8,172.1,183.8,194.9"/>
			</defs>
			<clipPath id="SVGID_88_">
				<use xlink:href="#SVGID_87_"  style="overflow:visible;"/>
			</clipPath>
			<path class="st43" d="M233.8,153c0,5.6-4.5,10.2-10,10.2s-10-4.6-10-10.2c0-5.6,4.5-10.2,10-10.2S233.8,147.4,233.8,153"/>
		</g>
		<g>
			<defs>
				<path id="SVGID_89_" d="M183.8,194.9c0,22.6,18.2,41,40.7,41.3h1.3c22.5-0.3,40.7-18.7,40.7-41.3c0-22.8-18.5-41.3-41.3-41.3
					C202.3,153.6,183.8,172.1,183.8,194.9"/>
			</defs>
			<clipPath id="SVGID_90_">
				<use xlink:href="#SVGID_89_"  style="overflow:visible;"/>
			</clipPath>
			<line class="st44" x1="206.7" y1="135.1" x2="213.2" y2="142.1"/>
		</g>
		<g>
			<defs>
				<path id="SVGID_91_" d="M183.8,194.9c0,22.6,18.2,41,40.7,41.3h1.3c22.5-0.3,40.7-18.7,40.7-41.3c0-22.8-18.5-41.3-41.3-41.3
					C202.3,153.6,183.8,172.1,183.8,194.9"/>
			</defs>
			<clipPath id="SVGID_92_">
				<use xlink:href="#SVGID_91_"  style="overflow:visible;"/>
			</clipPath>
			<line class="st45" x1="206.7" y1="135.1" x2="213.2" y2="142.1"/>
		</g>
		<g>
			<defs>
				<path id="SVGID_93_" d="M183.8,194.9c0,22.6,18.2,41,40.7,41.3h1.3c22.5-0.3,40.7-18.7,40.7-41.3c0-22.8-18.5-41.3-41.3-41.3
					C202.3,153.6,183.8,172.1,183.8,194.9"/>
			</defs>
			<clipPath id="SVGID_94_">
				<use xlink:href="#SVGID_93_"  style="overflow:visible;"/>
			</clipPath>
			<line class="st46" x1="233.8" y1="164.4" x2="240.8" y2="172"/>
		</g>
		<g>
			<defs>
				<path id="SVGID_95_" d="M183.8,194.9c0,22.6,18.2,41,40.7,41.3h1.3c22.5-0.3,40.7-18.7,40.7-41.3c0-22.8-18.5-41.3-41.3-41.3
					C202.3,153.6,183.8,172.1,183.8,194.9"/>
			</defs>
			<clipPath id="SVGID_96_">
				<use xlink:href="#SVGID_95_"  style="overflow:visible;"/>
			</clipPath>
			<line class="st47" x1="233.8" y1="164.4" x2="240.8" y2="172"/>
		</g>
		<g>
			<defs>
				<path id="SVGID_97_" d="M183.8,194.9c0,22.6,18.2,41,40.7,41.3h1.3c22.5-0.3,40.7-18.7,40.7-41.3c0-22.8-18.5-41.3-41.3-41.3
					C202.3,153.6,183.8,172.1,183.8,194.9"/>
			</defs>
			<clipPath id="SVGID_98_">
				<use xlink:href="#SVGID_97_"  style="overflow:visible;"/>
			</clipPath>
			<line class="st48" x1="209.3" y1="157.1" x2="199.6" y2="159.4"/>
		</g>
		<g>
			<defs>
				<path id="SVGID_99_" d="M183.8,194.9c0,22.6,18.2,41,40.7,41.3h1.3c22.5-0.3,40.7-18.7,40.7-41.3c0-22.8-18.5-41.3-41.3-41.3
					C202.3,153.6,183.8,172.1,183.8,194.9"/>
			</defs>
			<clipPath id="SVGID_100_">
				<use xlink:href="#SVGID_99_"  style="overflow:visible;"/>
			</clipPath>
			<line class="st49" x1="209.3" y1="157.1" x2="199.6" y2="159.4"/>
		</g>
		<g>
			<defs>
				<path id="SVGID_101_" d="M183.8,194.9c0,22.6,18.2,41,40.7,41.3h1.3c22.5-0.3,40.7-18.7,40.7-41.3c0-22.8-18.5-41.3-41.3-41.3
					C202.3,153.6,183.8,172.1,183.8,194.9"/>
			</defs>
			<clipPath id="SVGID_102_">
				<use xlink:href="#SVGID_101_"  style="overflow:visible;"/>
			</clipPath>
			<line class="st50" x1="247.9" y1="147.6" x2="238.4" y2="149.9"/>
		</g>
		<g>
			<defs>
				<path id="SVGID_103_" d="M183.8,194.9c0,22.6,18.2,41,40.7,41.3h1.3c22.5-0.3,40.7-18.7,40.7-41.3c0-22.8-18.5-41.3-41.3-41.3
					C202.3,153.6,183.8,172.1,183.8,194.9"/>
			</defs>
			<clipPath id="SVGID_104_">
				<use xlink:href="#SVGID_103_"  style="overflow:visible;"/>
			</clipPath>
			<line class="st51" x1="247.9" y1="147.6" x2="238.4" y2="149.9"/>
		</g>
		<g>
			<defs>
				<path id="SVGID_105_" d="M183.8,194.9c0,22.6,18.2,41,40.7,41.3h1.3c22.5-0.3,40.7-18.7,40.7-41.3c0-22.8-18.5-41.3-41.3-41.3
					C202.3,153.6,183.8,172.1,183.8,194.9"/>
			</defs>
			<clipPath id="SVGID_106_">
				<use xlink:href="#SVGID_105_"  style="overflow:visible;"/>
			</clipPath>
			<line class="st52" x1="241.8" y1="136.1" x2="234.9" y2="142.7"/>
		</g>
		<g>
			<defs>
				<path id="SVGID_107_" d="M183.8,194.9c0,22.6,18.2,41,40.7,41.3h1.3c22.5-0.3,40.7-18.7,40.7-41.3c0-22.8-18.5-41.3-41.3-41.3
					C202.3,153.6,183.8,172.1,183.8,194.9"/>
			</defs>
			<clipPath id="SVGID_108_">
				<use xlink:href="#SVGID_107_"  style="overflow:visible;"/>
			</clipPath>
			<line class="st53" x1="241.8" y1="136.1" x2="234.9" y2="142.7"/>
		</g>
		<g>
			<defs>
				<path id="SVGID_109_" d="M183.8,194.9c0,22.6,18.2,41,40.7,41.3h1.3c22.5-0.3,40.7-18.7,40.7-41.3c0-22.8-18.5-41.3-41.3-41.3
					C202.3,153.6,183.8,172.1,183.8,194.9"/>
			</defs>
			<clipPath id="SVGID_110_">
				<use xlink:href="#SVGID_109_"  style="overflow:visible;"/>
			</clipPath>
			<line class="st54" x1="213.1" y1="163.8" x2="205.8" y2="171"/>
		</g>
		<g>
			<defs>
				<path id="SVGID_111_" d="M183.8,194.9c0,22.6,18.2,41,40.7,41.3h1.3c22.5-0.3,40.7-18.7,40.7-41.3c0-22.8-18.5-41.3-41.3-41.3
					C202.3,153.6,183.8,172.1,183.8,194.9"/>
			</defs>
			<clipPath id="SVGID_112_">
				<use xlink:href="#SVGID_111_"  style="overflow:visible;"/>
			</clipPath>
			<line class="st55" x1="213.1" y1="163.8" x2="205.8" y2="171"/>
		</g>
		<g>
			<defs>
				<path id="SVGID_113_" d="M183.8,194.9c0,22.6,18.2,41,40.7,41.3h1.3c22.5-0.3,40.7-18.7,40.7-41.3c0-22.8-18.5-41.3-41.3-41.3
					C202.3,153.6,183.8,172.1,183.8,194.9"/>
			</defs>
			<clipPath id="SVGID_114_">
				<use xlink:href="#SVGID_113_"  style="overflow:visible;"/>
			</clipPath>
			<line class="st56" x1="219.6" y1="167.7" x2="216.7" y2="177.9"/>
		</g>
		<g>
			<defs>
				<path id="SVGID_115_" d="M183.8,194.9c0,22.6,18.2,41,40.7,41.3h1.3c22.5-0.3,40.7-18.7,40.7-41.3c0-22.8-18.5-41.3-41.3-41.3
					C202.3,153.6,183.8,172.1,183.8,194.9"/>
			</defs>
			<clipPath id="SVGID_116_">
				<use xlink:href="#SVGID_115_"  style="overflow:visible;"/>
			</clipPath>
			<line class="st57" x1="219.6" y1="167.7" x2="216.7" y2="177.9"/>
		</g>
		<g>
			<defs>
				<path id="SVGID_117_" d="M183.8,194.9c0,22.6,18.2,41,40.7,41.3h1.3c22.5-0.3,40.7-18.7,40.7-41.3c0-22.8-18.5-41.3-41.3-41.3
					C202.3,153.6,183.8,172.1,183.8,194.9"/>
			</defs>
			<clipPath id="SVGID_118_">
				<use xlink:href="#SVGID_117_"  style="overflow:visible;"/>
			</clipPath>
			<line class="st58" x1="230.8" y1="129.2" x2="228.2" y2="138.3"/>
		</g>
		<g>
			<defs>
				<path id="SVGID_119_" d="M183.8,194.9c0,22.6,18.2,41,40.7,41.3h1.3c22.5-0.3,40.7-18.7,40.7-41.3c0-22.8-18.5-41.3-41.3-41.3
					C202.3,153.6,183.8,172.1,183.8,194.9"/>
			</defs>
			<clipPath id="SVGID_120_">
				<use xlink:href="#SVGID_119_"  style="overflow:visible;"/>
			</clipPath>
			<line class="st59" x1="230.8" y1="129.2" x2="228.2" y2="138.3"/>
		</g>
		<g>
			<defs>
				<path id="SVGID_121_" d="M183.8,194.9c0,22.6,18.2,41,40.7,41.3h1.3c22.5-0.3,40.7-18.7,40.7-41.3c0-22.8-18.5-41.3-41.3-41.3
					C202.3,153.6,183.8,172.1,183.8,194.9"/>
			</defs>
			<clipPath id="SVGID_122_">
				<use xlink:href="#SVGID_121_"  style="overflow:visible;"/>
			</clipPath>
			<line class="st60" x1="227.1" y1="167.9" x2="229.5" y2="178.2"/>
		</g>
		<g>
			<defs>
				<path id="SVGID_123_" d="M183.8,194.9c0,22.6,18.2,41,40.7,41.3h1.3c22.5-0.3,40.7-18.7,40.7-41.3c0-22.8-18.5-41.3-41.3-41.3
					C202.3,153.6,183.8,172.1,183.8,194.9"/>
			</defs>
			<clipPath id="SVGID_124_">
				<use xlink:href="#SVGID_123_"  style="overflow:visible;"/>
			</clipPath>
			<line class="st61" x1="227.1" y1="167.9" x2="229.5" y2="178.2"/>
		</g>
		<g>
			<defs>
				<path id="SVGID_125_" d="M183.8,194.9c0,22.6,18.2,41,40.7,41.3h1.3c22.5-0.3,40.7-18.7,40.7-41.3c0-22.8-18.5-41.3-41.3-41.3
					C202.3,153.6,183.8,172.1,183.8,194.9"/>
			</defs>
			<clipPath id="SVGID_126_">
				<use xlink:href="#SVGID_125_"  style="overflow:visible;"/>
			</clipPath>
			<line class="st62" x1="218" y1="128.9" x2="220.2" y2="138.1"/>
		</g>
		<g>
			<defs>
				<path id="SVGID_127_" d="M183.8,194.9c0,22.6,18.2,41,40.7,41.3h1.3c22.5-0.3,40.7-18.7,40.7-41.3c0-22.8-18.5-41.3-41.3-41.3
					C202.3,153.6,183.8,172.1,183.8,194.9"/>
			</defs>
			<clipPath id="SVGID_128_">
				<use xlink:href="#SVGID_127_"  style="overflow:visible;"/>
			</clipPath>
			<line class="st63" x1="218" y1="128.9" x2="220.2" y2="138.1"/>
		</g>
		<g>
			<defs>
				<path id="SVGID_129_" d="M183.8,194.9c0,22.6,18.2,41,40.7,41.3h1.3c22.5-0.3,40.7-18.7,40.7-41.3c0-22.8-18.5-41.3-41.3-41.3
					C202.3,153.6,183.8,172.1,183.8,194.9"/>
			</defs>
			<clipPath id="SVGID_130_">
				<use xlink:href="#SVGID_129_"  style="overflow:visible;"/>
			</clipPath>
			<line class="st64" x1="209.3" y1="149.1" x2="200" y2="146.3"/>
		</g>
		<g>
			<defs>
				<path id="SVGID_131_" d="M183.8,194.9c0,22.6,18.2,41,40.7,41.3h1.3c22.5-0.3,40.7-18.7,40.7-41.3c0-22.8-18.5-41.3-41.3-41.3
					C202.3,153.6,183.8,172.1,183.8,194.9"/>
			</defs>
			<clipPath id="SVGID_132_">
				<use xlink:href="#SVGID_131_"  style="overflow:visible;"/>
			</clipPath>
			<line class="st65" x1="209.3" y1="149.1" x2="200" y2="146.3"/>
		</g>
		<g>
			<defs>
				<path id="SVGID_133_" d="M183.8,194.9c0,22.6,18.2,41,40.7,41.3h1.3c22.5-0.3,40.7-18.7,40.7-41.3c0-22.8-18.5-41.3-41.3-41.3
					C202.3,153.6,183.8,172.1,183.8,194.9"/>
			</defs>
			<clipPath id="SVGID_134_">
				<use xlink:href="#SVGID_133_"  style="overflow:visible;"/>
			</clipPath>
			<line class="st66" x1="247.5" y1="160.8" x2="238" y2="157.9"/>
		</g>
		<g>
			<defs>
				<path id="SVGID_135_" d="M183.8,194.9c0,22.6,18.2,41,40.7,41.3h1.3c22.5-0.3,40.7-18.7,40.7-41.3c0-22.8-18.5-41.3-41.3-41.3
					C202.3,153.6,183.8,172.1,183.8,194.9"/>
			</defs>
			<clipPath id="SVGID_136_">
				<use xlink:href="#SVGID_135_"  style="overflow:visible;"/>
			</clipPath>
			<line class="st67" x1="247.5" y1="160.8" x2="238" y2="157.9"/>
		</g>
	</g>
	<g>
		<g>
			<defs>
				<path id="SVGID_137_" d="M190.7,172c-4.4,6.6-6.9,14.4-6.9,22.9c0,22.6,18.1,40.9,40.6,41.3V172H190.7z"/>
			</defs>
			<clipPath id="SVGID_138_">
				<use xlink:href="#SVGID_137_"  style="overflow:visible;"/>
			</clipPath>
			<path class="st68" d="M217.9,212h-6.3v-7.5h6.3V212z M217.9,224.5h-6.3V217h6.3V224.5z M205.4,212h-6.3v-7.5h6.3V212z
				 M205.4,224.5h-6.3V217h6.3V224.5z M192.8,212h-6.3v-7.5h6.3V212z M192.8,224.5h-6.3V217h6.3V224.5z M224.4,216v-16.5h-6.6V187
				l-22,12.5V187l-22,12.5V238h50.5v-22H224.4z"/>
		</g>
		<g>
			<defs>
				<path id="SVGID_139_" d="M190.7,172c-4.4,6.6-6.9,14.4-6.9,22.9c0,22.6,18.1,40.9,40.6,41.3V172H190.7z"/>
			</defs>
			<clipPath id="SVGID_140_">
				<use xlink:href="#SVGID_139_"  style="overflow:visible;"/>
			</clipPath>
			<g class="st69">
				<g>
					<g>
						<defs>
							<rect id="SVGID_141_" x="173.8" y="187" width="50.5" height="51"/>
						</defs>
						<clipPath id="SVGID_142_">
							<use xlink:href="#SVGID_141_"  style="overflow:visible;"/>
						</clipPath>
						<g class="st70">
							<g>
								<defs>
									<rect id="SVGID_143_" x="173.8" y="187" width="50.5" height="51"/>
								</defs>
								<clipPath id="SVGID_144_">
									<use xlink:href="#SVGID_143_"  style="overflow:visible;"/>
								</clipPath>
								<path class="st71" d="M217.9,212h-6.3v-7.5h6.3V212z M217.9,224.5h-6.3V217h6.3V224.5z M205.4,212h-6.3v-7.5h6.3V212z
									 M205.4,224.5h-6.3V217h6.3V224.5z M192.8,212h-6.3v-7.5h6.3V212z M192.8,224.5h-6.3V217h6.3V224.5z M224.4,216v-16.5h-6.6
									V187l-22,12.5V187l-22,12.5V238h50.5v-22H224.4z"/>
							</g>
						</g>
					</g>
				</g>
			</g>
		</g>
	</g>
	<g>
		<g>
			<defs>
				<path id="SVGID_145_" d="M183.8,194.9c0,22.6,18.2,41,40.7,41.3h1.3c22.5-0.3,40.7-18.7,40.7-41.3c0-22.8-18.5-41.3-41.3-41.3
					C202.3,153.6,183.8,172.1,183.8,194.9"/>
			</defs>
			<clipPath id="SVGID_146_">
				<use xlink:href="#SVGID_145_"  style="overflow:visible;"/>
			</clipPath>
			<polyline class="st72" points="238.9,241.5 237.8,201.7 237.6,201.7 237.6,201.7 237.3,201.7 237.1,241.6 			"/>
		</g>
		<g>
			<defs>
				<path id="SVGID_147_" d="M183.8,194.9c0,22.6,18.2,41,40.7,41.3h1.3c22.5-0.3,40.7-18.7,40.7-41.3c0-22.8-18.5-41.3-41.3-41.3
					C202.3,153.6,183.8,172.1,183.8,194.9"/>
			</defs>
			<clipPath id="SVGID_148_">
				<use xlink:href="#SVGID_147_"  style="overflow:visible;"/>
			</clipPath>
			<polyline class="st73" points="238.9,241.5 237.8,201.7 237.6,201.7 237.6,201.7 237.3,201.7 237.1,241.6 			"/>
		</g>
		<g>
			<defs>
				<path id="SVGID_149_" d="M183.8,194.9c0,22.6,18.2,41,40.7,41.3h1.3c22.5-0.3,40.7-18.7,40.7-41.3c0-22.8-18.5-41.3-41.3-41.3
					C202.3,153.6,183.8,172.1,183.8,194.9"/>
			</defs>
			<clipPath id="SVGID_150_">
				<use xlink:href="#SVGID_149_"  style="overflow:visible;"/>
			</clipPath>
			<path class="st74" d="M237.6,200.8l0.7-0.1l0.5-0.7h0.2c0,0,5.6,0,7.2,0h0.4c0.3,0,0.4,0.1,0.5,0.2c0.2,0.2,0.2,0.5,0.2,0.6v0.3
				l-9.4,0.7L237.6,200.8z"/>
		</g>
		<g>
			<defs>
				<path id="SVGID_151_" d="M183.8,194.9c0,22.6,18.2,41,40.7,41.3h1.3c22.5-0.3,40.7-18.7,40.7-41.3c0-22.8-18.5-41.3-41.3-41.3
					C202.3,153.6,183.8,172.1,183.8,194.9"/>
			</defs>
			<clipPath id="SVGID_152_">
				<use xlink:href="#SVGID_151_"  style="overflow:visible;"/>
			</clipPath>
			<path class="st75" d="M239,200.4c0,0,5.5,0,7.2,0c0.2,0,0.3,0,0.4,0l0,0c0.3,0,0.3,0.3,0.3,0.3l-8.7,0.7l-0.1-0.3l0.5-0.1
				L239,200.4 M238.6,199.6l-0.2,0.4l-0.3,0.4H238l-0.8,0.1l0.1,0.8l0.1,0.3l0.1,0.7l0.7-0.1l8.7-0.7h0.7l0.1-0.7
				c0-0.1,0-0.5-0.3-0.9c-0.2-0.2-0.5-0.3-0.8-0.3c-0.1,0-0.2,0-0.4,0c-1.6,0-7.2,0-7.2,0H238.6z"/>
		</g>
		<g>
			<defs>
				<path id="SVGID_153_" d="M183.8,194.9c0,22.6,18.2,41,40.7,41.3h1.3c22.5-0.3,40.7-18.7,40.7-41.3c0-22.8-18.5-41.3-41.3-41.3
					C202.3,153.6,183.8,172.1,183.8,194.9"/>
			</defs>
			<clipPath id="SVGID_154_">
				<use xlink:href="#SVGID_153_"  style="overflow:visible;"/>
			</clipPath>
			<path class="st76" d="M236.8,200.9H236l-0.1-0.2c0-0.1-3.5-6-3.8-6.5c-0.1-0.2-0.1-0.4-0.1-0.6c0.1-0.3,0.3-0.4,0.4-0.4l0.3-0.1
				l5.4,7.8l-0.8,0.7L236.8,200.9z"/>
		</g>
		<g>
			<defs>
				<path id="SVGID_155_" d="M183.8,194.9c0,22.6,18.2,41,40.7,41.3h1.3c22.5-0.3,40.7-18.7,40.7-41.3c0-22.8-18.5-41.3-41.3-41.3
					C202.3,153.6,183.8,172.1,183.8,194.9"/>
			</defs>
			<clipPath id="SVGID_156_">
				<use xlink:href="#SVGID_155_"  style="overflow:visible;"/>
			</clipPath>
			<path class="st77" d="M232.5,193.5l5,7.2l-0.2,0.2l-0.3-0.4h-0.8c0,0-3.5-6-3.8-6.5C232.2,193.6,232.5,193.5,232.5,193.5
				 M232.8,192.5l-0.6,0.3c-0.1,0-0.5,0.2-0.6,0.7c-0.1,0.3,0,0.6,0.1,0.9c0.3,0.5,3.8,6.5,3.8,6.5l0.2,0.4h0.4h0.4l0.1,0.1l0.5,0.6
				l0.6-0.5l0.2-0.2l0.5-0.5l-0.4-0.6l-5-7.2L232.8,192.5z"/>
		</g>
		<g>
			<defs>
				<path id="SVGID_157_" d="M183.8,194.9c0,22.6,18.2,41,40.7,41.3h1.3c22.5-0.3,40.7-18.7,40.7-41.3c0-22.8-18.5-41.3-41.3-41.3
					C202.3,153.6,183.8,172.1,183.8,194.9"/>
			</defs>
			<clipPath id="SVGID_158_">
				<use xlink:href="#SVGID_157_"  style="overflow:visible;"/>
			</clipPath>
			<path class="st78" d="M233.6,209.9c-0.2,0-0.4-0.1-0.4-0.1l-0.3-0.2l4.1-8.5l1,0.4l-0.2,0.7l0.4,0.7L238,203c0,0.1-3.5,6-3.8,6.5
				C234.1,209.8,233.9,209.9,233.6,209.9"/>
		</g>
		<g>
			<defs>
				<path id="SVGID_159_" d="M183.8,194.9c0,22.6,18.2,41,40.7,41.3h1.3c22.5-0.3,40.7-18.7,40.7-41.3c0-22.8-18.5-41.3-41.3-41.3
					C202.3,153.6,183.8,172.1,183.8,194.9"/>
			</defs>
			<clipPath id="SVGID_160_">
				<use xlink:href="#SVGID_159_"  style="overflow:visible;"/>
			</clipPath>
			<path class="st79" d="M237.2,201.5l0.3,0.1l-0.2,0.5l0.3,0.7c0,0-3.5,6-3.8,6.5c-0.1,0.1-0.2,0.2-0.2,0.2c-0.1,0-0.2-0.1-0.2-0.1
				L237.2,201.5 M236.8,200.6l-0.3,0.6l-3.8,7.9l-0.3,0.6l0.5,0.4c0.1,0.1,0.3,0.2,0.7,0.2s0.7-0.2,0.9-0.6c0.3-0.5,3.8-6.5,3.8-6.5
				l0.2-0.4l-0.2-0.4l-0.2-0.4l0.1-0.1l0.3-0.7l-0.7-0.3l-0.3-0.1L236.8,200.6z"/>
		</g>
		<g>
			<defs>
				<path id="SVGID_161_" d="M183.8,194.9c0,22.6,18.2,41,40.7,41.3h1.3c22.5-0.3,40.7-18.7,40.7-41.3c0-22.8-18.5-41.3-41.3-41.3
					C202.3,153.6,183.8,172.1,183.8,194.9"/>
			</defs>
			<clipPath id="SVGID_162_">
				<use xlink:href="#SVGID_161_"  style="overflow:visible;"/>
			</clipPath>
			<path class="st80" d="M237.7,202.3c-0.6,0-1.1-0.5-1.1-1.1c0-0.3,0.1-0.6,0.3-0.8s0.5-0.3,0.7-0.3c0.6,0,1.1,0.5,1.1,1.1
				S238.3,202.3,237.7,202.3L237.7,202.3z"/>
		</g>
		<g>
			<defs>
				<path id="SVGID_163_" d="M183.8,194.9c0,22.6,18.2,41,40.7,41.3h1.3c22.5-0.3,40.7-18.7,40.7-41.3c0-22.8-18.5-41.3-41.3-41.3
					C202.3,153.6,183.8,172.1,183.8,194.9"/>
			</defs>
			<clipPath id="SVGID_164_">
				<use xlink:href="#SVGID_163_"  style="overflow:visible;"/>
			</clipPath>
			<path class="st81" d="M237.7,200.6c0.4,0,0.7,0.3,0.7,0.7s-0.3,0.7-0.7,0.7l0,0c-0.4,0-0.7-0.3-0.7-0.7
				C237,200.9,237.3,200.6,237.7,200.6L237.7,200.6 M237.7,199.8L237.7,199.8L237.7,199.8c-0.4,0-0.8,0.2-1,0.4
				c-0.3,0.3-0.4,0.6-0.4,1c0,0.8,0.7,1.4,1.5,1.4s1.5-0.7,1.5-1.5C239.1,200.4,238.4,199.8,237.7,199.8"/>
		</g>
		<g>
			<defs>
				<path id="SVGID_165_" d="M183.8,194.9c0,22.6,18.2,41,40.7,41.3h1.3c22.5-0.3,40.7-18.7,40.7-41.3c0-22.8-18.5-41.3-41.3-41.3
					C202.3,153.6,183.8,172.1,183.8,194.9"/>
			</defs>
			<clipPath id="SVGID_166_">
				<use xlink:href="#SVGID_165_"  style="overflow:visible;"/>
			</clipPath>
			<polyline class="st82" points="252.8,240.2 251.9,196.6 251.6,196.6 251.5,196.6 251.2,196.6 250.4,240.2 			"/>
		</g>
		<g>
			<defs>
				<path id="SVGID_167_" d="M183.8,194.9c0,22.6,18.2,41,40.7,41.3h1.3c22.5-0.3,40.7-18.7,40.7-41.3c0-22.8-18.5-41.3-41.3-41.3
					C202.3,153.6,183.8,172.1,183.8,194.9"/>
			</defs>
			<clipPath id="SVGID_168_">
				<use xlink:href="#SVGID_167_"  style="overflow:visible;"/>
			</clipPath>
			<polyline class="st83" points="252.8,240.2 251.9,196.6 251.6,196.6 251.5,196.6 251.2,196.6 250.4,240.2 			"/>
		</g>
		<g>
			<defs>
				<path id="SVGID_169_" d="M183.8,194.9c0,22.6,18.2,41,40.7,41.3h1.3c22.5-0.3,40.7-18.7,40.7-41.3c0-22.8-18.5-41.3-41.3-41.3
					C202.3,153.6,183.8,172.1,183.8,194.9"/>
			</defs>
			<clipPath id="SVGID_170_">
				<use xlink:href="#SVGID_169_"  style="overflow:visible;"/>
			</clipPath>
			<path class="st84" d="M261.1,195.3c-0.7,0-8.3-0.1-8.3-0.1l-0.5,0.7l-0.5,0.1l0.1,0.3l9.6-0.6"/>
		</g>
		<g>
			<defs>
				<path id="SVGID_171_" d="M183.8,194.9c0,22.6,18.2,41,40.7,41.3h1.3c22.5-0.3,40.7-18.7,40.7-41.3c0-22.8-18.5-41.3-41.3-41.3
					C202.3,153.6,183.8,172.1,183.8,194.9"/>
			</defs>
			<clipPath id="SVGID_172_">
				<use xlink:href="#SVGID_171_"  style="overflow:visible;"/>
			</clipPath>
			<path class="st85" d="M261.1,195.3c-0.7,0-8.3-0.1-8.3-0.1l-0.5,0.7l-0.5,0.1l0.1,0.3l9.6-0.6"/>
		</g>
		<g>
			<defs>
				<path id="SVGID_173_" d="M183.8,194.9c0,22.6,18.2,41,40.7,41.3h1.3c22.5-0.3,40.7-18.7,40.7-41.3c0-22.8-18.5-41.3-41.3-41.3
					C202.3,153.6,183.8,172.1,183.8,194.9"/>
			</defs>
			<clipPath id="SVGID_174_">
				<use xlink:href="#SVGID_173_"  style="overflow:visible;"/>
			</clipPath>
			<path class="st86" d="M250.4,195.7l-0.9-0.1l-0.1-0.2c0-0.1-3.8-6.6-4.1-7.2c-0.1-0.2-0.1-0.4-0.1-0.6c0.1-0.3,0.4-0.4,0.4-0.5
				l0.3-0.1l5.8,8.5l-0.8,0.7L250.4,195.7z"/>
		</g>
		<g>
			<defs>
				<path id="SVGID_175_" d="M183.8,194.9c0,22.6,18.2,41,40.7,41.3h1.3c22.5-0.3,40.7-18.7,40.7-41.3c0-22.8-18.5-41.3-41.3-41.3
					C202.3,153.6,183.8,172.1,183.8,194.9"/>
			</defs>
			<clipPath id="SVGID_176_">
				<use xlink:href="#SVGID_175_"  style="overflow:visible;"/>
			</clipPath>
			<path class="st87" d="M245.8,187.6l5.4,7.9l-0.2,0.2l-0.3-0.4l-0.9-0.1c0,0-3.8-6.6-4.1-7.2C245.4,187.8,245.8,187.6,245.8,187.6
				 M246,186.6l-0.6,0.3c-0.1,0.1-0.5,0.2-0.6,0.7c-0.1,0.3-0.1,0.6,0.1,0.9c0.3,0.6,4.1,7.1,4.1,7.2l0.2,0.4h0.4h0.5l0.1,0.1
				l0.5,0.6l0.6-0.5l0.2-0.2l0.5-0.5l-0.4-0.6l-5.4-7.9L246,186.6z"/>
		</g>
		<g>
			<defs>
				<path id="SVGID_177_" d="M183.8,194.9c0,22.6,18.2,41,40.7,41.3h1.3c22.5-0.3,40.7-18.7,40.7-41.3c0-22.8-18.5-41.3-41.3-41.3
					C202.3,153.6,183.8,172.1,183.8,194.9"/>
			</defs>
			<clipPath id="SVGID_178_">
				<use xlink:href="#SVGID_177_"  style="overflow:visible;"/>
			</clipPath>
			<path class="st88" d="M246.8,205.5c-0.2,0-0.4-0.1-0.5-0.2l-0.3-0.2l4.6-9.2l1,0.4l-0.3,0.7l0.4,0.8l-0.1,0.2
				c0,0.1-3.9,6.5-4.2,7.1C247.3,205.4,247.1,205.5,246.8,205.5"/>
		</g>
		<g>
			<defs>
				<path id="SVGID_179_" d="M183.8,194.9c0,22.6,18.2,41,40.7,41.3h1.3c22.5-0.3,40.7-18.7,40.7-41.3c0-22.8-18.5-41.3-41.3-41.3
					C202.3,153.6,183.8,172.1,183.8,194.9"/>
			</defs>
			<clipPath id="SVGID_180_">
				<use xlink:href="#SVGID_179_"  style="overflow:visible;"/>
			</clipPath>
			<path class="st89" d="M250.9,196.5l0.3,0.1l-0.2,0.5l0.4,0.8c0,0-3.9,6.5-4.2,7.1c-0.1,0.1-0.2,0.2-0.3,0.2s-0.2-0.1-0.2-0.1
				L250.9,196.5 M250.5,195.5l-0.3,0.6l-4.3,8.6l-0.3,0.6l0.5,0.4c0.1,0.1,0.4,0.2,0.7,0.2c0.4,0,0.7-0.2,0.9-0.6
				c0.3-0.6,4.2-7,4.2-7.1l0.2-0.4l-0.2-0.4l-0.2-0.5l0.1-0.2l0.3-0.7l-0.7-0.3l-0.3-0.1L250.5,195.5z"/>
		</g>
		<g>
			<defs>
				<path id="SVGID_181_" d="M183.8,194.9c0,22.6,18.2,41,40.7,41.3h1.3c22.5-0.3,40.7-18.7,40.7-41.3c0-22.8-18.5-41.3-41.3-41.3
					C202.3,153.6,183.8,172.1,183.8,194.9"/>
			</defs>
			<clipPath id="SVGID_182_">
				<use xlink:href="#SVGID_181_"  style="overflow:visible;"/>
			</clipPath>
			<path class="st90" d="M251.3,197.3c-0.6,0-1.1-0.5-1.1-1.1s0.5-1.1,1.1-1.1s1.1,0.5,1.1,1.1C252.5,196.8,251.9,197.3,251.3,197.3
				L251.3,197.3z"/>
		</g>
		<g>
			<defs>
				<path id="SVGID_183_" d="M183.8,194.9c0,22.6,18.2,41,40.7,41.3h1.3c22.5-0.3,40.7-18.7,40.7-41.3c0-22.8-18.5-41.3-41.3-41.3
					C202.3,153.6,183.8,172.1,183.8,194.9"/>
			</defs>
			<clipPath id="SVGID_184_">
				<use xlink:href="#SVGID_183_"  style="overflow:visible;"/>
			</clipPath>
			<path class="st91" d="M251.3,195.4c0.4,0,0.7,0.3,0.7,0.7s-0.3,0.7-0.7,0.7l0,0c-0.4,0-0.7-0.3-0.7-0.7S250.9,195.4,251.3,195.4
				L251.3,195.4 M251.3,194.6L251.3,194.6c-0.4,0-0.8,0.2-1.1,0.4c-0.3,0.3-0.4,0.7-0.4,1.1c0,0.8,0.7,1.5,1.5,1.5
				c0.4,0,0.8-0.2,1.1-0.4c0.3-0.3,0.4-0.7,0.4-1.1C252.8,195.3,252.2,194.6,251.3,194.6"/>
		</g>
	</g>
	<g>
		<g>
			<defs>
				<rect id="SVGID_185_" x="5" y="5" width="290" height="290"/>
			</defs>
			<clipPath id="SVGID_186_">
				<use xlink:href="#SVGID_185_"  style="overflow:visible;"/>
			</clipPath>
			<path class="st92" d="M108.7,236.6c0,22.8,18.5,41.3,41.3,41.3s41.3-18.5,41.3-41.3s-18.5-41.3-41.3-41.3
				C127.2,195.3,108.7,213.8,108.7,236.6"/>
		</g>
		<g>
			<defs>
				<rect id="SVGID_187_" x="5" y="5" width="290" height="290"/>
			</defs>
			<clipPath id="SVGID_188_">
				<use xlink:href="#SVGID_187_"  style="overflow:visible;"/>
			</clipPath>
		</g>
		<g>
			<defs>
				<rect id="SVGID_189_" x="5" y="5" width="290" height="290"/>
			</defs>
			<clipPath id="SVGID_190_">
				<use xlink:href="#SVGID_189_"  style="overflow:visible;"/>
			</clipPath>
			<path class="st93" d="M127,207.3c0,0-1.5,9.5,9.1,10.9c-0.1-0.1,1.9-6.3-0.9-7.9C132.4,208.7,129.1,209.9,127,207.3"/>
		</g>
		<g>
			<defs>
				<rect id="SVGID_191_" x="5" y="5" width="290" height="290"/>
			</defs>
			<clipPath id="SVGID_192_">
				<use xlink:href="#SVGID_191_"  style="overflow:visible;"/>
			</clipPath>
			<path class="st94" d="M172.2,227.4c0,0-1,5.6-7.2,4.3c0.1-0.1,0.2-3.9,2-4.2C168.8,227.1,170.5,228.4,172.2,227.4"/>
		</g>
		<g>
			<defs>
				<rect id="SVGID_193_" x="5" y="5" width="290" height="290"/>
			</defs>
			<clipPath id="SVGID_194_">
				<use xlink:href="#SVGID_193_"  style="overflow:visible;"/>
			</clipPath>
			<path class="st95" d="M167.1,204.2c0,0-10,2.3-6.9,11.9c0.1-0.1,7-0.8,7.4-3.7S165.4,207,167.1,204.2"/>
		</g>
		<g>
			<defs>
				<rect id="SVGID_195_" x="5" y="5" width="290" height="290"/>
			</defs>
			<clipPath id="SVGID_196_">
				<use xlink:href="#SVGID_195_"  style="overflow:visible;"/>
			</clipPath>
			<path class="st96" d="M124.9,222.8c0,0,6.6,3.2,9.8-3.1c-0.1,0-4.2-2.7-5.9-1.3C127,219.7,127.2,222.1,124.9,222.8"/>
		</g>
		<g>
			<defs>
				<rect id="SVGID_197_" x="5" y="5" width="290" height="290"/>
			</defs>
			<clipPath id="SVGID_198_">
				<use xlink:href="#SVGID_197_"  style="overflow:visible;"/>
			</clipPath>
			<path class="st97" d="M164.9,222.9c0,0,3.3,4.9-2.1,7.8c0-0.1-2.7-3.1-1.6-4.5C162.3,224.8,164.5,224.7,164.9,222.9"/>
		</g>
		<g>
			<defs>
				<rect id="SVGID_199_" x="5" y="5" width="290" height="290"/>
			</defs>
			<clipPath id="SVGID_200_">
				<use xlink:href="#SVGID_199_"  style="overflow:visible;"/>
			</clipPath>
			<path class="st98" d="M150.9,208.3c0,0-0.3,6.8,7.2,7.2c-0.1-0.1,0.8-4.6-1.2-5.5C154.9,209,152.6,210,150.9,208.3"/>
		</g>
		<g>
			<defs>
				<rect id="SVGID_201_" x="5" y="5" width="290" height="290"/>
			</defs>
			<clipPath id="SVGID_202_">
				<use xlink:href="#SVGID_201_"  style="overflow:visible;"/>
			</clipPath>
			<path class="st99" d="M146.1,212c0,0-0.5,7.3-8.6,6.4c0.1-0.1-0.3-5,2-5.7C141.7,212,144,213.5,146.1,212"/>
		</g>
		<g>
			<defs>
				<rect id="SVGID_203_" x="5" y="5" width="290" height="290"/>
			</defs>
			<clipPath id="SVGID_204_">
				<use xlink:href="#SVGID_203_"  style="overflow:visible;"/>
			</clipPath>
			<path class="st100" d="M170.5,222.3c0,0-7.5,2.3-10-4.9c0.1,0,4.8-2.2,6.5-0.5S168.2,221.1,170.5,222.3"/>
		</g>
		<g>
			<defs>
				<rect id="SVGID_205_" x="5" y="5" width="290" height="290"/>
			</defs>
			<clipPath id="SVGID_206_">
				<use xlink:href="#SVGID_205_"  style="overflow:visible;"/>
			</clipPath>
			<path class="st101" d="M171.5,237.8c0,0-6,1-7-4.8c0.1,0,4-1.1,5,0.4C170.5,234.8,169.9,236.7,171.5,237.8"/>
		</g>
		<g>
			<defs>
				<rect id="SVGID_207_" x="5" y="5" width="290" height="290"/>
			</defs>
			<clipPath id="SVGID_208_">
				<use xlink:href="#SVGID_207_"  style="overflow:visible;"/>
			</clipPath>
			<path class="st102" d="M163,231.8c-4.7,2.6-9.1,3.1-11.2,3.2c0.2-6.4,1.8-12.8,7.3-18c-2.5,1.5-6.3,4.9-9.1,11.3
				c-2.2-0.8-8.2-3.3-13.1-9.4c0.5,4.1,4.7,9.2,12,12.4c-1.5,4.6-2.5,10.5-2.3,18c0,1.5,6.8,3.3,6.5,1.1c-0.5-4-1.3-8.6-1.4-13.3
				C157.7,236.5,161.7,234.7,163,231.8"/>
		</g>
	</g>
	<g>
		<g>
			<defs>
				<path id="SVGID_209_" d="M108.7,236.6c0,22.8,18.5,41.3,41.3,41.3s41.3-18.5,41.3-41.3s-18.5-41.3-41.3-41.3
					C127.2,195.3,108.7,213.8,108.7,236.6"/>
			</defs>
			<clipPath id="SVGID_210_">
				<use xlink:href="#SVGID_209_"  style="overflow:visible;"/>
			</clipPath>
			<path class="st103" d="M187.3,257.5c0,1.1-1,2.1-2.2,2.1c-1,0-2.2,0.4-3,1.1c-1.6,1.6-3.7,2.4-5.9,2.4c-2.1,0-4.3-0.8-5.9-2.4
				c-1.6-1.5-4.1-1.5-5.7,0c-3.2,3.1-8.5,3.1-11.8,0c-0.8-0.7-1.8-1.1-2.8-1.1s-2,0.4-2.8,1.1c-3.2,3.1-8.5,3.1-11.8,0
				c-1.6-1.5-4.1-1.5-5.7,0c-3.2,3.1-8.5,3.1-11.8,0c-0.8-0.7-1.9-1.1-3-1.1c-1.2,0-2.2-1-2.2-2.1c0-1.2,1-2.1,2.2-2.1
				c2.2,0,4.5,0.8,6,2.4c1.6,1.5,4.1,1.5,5.7,0c3.2-3.1,8.5-3.1,11.8,0c1.5,1.4,4.1,1.4,5.7,0c1.6-1.6,3.7-2.4,5.9-2.4
				c2.1,0,4.3,0.8,5.9,2.4c1.5,1.4,4.1,1.4,5.7,0c3.2-3.1,8.5-3.1,11.8,0c1.6,1.5,4.1,1.5,5.7,0c1.6-1.5,3.8-2.4,6-2.4
				C186.3,255.4,187.3,256.4,187.3,257.5"/>
		</g>
		<g>
			<defs>
				<path id="SVGID_211_" d="M108.7,236.6c0,22.8,18.5,41.3,41.3,41.3s41.3-18.5,41.3-41.3s-18.5-41.3-41.3-41.3
					C127.2,195.3,108.7,213.8,108.7,236.6"/>
			</defs>
			<clipPath id="SVGID_212_">
				<use xlink:href="#SVGID_211_"  style="overflow:visible;"/>
			</clipPath>
			<g class="st104">
				<g>
					<g>
						<defs>
							<rect id="SVGID_213_" x="112.9" y="255.4" width="74.3" height="7.7"/>
						</defs>
						<clipPath id="SVGID_214_">
							<use xlink:href="#SVGID_213_"  style="overflow:visible;"/>
						</clipPath>
						<g class="st105">
							<g>
								<defs>
									<rect id="SVGID_215_" x="112.9" y="255.4" width="74.3" height="7.7"/>
								</defs>
								<clipPath id="SVGID_216_">
									<use xlink:href="#SVGID_215_"  style="overflow:visible;"/>
								</clipPath>
								<path class="st106" d="M187.3,257.5c0,1.1-1,2.1-2.2,2.1c-1,0-2.2,0.4-3,1.1c-1.6,1.6-3.7,2.4-5.9,2.4
									c-2.1,0-4.3-0.8-5.9-2.4c-1.6-1.5-4.1-1.5-5.7,0c-3.2,3.1-8.5,3.1-11.8,0c-0.8-0.7-1.8-1.1-2.8-1.1s-2,0.4-2.8,1.1
									c-3.2,3.1-8.5,3.1-11.8,0c-1.6-1.5-4.1-1.5-5.7,0c-3.2,3.1-8.5,3.1-11.8,0c-0.8-0.7-1.9-1.1-3-1.1c-1.2,0-2.2-1-2.2-2.1
									c0-1.2,1-2.1,2.2-2.1c2.2,0,4.5,0.8,6,2.4c1.6,1.5,4.1,1.5,5.7,0c3.2-3.1,8.5-3.1,11.8,0c1.5,1.4,4.1,1.4,5.7,0
									c1.6-1.6,3.7-2.4,5.9-2.4c2.1,0,4.3,0.8,5.9,2.4c1.5,1.4,4.1,1.4,5.7,0c3.2-3.1,8.5-3.1,11.8,0c1.6,1.5,4.1,1.5,5.7,0
									c1.6-1.5,3.8-2.4,6-2.4C186.3,255.4,187.3,256.4,187.3,257.5"/>
							</g>
						</g>
					</g>
				</g>
			</g>
		</g>
		<g>
			<defs>
				<path id="SVGID_217_" d="M108.7,236.6c0,22.8,18.5,41.3,41.3,41.3s41.3-18.5,41.3-41.3s-18.5-41.3-41.3-41.3
					C127.2,195.3,108.7,213.8,108.7,236.6"/>
			</defs>
			<clipPath id="SVGID_218_">
				<use xlink:href="#SVGID_217_"  style="overflow:visible;"/>
			</clipPath>
			<path class="st107" d="M187.3,265.9c0,1.1-1,2.1-2.2,2.1c-1,0-2.2,0.4-3,1.1c-1.6,1.6-3.7,2.4-5.9,2.4c-2.1,0-4.3-0.8-5.9-2.4
				c-1.6-1.5-4.1-1.5-5.7,0c-3.2,3.1-8.5,3.1-11.8,0c-0.8-0.7-1.8-1.1-2.8-1.1s-2,0.4-2.8,1.1c-3.2,3.1-8.5,3.1-11.8,0
				c-1.6-1.5-4.1-1.5-5.7,0c-3.2,3.1-8.5,3.1-11.8,0c-0.8-0.7-1.9-1.1-3-1.1c-1.2,0-2.2-1-2.2-2.1c0-1.2,1-2.1,2.2-2.1
				c2.2,0,4.5,0.8,6,2.4c1.6,1.5,4.1,1.5,5.7,0c3.2-3.1,8.5-3.1,11.8,0c1.5,1.4,4.1,1.4,5.7,0c1.6-1.6,3.7-2.4,5.9-2.4
				c2.1,0,4.3,0.8,5.9,2.4c1.5,1.4,4.1,1.4,5.7,0c3.2-3.1,8.5-3.1,11.8,0c1.6,1.5,4.1,1.5,5.7,0c1.6-1.5,3.8-2.4,6-2.4
				C186.3,263.8,187.3,264.8,187.3,265.9"/>
		</g>
		<g>
			<defs>
				<path id="SVGID_219_" d="M108.7,236.6c0,22.8,18.5,41.3,41.3,41.3s41.3-18.5,41.3-41.3s-18.5-41.3-41.3-41.3
					C127.2,195.3,108.7,213.8,108.7,236.6"/>
			</defs>
			<clipPath id="SVGID_220_">
				<use xlink:href="#SVGID_219_"  style="overflow:visible;"/>
			</clipPath>
			<g class="st108">
				<g>
					<g>
						<defs>
							<rect id="SVGID_221_" x="112.9" y="263.8" width="74.3" height="7.7"/>
						</defs>
						<clipPath id="SVGID_222_">
							<use xlink:href="#SVGID_221_"  style="overflow:visible;"/>
						</clipPath>
						<g class="st109">
							<g>
								<defs>
									<rect id="SVGID_223_" x="112.9" y="263.8" width="74.3" height="7.7"/>
								</defs>
								<clipPath id="SVGID_224_">
									<use xlink:href="#SVGID_223_"  style="overflow:visible;"/>
								</clipPath>
								<path class="st110" d="M187.3,265.9c0,1.1-1,2.1-2.2,2.1c-1,0-2.2,0.4-3,1.1c-1.6,1.6-3.7,2.4-5.9,2.4
									c-2.1,0-4.3-0.8-5.9-2.4c-1.6-1.5-4.1-1.5-5.7,0c-3.2,3.1-8.5,3.1-11.8,0c-0.8-0.7-1.8-1.1-2.8-1.1s-2,0.4-2.8,1.1
									c-3.2,3.1-8.5,3.1-11.8,0c-1.6-1.5-4.1-1.5-5.7,0c-3.2,3.1-8.5,3.1-11.8,0c-0.8-0.7-1.9-1.1-3-1.1c-1.2,0-2.2-1-2.2-2.1
									c0-1.2,1-2.1,2.2-2.1c2.2,0,4.5,0.8,6,2.4c1.6,1.5,4.1,1.5,5.7,0c3.2-3.1,8.5-3.1,11.8,0c1.5,1.4,4.1,1.4,5.7,0
									c1.6-1.6,3.7-2.4,5.9-2.4c2.1,0,4.3,0.8,5.9,2.4c1.5,1.4,4.1,1.4,5.7,0c3.2-3.1,8.5-3.1,11.8,0c1.6,1.5,4.1,1.5,5.7,0
									c1.6-1.5,3.8-2.4,6-2.4C186.3,263.8,187.3,264.8,187.3,265.9"/>
							</g>
						</g>
					</g>
				</g>
			</g>
		</g>
		<g>
			<defs>
				<path id="SVGID_225_" d="M108.7,236.6c0,22.8,18.5,41.3,41.3,41.3s41.3-18.5,41.3-41.3s-18.5-41.3-41.3-41.3
					C127.2,195.3,108.7,213.8,108.7,236.6"/>
			</defs>
			<clipPath id="SVGID_226_">
				<use xlink:href="#SVGID_225_"  style="overflow:visible;"/>
			</clipPath>
			<path class="st111" d="M187.3,265.9c0,1.1-1,2.1-2.2,2.1c-1,0-2.2,0.4-3,1.1c-1.6,1.6-3.7,2.4-5.9,2.4c-2.1,0-4.3-0.8-5.9-2.4
				c-1.6-1.5-4.1-1.5-5.7,0c-3.2,3.1-8.5,3.1-11.8,0c-0.8-0.7-1.8-1.1-2.8-1.1v-4.2c2.1,0,4.3,0.8,5.9,2.4c1.5,1.4,4.1,1.4,5.7,0
				c3.2-3.1,8.5-3.1,11.8,0c1.6,1.5,4.1,1.5,5.7,0c1.6-1.5,3.8-2.4,6-2.4C186.3,263.8,187.3,264.8,187.3,265.9"/>
		</g>
		<g>
			<defs>
				<path id="SVGID_227_" d="M108.7,236.6c0,22.8,18.5,41.3,41.3,41.3s41.3-18.5,41.3-41.3s-18.5-41.3-41.3-41.3
					C127.2,195.3,108.7,213.8,108.7,236.6"/>
			</defs>
			<clipPath id="SVGID_228_">
				<use xlink:href="#SVGID_227_"  style="overflow:visible;"/>
			</clipPath>
			<path class="st112" d="M152.9,260.7c-0.8-0.7-1.8-1.1-2.8-1.1v-4.2c2.1,0,4.3,0.8,5.9,2.4c1.5,1.4,4.1,1.4,5.7,0
				c3.2-3.1,8.5-3.1,11.8,0c1.6,1.5,4.1,1.5,5.7,0c1.6-1.5,3.8-2.4,6-2.4c1.2,0,2.2,0.9,2.2,2.1c0,1.1-1,2.1-2.2,2.1
				c-1,0-2.2,0.4-3,1.1c-1.6,1.6-3.7,2.4-5.9,2.4c-2.1,0-4.3-0.8-5.9-2.4c-1.6-1.5-4.1-1.5-5.7,0
				C161.5,263.9,156.1,263.9,152.9,260.7"/>
		</g>
	</g>
	<g>
		<g>
			<defs>
				<rect id="SVGID_229_" x="5" y="5" width="290" height="290"/>
			</defs>
			<clipPath id="SVGID_230_">
				<use xlink:href="#SVGID_229_"  style="overflow:visible;"/>
			</clipPath>
			<path class="st113" d="M32.5,193.5c0,22.8,18.5,41.3,41.3,41.3s41.3-18.5,41.3-41.3s-18.5-41.3-41.3-41.3S32.5,170.7,32.5,193.5"
				/>
		</g>
		<g>
			<defs>
				<rect id="SVGID_231_" x="5" y="5" width="290" height="290"/>
			</defs>
			<clipPath id="SVGID_232_">
				<use xlink:href="#SVGID_231_"  style="overflow:visible;"/>
			</clipPath>
			<polygon class="st114" points="99.6,181.2 99.6,209.7 48.4,209.7 48.4,169.6 65.7,169.6 65.7,164 74,156.3 82.6,164 82.6,181.2 
							"/>
		</g>
		<g>
			<defs>
				<rect id="SVGID_233_" x="5" y="5" width="290" height="290"/>
			</defs>
			<clipPath id="SVGID_234_">
				<use xlink:href="#SVGID_233_"  style="overflow:visible;"/>
			</clipPath>
			<rect x="71.7" y="187" class="st115" width="5.5" height="5.5"/>
		</g>
		<g>
			<defs>
				<rect id="SVGID_235_" x="5" y="5" width="290" height="290"/>
			</defs>
			<clipPath id="SVGID_236_">
				<use xlink:href="#SVGID_235_"  style="overflow:visible;"/>
			</clipPath>
			<rect x="54.6" y="198.4" class="st116" width="5.5" height="5.5"/>
		</g>
		<g>
			<defs>
				<rect id="SVGID_237_" x="5" y="5" width="290" height="290"/>
			</defs>
			<clipPath id="SVGID_238_">
				<use xlink:href="#SVGID_237_"  style="overflow:visible;"/>
			</clipPath>
			<rect x="54.6" y="187" class="st117" width="5.5" height="5.5"/>
		</g>
		<g>
			<defs>
				<rect id="SVGID_239_" x="5" y="5" width="290" height="290"/>
			</defs>
			<clipPath id="SVGID_240_">
				<use xlink:href="#SVGID_239_"  style="overflow:visible;"/>
			</clipPath>
			<rect x="54.6" y="175.6" class="st118" width="5.5" height="5.5"/>
		</g>
		<g>
			<defs>
				<rect id="SVGID_241_" x="5" y="5" width="290" height="290"/>
			</defs>
			<clipPath id="SVGID_242_">
				<use xlink:href="#SVGID_241_"  style="overflow:visible;"/>
			</clipPath>
			<rect x="71.7" y="198.4" class="st119" width="5.5" height="5.5"/>
		</g>
		<g>
			<defs>
				<rect id="SVGID_243_" x="5" y="5" width="290" height="290"/>
			</defs>
			<clipPath id="SVGID_244_">
				<use xlink:href="#SVGID_243_"  style="overflow:visible;"/>
			</clipPath>
			<rect x="88.5" y="198.4" class="st120" width="5.5" height="5.5"/>
		</g>
		<g>
			<defs>
				<rect id="SVGID_245_" x="5" y="5" width="290" height="290"/>
			</defs>
			<clipPath id="SVGID_246_">
				<use xlink:href="#SVGID_245_"  style="overflow:visible;"/>
			</clipPath>
			<rect x="88.5" y="187" class="st121" width="5.5" height="5.5"/>
		</g>
		<g>
			<defs>
				<rect id="SVGID_247_" x="5" y="5" width="290" height="290"/>
			</defs>
			<clipPath id="SVGID_248_">
				<use xlink:href="#SVGID_247_"  style="overflow:visible;"/>
			</clipPath>
			<rect x="71.7" y="175.6" class="st122" width="5.5" height="5.5"/>
		</g>
		<g>
			<defs>
				<rect id="SVGID_249_" x="5" y="5" width="290" height="290"/>
			</defs>
			<clipPath id="SVGID_250_">
				<use xlink:href="#SVGID_249_"  style="overflow:visible;"/>
			</clipPath>
			<path class="st123" d="M77.2,167.5c0,0.2,0,0.4-0.1,0.5c0,0.2-0.1,0.3-0.2,0.5s-0.2,0.3-0.3,0.5c-0.1,0.1-0.2,0.3-0.3,0.4
				c-0.1,0.1-0.3,0.2-0.4,0.3s-0.3,0.2-0.5,0.3s-0.3,0.1-0.5,0.2c-0.2,0-0.4,0.1-0.5,0.1c-0.2,0-0.4,0-0.5-0.1
				c-0.2,0-0.3-0.1-0.5-0.2c-0.2-0.1-0.3-0.2-0.5-0.3c-0.1-0.1-0.3-0.2-0.4-0.3s-0.2-0.3-0.3-0.4c-0.1-0.1-0.2-0.3-0.3-0.5
				c-0.1-0.2-0.1-0.3-0.2-0.5c0-0.2-0.1-0.4-0.1-0.5c0-0.2,0-0.4,0.1-0.5c0-0.2,0.1-0.3,0.2-0.5s0.2-0.3,0.3-0.5
				c0.1-0.1,0.2-0.3,0.3-0.4c0.1-0.1,0.3-0.2,0.4-0.3s0.3-0.2,0.5-0.3s0.3-0.1,0.5-0.2c0.2,0,0.4-0.1,0.5-0.1c0.2,0,0.4,0,0.5,0.1
				c0.2,0,0.3,0.1,0.5,0.2c0.2,0.1,0.3,0.2,0.5,0.3c0.1,0.1,0.3,0.2,0.4,0.3s0.2,0.3,0.3,0.4c0.1,0.1,0.2,0.3,0.3,0.5
				c0.1,0.2,0.1,0.3,0.2,0.5S77.2,167.4,77.2,167.5"/>
		</g>
		<g>
			<defs>
				<rect id="SVGID_251_" x="5" y="5" width="290" height="290"/>
			</defs>
			<clipPath id="SVGID_252_">
				<use xlink:href="#SVGID_251_"  style="overflow:visible;"/>
			</clipPath>
			<g class="st124">
				<g>
					<g>
						<defs>
							<rect id="SVGID_253_" x="48.4" y="169.6" width="17.3" height="40.1"/>
						</defs>
						<clipPath id="SVGID_254_">
							<use xlink:href="#SVGID_253_"  style="overflow:visible;"/>
						</clipPath>
						<g class="st125">
							<g>
								<defs>
									<rect id="SVGID_255_" x="48.4" y="169.6" width="17.3" height="40.1"/>
								</defs>
								<clipPath id="SVGID_256_">
									<use xlink:href="#SVGID_255_"  style="overflow:visible;"/>
								</clipPath>
								<rect x="48.4" y="169.6" class="st126" width="17.3" height="40.1"/>
							</g>
						</g>
					</g>
				</g>
			</g>
		</g>
		<g>
			<defs>
				<rect id="SVGID_257_" x="5" y="5" width="290" height="290"/>
			</defs>
			<clipPath id="SVGID_258_">
				<use xlink:href="#SVGID_257_"  style="overflow:visible;"/>
			</clipPath>
			<g class="st127">
				<g>
					<g>
						<defs>
							<rect id="SVGID_259_" x="82.6" y="181.1" width="17" height="28.6"/>
						</defs>
						<clipPath id="SVGID_260_">
							<use xlink:href="#SVGID_259_"  style="overflow:visible;"/>
						</clipPath>
						<g class="st128">
							<g>
								<defs>
									<rect id="SVGID_261_" x="82.6" y="181.1" width="17" height="28.6"/>
								</defs>
								<clipPath id="SVGID_262_">
									<use xlink:href="#SVGID_261_"  style="overflow:visible;"/>
								</clipPath>
								<rect x="82.6" y="181.1" class="st129" width="17" height="28.6"/>
							</g>
						</g>
					</g>
				</g>
			</g>
		</g>
	</g>
	<g>
		<g>
			<defs>
				<path id="SVGID_263_" d="M32.5,193.5c0,22.8,18.5,41.3,41.3,41.3s41.3-18.5,41.3-41.3s-18.5-41.3-41.3-41.3
					S32.5,170.7,32.5,193.5"/>
			</defs>
			<clipPath id="SVGID_264_">
				<use xlink:href="#SVGID_263_"  style="overflow:visible;"/>
			</clipPath>
			<path class="st130" d="M63.8,230.2v7.5c0,0.4,0.4,0.8,0.8,0.8h3.2c0.4,0,0.8-0.4,0.8-0.8v-7.5H63.8z"/>
		</g>
		<g>
			<defs>
				<path id="SVGID_265_" d="M32.5,193.5c0,22.8,18.5,41.3,41.3,41.3s41.3-18.5,41.3-41.3s-18.5-41.3-41.3-41.3
					S32.5,170.7,32.5,193.5"/>
			</defs>
			<clipPath id="SVGID_266_">
				<use xlink:href="#SVGID_265_"  style="overflow:visible;"/>
			</clipPath>
			<path class="st131" d="M76.6,230.2v7.5c0,0.4-0.4,0.8-0.8,0.8h-3.2c-0.4,0-0.8-0.4-0.8-0.8v-7.5H76.6z"/>
		</g>
		<g>
			<defs>
				<path id="SVGID_267_" d="M32.5,193.5c0,22.8,18.5,41.3,41.3,41.3s41.3-18.5,41.3-41.3s-18.5-41.3-41.3-41.3
					S32.5,170.7,32.5,193.5"/>
			</defs>
			<clipPath id="SVGID_268_">
				<use xlink:href="#SVGID_267_"  style="overflow:visible;"/>
			</clipPath>
			<path class="st132" d="M79.8,230.2v7.5c0,0.4,0.4,0.8,0.8,0.8h3.2c0.4,0,0.8-0.4,0.8-0.8v-7.5H79.8z"/>
		</g>
		<g>
			<defs>
				<path id="SVGID_269_" d="M32.5,193.5c0,22.8,18.5,41.3,41.3,41.3s41.3-18.5,41.3-41.3s-18.5-41.3-41.3-41.3
					S32.5,170.7,32.5,193.5"/>
			</defs>
			<clipPath id="SVGID_270_">
				<use xlink:href="#SVGID_269_"  style="overflow:visible;"/>
			</clipPath>
			<path class="st133" d="M74.2,230.2h2.4v7.5c0,0.4-0.4,0.8-0.8,0.8h-1.6V230.2z"/>
		</g>
		<g>
			<defs>
				<path id="SVGID_271_" d="M32.5,193.5c0,22.8,18.5,41.3,41.3,41.3s41.3-18.5,41.3-41.3s-18.5-41.3-41.3-41.3
					S32.5,170.7,32.5,193.5"/>
			</defs>
			<clipPath id="SVGID_272_">
				<use xlink:href="#SVGID_271_"  style="overflow:visible;"/>
			</clipPath>
			<path class="st134" d="M84.5,217.1c-0.4-0.3-0.8-0.6-1.2-1c-1.5-1.2-3.2-2.1-5.1-2.6c0,0-0.8,0.6-1.6,1.2v3.8
				c0,1.3,1.1,2.4,2.4,2.4h6.8l1.2-1.6C86.5,218.7,85.7,218.1,84.5,217.1"/>
		</g>
		<g>
			<defs>
				<path id="SVGID_273_" d="M32.5,193.5c0,22.8,18.5,41.3,41.3,41.3s41.3-18.5,41.3-41.3s-18.5-41.3-41.3-41.3
					S32.5,170.7,32.5,193.5"/>
			</defs>
			<clipPath id="SVGID_274_">
				<use xlink:href="#SVGID_273_"  style="overflow:visible;"/>
			</clipPath>
			<path class="st135" d="M87.2,224.1c-0.3,0.6-0.6,1.1-1.1,1.6c-1.1,1.1-2.5,1.6-4,1.6H61.4c-0.4,0-0.8-0.4-0.8-0.8v-2.4l2.7-1.6
				h22.6C86.4,223.2,87.2,224.1,87.2,224.1"/>
		</g>
		<g>
			<defs>
				<path id="SVGID_275_" d="M32.5,193.5c0,22.8,18.5,41.3,41.3,41.3s41.3-18.5,41.3-41.3s-18.5-41.3-41.3-41.3
					S32.5,170.7,32.5,193.5"/>
			</defs>
			<clipPath id="SVGID_276_">
				<use xlink:href="#SVGID_275_"  style="overflow:visible;"/>
			</clipPath>
			<path class="st136" d="M87.2,224.1c-0.3,0.6-0.6,1.1-1.1,1.6c-1.1,1.1-2.5,1.6-4,1.6h-8v-4.8h11.7
				C86.4,223.2,87.2,224.1,87.2,224.1"/>
		</g>
		<g>
			<defs>
				<path id="SVGID_277_" d="M32.5,193.5c0,22.8,18.5,41.3,41.3,41.3s41.3-18.5,41.3-41.3s-18.5-41.3-41.3-41.3
					S32.5,170.7,32.5,193.5"/>
			</defs>
			<clipPath id="SVGID_278_">
				<use xlink:href="#SVGID_277_"  style="overflow:visible;"/>
			</clipPath>
			<path class="st137" d="M87.8,221.7c0,0.9-0.2,1.7-0.6,2.4H60.6V221l2.5-1.7l-2.5-3.1v-2.4c0-0.4,0.4-0.8,0.8-0.8h12.8
				c1.3,0,2.7,0.2,4,0.6v5c0,0.4,0.4,0.8,0.8,0.8h8C87.6,220.1,87.8,220.8,87.8,221.7"/>
		</g>
		<g>
			<defs>
				<path id="SVGID_279_" d="M32.5,193.5c0,22.8,18.5,41.3,41.3,41.3s41.3-18.5,41.3-41.3s-18.5-41.3-41.3-41.3
					S32.5,170.7,32.5,193.5"/>
			</defs>
			<clipPath id="SVGID_280_">
				<use xlink:href="#SVGID_279_"  style="overflow:visible;"/>
			</clipPath>
			<path class="st138" d="M87.2,224.2h-13V213c1.3,0,2.7,0.2,4,0.6v5c0,0.4,0.4,0.8,0.8,0.8h8c0.5,0.7,0.8,1.4,0.8,2.3
				C87.8,222.6,87.6,223.5,87.2,224.2"/>
		</g>
		<g>
			<defs>
				<path id="SVGID_281_" d="M32.5,193.5c0,22.8,18.5,41.3,41.3,41.3s41.3-18.5,41.3-41.3s-18.5-41.3-41.3-41.3
					S32.5,170.7,32.5,193.5"/>
			</defs>
			<clipPath id="SVGID_282_">
				<use xlink:href="#SVGID_281_"  style="overflow:visible;"/>
			</clipPath>
			<path class="st139" d="M74.2,216.2H60.6v4.8h13.6c0.4,0,0.8-0.4,0.8-0.8V217C75,216.5,74.6,216.2,74.2,216.2"/>
		</g>
		<g>
			<defs>
				<path id="SVGID_283_" d="M32.5,193.5c0,22.8,18.5,41.3,41.3,41.3s41.3-18.5,41.3-41.3s-18.5-41.3-41.3-41.3
					S32.5,170.7,32.5,193.5"/>
			</defs>
			<clipPath id="SVGID_284_">
				<use xlink:href="#SVGID_283_"  style="overflow:visible;"/>
			</clipPath>
			<path class="st140" d="M74.2,221v-4.8c0.4,0,0.8,0.4,0.8,0.8v3.2C75,220.6,74.6,221,74.2,221"/>
		</g>
		<g>
			<defs>
				<path id="SVGID_285_" d="M32.5,193.5c0,22.8,18.5,41.3,41.3,41.3s41.3-18.5,41.3-41.3s-18.5-41.3-41.3-41.3
					S32.5,170.7,32.5,193.5"/>
			</defs>
			<clipPath id="SVGID_286_">
				<use xlink:href="#SVGID_285_"  style="overflow:visible;"/>
			</clipPath>
			<path class="st141" d="M70.2,219.4H67v-1.6h3.2V219.4z M62.2,217.8h3.2v1.6h-3.2V217.8z M73.4,219.4h-1.6v-1.6h1.6V219.4z"/>
		</g>
		<g>
			<defs>
				<path id="SVGID_287_" d="M32.5,193.5c0,22.8,18.5,41.3,41.3,41.3s41.3-18.5,41.3-41.3s-18.5-41.3-41.3-41.3
					S32.5,170.7,32.5,193.5"/>
			</defs>
			<clipPath id="SVGID_288_">
				<use xlink:href="#SVGID_287_"  style="overflow:visible;"/>
			</clipPath>
			<path class="st142" d="M87.8,229.7c0,0.4-0.4,0.8-0.8,0.8H61.4c-0.4,0-0.8-0.4-0.8-0.8c0-0.4,0.4-0.8,0.8-0.8H87
				C87.5,228.9,87.8,229.3,87.8,229.7"/>
		</g>
		<g>
			<defs>
				<path id="SVGID_289_" d="M32.5,193.5c0,22.8,18.5,41.3,41.3,41.3s41.3-18.5,41.3-41.3s-18.5-41.3-41.3-41.3
					S32.5,170.7,32.5,193.5"/>
			</defs>
			<clipPath id="SVGID_290_">
				<use xlink:href="#SVGID_289_"  style="overflow:visible;"/>
			</clipPath>
			<path class="st143" d="M55.6,230.2v7.5c0,0.4,0.4,0.8,0.8,0.8h3.2c0.4,0,0.8-0.4,0.8-0.8v-7.5H55.6z"/>
		</g>
		<g>
			<defs>
				<path id="SVGID_291_" d="M32.5,193.5c0,22.8,18.5,41.3,41.3,41.3s41.3-18.5,41.3-41.3s-18.5-41.3-41.3-41.3
					S32.5,170.7,32.5,193.5"/>
			</defs>
			<clipPath id="SVGID_292_">
				<use xlink:href="#SVGID_291_"  style="overflow:visible;"/>
			</clipPath>
			<path class="st144" d="M52.4,230.2v7.5c0,0.4-0.4,0.8-0.8,0.8h-3.2c-0.4,0-0.8-0.4-0.8-0.8v-7.5H52.4z"/>
		</g>
		<g>
			<defs>
				<path id="SVGID_293_" d="M32.5,193.5c0,22.8,18.5,41.3,41.3,41.3s41.3-18.5,41.3-41.3s-18.5-41.3-41.3-41.3
					S32.5,170.7,32.5,193.5"/>
			</defs>
			<clipPath id="SVGID_294_">
				<use xlink:href="#SVGID_293_"  style="overflow:visible;"/>
			</clipPath>
			<path class="st145" d="M37,224.1c0.1-0.1,0.8-0.9,1.3-1.6h22.6l2.7,1.6v2.4c0,0.4-0.4,0.8-0.8,0.8H42.1c-1.5,0-2.9-0.6-4-1.6
				C37.6,225.3,37.3,224.7,37,224.1"/>
		</g>
		<g>
			<defs>
				<path id="SVGID_295_" d="M32.5,193.5c0,22.8,18.5,41.3,41.3,41.3s41.3-18.5,41.3-41.3s-18.5-41.3-41.3-41.3
					S32.5,170.7,32.5,193.5"/>
			</defs>
			<clipPath id="SVGID_296_">
				<use xlink:href="#SVGID_295_"  style="overflow:visible;"/>
			</clipPath>
			<path class="st146" d="M36.4,221.7c0-0.9,0.2-1.7,0.8-2.3c0,0,10.2-6.4,11.5-6.4h14.1c0.4,0,0.8,0.4,0.8,0.8v2.4l-2.5,3.1
				l2.5,1.7v3.2H37C36.6,223.5,36.4,222.6,36.4,221.7"/>
		</g>
		<g>
			<defs>
				<path id="SVGID_297_" d="M32.5,193.5c0,22.8,18.5,41.3,41.3,41.3s41.3-18.5,41.3-41.3s-18.5-41.3-41.3-41.3
					S32.5,170.7,32.5,193.5"/>
			</defs>
			<clipPath id="SVGID_298_">
				<use xlink:href="#SVGID_297_"  style="overflow:visible;"/>
			</clipPath>
			<path class="st147" d="M50.1,216.2c-0.4,0-0.8,0.4-0.8,0.8v3.2c0,0.4,0.4,0.8,0.8,0.8h13.6v-4.8H50.1z"/>
		</g>
		<g>
			<defs>
				<path id="SVGID_299_" d="M32.5,193.5c0,22.8,18.5,41.3,41.3,41.3s41.3-18.5,41.3-41.3s-18.5-41.3-41.3-41.3
					S32.5,170.7,32.5,193.5"/>
			</defs>
			<clipPath id="SVGID_300_">
				<use xlink:href="#SVGID_299_"  style="overflow:visible;"/>
			</clipPath>
			<path class="st148" d="M57.2,219.4H54v-1.6h3.2V219.4z M62.1,219.4h-3.2v-1.6h3.2V219.4z M50.9,217.8h1.6v1.6h-1.6V217.8z"/>
		</g>
		<g>
			<defs>
				<path id="SVGID_301_" d="M32.5,193.5c0,22.8,18.5,41.3,41.3,41.3s41.3-18.5,41.3-41.3s-18.5-41.3-41.3-41.3
					S32.5,170.7,32.5,193.5"/>
			</defs>
			<clipPath id="SVGID_302_">
				<use xlink:href="#SVGID_301_"  style="overflow:visible;"/>
			</clipPath>
			<path class="st149" d="M36.4,229.7c0-0.4,0.4-0.8,0.8-0.8h25.6c0.4,0,0.8,0.4,0.8,0.8c0,0.4-0.4,0.8-0.8,0.8H37.2
				C36.8,230.5,36.4,230.2,36.4,229.7"/>
		</g>
		<g>
			<defs>
				<path id="SVGID_303_" d="M32.5,193.5c0,22.8,18.5,41.3,41.3,41.3s41.3-18.5,41.3-41.3s-18.5-41.3-41.3-41.3
					S32.5,170.7,32.5,193.5"/>
			</defs>
			<clipPath id="SVGID_304_">
				<use xlink:href="#SVGID_303_"  style="overflow:visible;"/>
			</clipPath>
			<path class="st150" d="M40.7,230.2v7.5c0,0.4,0.4,0.8,0.8,0.8h3.2c0.4,0,0.8-0.4,0.8-0.8v-7.5H40.7z"/>
		</g>
		<g>
			<defs>
				<path id="SVGID_305_" d="M32.5,193.5c0,22.8,18.5,41.3,41.3,41.3s41.3-18.5,41.3-41.3s-18.5-41.3-41.3-41.3
					S32.5,170.7,32.5,193.5"/>
			</defs>
			<clipPath id="SVGID_306_">
				<use xlink:href="#SVGID_305_"  style="overflow:visible;"/>
			</clipPath>
			<path class="st151" d="M37.6,230.2v7.5c0,0.4-0.4,0.8-0.8,0.8h-3.2c-0.4,0-0.8-0.4-0.8-0.8v-7.5H37.6z"/>
		</g>
		<g>
			<defs>
				<path id="SVGID_307_" d="M32.5,193.5c0,22.8,18.5,41.3,41.3,41.3s41.3-18.5,41.3-41.3s-18.5-41.3-41.3-41.3
					S32.5,170.7,32.5,193.5"/>
			</defs>
			<clipPath id="SVGID_308_">
				<use xlink:href="#SVGID_307_"  style="overflow:visible;"/>
			</clipPath>
			<path class="st152" d="M22.1,224.1c0.1-0.1,0.8-0.9,1.3-1.6H46l2.7,1.6v2.4c0,0.4-0.4,0.8-0.8,0.8H27.2c-1.5,0-2.9-0.6-4-1.6
				C22.7,225.3,22.4,224.7,22.1,224.1"/>
		</g>
		<g>
			<defs>
				<path id="SVGID_309_" d="M32.5,193.5c0,22.8,18.5,41.3,41.3,41.3s41.3-18.5,41.3-41.3s-18.5-41.3-41.3-41.3
					S32.5,170.7,32.5,193.5"/>
			</defs>
			<clipPath id="SVGID_310_">
				<use xlink:href="#SVGID_309_"  style="overflow:visible;"/>
			</clipPath>
			<path class="st153" d="M22.9,221.7c0-0.9,0.2-1.7,0.8-2.3h8c0.4,0,0.8-0.4,0.8-0.8v-5c1.3-0.4,2.6-0.6,4-0.6h12.8
				c0.4,0,0.8,0.4,0.8,0.8l-0.8,2l-1.7,3.5l2.2,2.6l0.3,2.3H23.4C23.1,223.5,22.9,222.6,22.9,221.7"/>
		</g>
		<g>
			<defs>
				<path id="SVGID_311_" d="M32.5,193.5c0,22.8,18.5,41.3,41.3,41.3s41.3-18.5,41.3-41.3s-18.5-41.3-41.3-41.3
					S32.5,170.7,32.5,193.5"/>
			</defs>
			<clipPath id="SVGID_312_">
				<use xlink:href="#SVGID_311_"  style="overflow:visible;"/>
			</clipPath>
			<path class="st154" d="M48,216.2H34.4v4.8H48c0.4,0,0.8-0.4,0.8-0.8V217C48.8,216.5,48.4,216.2,48,216.2"/>
		</g>
		<g>
			<defs>
				<path id="SVGID_313_" d="M32.5,193.5c0,22.8,18.5,41.3,41.3,41.3s41.3-18.5,41.3-41.3s-18.5-41.3-41.3-41.3
					S32.5,170.7,32.5,193.5"/>
			</defs>
			<clipPath id="SVGID_314_">
				<use xlink:href="#SVGID_313_"  style="overflow:visible;"/>
			</clipPath>
			<path class="st155" d="M42.3,219.4h-3.2v-1.6h3.2V219.4z M47.2,219.4H44v-1.6h3.2V219.4z M36,217.8h1.6v1.6H36V217.8z"/>
		</g>
		<g>
			<defs>
				<path id="SVGID_315_" d="M32.5,193.5c0,22.8,18.5,41.3,41.3,41.3s41.3-18.5,41.3-41.3s-18.5-41.3-41.3-41.3
					S32.5,170.7,32.5,193.5"/>
			</defs>
			<clipPath id="SVGID_316_">
				<use xlink:href="#SVGID_315_"  style="overflow:visible;"/>
			</clipPath>
			<path class="st156" d="M21.6,229.7c0-0.4,0.4-0.8,0.8-0.8H48c0.4,0,0.8,0.4,0.8,0.8c0,0.4-0.4,0.8-0.8,0.8H22.3
				C21.9,230.5,21.6,230.2,21.6,229.7"/>
		</g>
		<g>
			<defs>
				<path id="SVGID_317_" d="M32.5,193.5c0,22.8,18.5,41.3,41.3,41.3s41.3-18.5,41.3-41.3s-18.5-41.3-41.3-41.3
					S32.5,170.7,32.5,193.5"/>
			</defs>
			<clipPath id="SVGID_318_">
				<use xlink:href="#SVGID_317_"  style="overflow:visible;"/>
			</clipPath>
			<path class="st157" d="M87.8,229.7c0,0.4-0.4,0.8-0.8,0.8H74.2v-1.6H87C87.5,228.9,87.8,229.3,87.8,229.7"/>
		</g>
	</g>
	<g>
		<g>
			<defs>
				<path id="SVGID_319_" d="M32.5,108.7c0,22.8,18.5,41.3,41.3,41.3s41.3-18.5,41.3-41.3S96.6,67.4,73.8,67.4
					C51,67.4,32.5,85.9,32.5,108.7"/>
			</defs>
			<clipPath id="SVGID_320_">
				<use xlink:href="#SVGID_319_"  style="overflow:visible;"/>
			</clipPath>
			<path class="st158" d="M32.5,108.7c0,22.8,18.5,41.3,41.3,41.3s41.3-18.5,41.3-41.3S96.6,67.4,73.8,67.4S32.5,85.9,32.5,108.7"/>
		</g>
	</g>
	<g>
		<g>
			<defs>
				<path id="SVGID_321_" d="M52.8,73.1C46.1,77.1,40.5,83,37,90l0.3,28.7l45.4-0.5l-0.5-45.4L52.8,73.1z"/>
			</defs>
			<clipPath id="SVGID_322_">
				<use xlink:href="#SVGID_321_"  style="overflow:visible;"/>
			</clipPath>
			<path class="st159" d="M45.9,82.3c2.1-2.1,2-5.4-0.1-7.5s-5.4-2-7.5,0.1l0,0c-2.1,2.1-2,5.4,0.1,7.5
				C40.5,84.4,43.9,84.4,45.9,82.3"/>
		</g>
	</g>
	<g>
		<g>
			<defs>
				<path id="SVGID_323_" d="M32.5,108.7c0,22.8,18.5,41.3,41.3,41.3s41.3-18.5,41.3-41.3S96.6,67.4,73.8,67.4
					C51,67.4,32.5,85.9,32.5,108.7"/>
			</defs>
			<clipPath id="SVGID_324_">
				<use xlink:href="#SVGID_323_"  style="overflow:visible;"/>
			</clipPath>
			<path class="st160" d="M41.2,97.4h-2.8c-0.7,0-1.3-0.6-1.3-1.3v-2.7c0-0.7,0.6-1.3,1.3-1.3h2.8c4,0,7.7-1.7,10.3-4.4
				c2.6-2.7,4.2-6.4,4.2-10.4v-2.8c0-0.7,0.6-1.3,1.3-1.3h2.7c0.7,0,1.3,0.6,1.3,1.3v2.8c0.1,5.5-2.1,10.5-5.7,14.2
				C51.7,95,46.7,97.3,41.2,97.4"/>
		</g>
		<g>
			<defs>
				<path id="SVGID_325_" d="M32.5,108.7c0,22.8,18.5,41.3,41.3,41.3s41.3-18.5,41.3-41.3S96.6,67.4,73.8,67.4
					C51,67.4,32.5,85.9,32.5,108.7"/>
			</defs>
			<clipPath id="SVGID_326_">
				<use xlink:href="#SVGID_325_"  style="overflow:visible;"/>
			</clipPath>
			<path class="st161" d="M41.3,108h-2.8c-0.7,0-1.3-0.6-1.3-1.3V104c0-0.7,0.6-1.3,1.3-1.3h2.8c7-0.1,13.3-3,17.8-7.6
				s7.3-11,7.2-18v-2.8c0-0.7,0.6-1.3,1.3-1.3h2.7c0.7,0,1.3,0.6,1.3,1.3v2.8c0.1,8.5-3.3,16.1-8.7,21.7
				C57.4,104.4,49.8,107.9,41.3,108"/>
		</g>
	</g>
	<g>
		<g>
			<defs>
				<path id="SVGID_327_" d="M52.8,73.1C46.1,77.1,40.5,83,37,90l0.3,28.7l45.4-0.5l-0.5-45.4L52.8,73.1z"/>
			</defs>
			<clipPath id="SVGID_328_">
				<use xlink:href="#SVGID_327_"  style="overflow:visible;"/>
			</clipPath>
			<path class="st162" d="M41.5,118.7h-2.9c-0.7,0-1.3-0.5-1.3-1.3v-2.7c0-0.7,0.6-1.3,1.3-1.3h2.8c9.9-0.1,18.8-4.2,25.3-10.8
				C73.1,96,77,87,76.9,77v-2.8c0-0.7,0.6-1.3,1.3-1.3h2.7c0.4,0,0.7,0.2,0.9,0.4c0.2,0.2,0.4,0.6,0.4,0.9V77
				c0.1,11.4-4.4,21.8-11.8,29.3C63.1,113.8,52.8,118.5,41.5,118.7"/>
		</g>
		<g>
			<defs>
				<path id="SVGID_329_" d="M52.8,73.1C46.1,77.1,40.5,83,37,90l0.3,28.7l45.4-0.5l-0.5-45.4L52.8,73.1z"/>
			</defs>
			<clipPath id="SVGID_330_">
				<use xlink:href="#SVGID_329_"  style="overflow:visible;"/>
			</clipPath>
			<path class="st163" d="M45.9,82.3c-2.1,2.1-5.4,2.2-7.5,0.1c-2.1-2-2.2-5.4-0.1-7.5l0,0L45.9,82.3z"/>
		</g>
	</g>
	<g>
		<g>
			<defs>
				<path id="SVGID_331_" d="M32.5,108.7c0,22.8,18.5,41.3,41.3,41.3s41.3-18.5,41.3-41.3S96.6,67.4,73.8,67.4
					C51,67.4,32.5,85.9,32.5,108.7"/>
			</defs>
			<clipPath id="SVGID_332_">
				<use xlink:href="#SVGID_331_"  style="overflow:visible;"/>
			</clipPath>
			<path class="st164" d="M55.2,91.4c-3.6,3.7-8.5,5.9-14,6h-2.8c-0.7,0-1.3-0.6-1.3-1.3v-2.7c0-0.7,0.6-1.3,1.3-1.3h2.8
				c4,0,7.7-1.7,10.3-4.4L55.2,91.4z"/>
		</g>
		<g>
			<defs>
				<path id="SVGID_333_" d="M32.5,108.7c0,22.8,18.5,41.3,41.3,41.3s41.3-18.5,41.3-41.3S96.6,67.4,73.8,67.4
					C51,67.4,32.5,85.9,32.5,108.7"/>
			</defs>
			<clipPath id="SVGID_334_">
				<use xlink:href="#SVGID_333_"  style="overflow:visible;"/>
			</clipPath>
			<path class="st165" d="M62.8,98.8c-5.5,5.6-13.1,9.1-21.5,9.2h-2.8c-0.7,0-1.3-0.6-1.3-1.3V104c0-0.7,0.6-1.3,1.3-1.3h2.8
				c7-0.1,13.3-3,17.8-7.6L62.8,98.8z"/>
		</g>
		<g>
			<defs>
				<path id="SVGID_335_" d="M32.5,108.7c0,22.8,18.5,41.3,41.3,41.3s41.3-18.5,41.3-41.3S96.6,67.4,73.8,67.4
					C51,67.4,32.5,85.9,32.5,108.7"/>
			</defs>
			<clipPath id="SVGID_336_">
				<use xlink:href="#SVGID_335_"  style="overflow:visible;"/>
			</clipPath>
			<path class="st166" d="M41.5,118.7h-2.9c-0.7,0-1.3-0.5-1.3-1.3v-2.7c0-0.7,0.6-1.3,1.3-1.3h2.8c9.9-0.1,18.8-4.2,25.3-10.8
				l3.8,3.7C63.1,113.8,52.8,118.5,41.5,118.7"/>
		</g>
	</g>
	<polygon class="st167" points="99.3,109.7 99,131.4 97.6,133.5 84.7,133.3 83.3,131.2 83.5,109.5 85,107.4 97.9,107.6 	"/>
	<polygon class="st167" points="99.3,109.7 99,131.4 97,133.5 88.2,133.4 88.6,107.4 97.4,107.6 	"/>
	
		<rect x="75.4" y="111.7" transform="matrix(1.243644e-02 -0.9999 0.9999 1.243644e-02 -33.1845 207.3487)" class="st168" width="25.9" height="17.6"/>
	
		<rect x="67.8" y="119.4" transform="matrix(1.292556e-02 -0.9999 0.9999 1.292556e-02 -42.6967 197.373)" class="st167" width="21.6" height="1.8"/>
	<g>
		<g>
			<defs>
				<rect id="SVGID_337_" x="5" y="5" width="290" height="290"/>
			</defs>
			<clipPath id="SVGID_338_">
				<use xlink:href="#SVGID_337_"  style="overflow:visible;"/>
			</clipPath>
			<g class="st169">
				<g>
					<g>
						<defs>
							
								<rect id="SVGID_339_" x="77.6" y="109.4" transform="matrix(1.244513e-02 -0.9999 0.9999 1.244513e-02 -42.5616 197.4332)" width="2.1" height="21.7"/>
						</defs>
						<clipPath id="SVGID_340_">
							<use xlink:href="#SVGID_339_"  style="overflow:visible;"/>
						</clipPath>
						
							<rect x="67.8" y="119.4" transform="matrix(1.244513e-02 -0.9999 0.9999 1.244513e-02 -42.661 197.4313)" class="st170" width="21.6" height="1.8"/>
					</g>
				</g>
			</g>
		</g>
		<g>
			<defs>
				<rect id="SVGID_341_" x="5" y="5" width="290" height="290"/>
			</defs>
			<clipPath id="SVGID_342_">
				<use xlink:href="#SVGID_341_"  style="overflow:visible;"/>
			</clipPath>
			<g class="st171">
				<g>
					<g>
						<defs>
							
								<rect id="SVGID_343_" x="77.5" y="109.4" transform="matrix(1.244413e-02 -0.9999 0.9999 1.244413e-02 -42.6594 197.3497)" width="2.1" height="21.7"/>
						</defs>
						<clipPath id="SVGID_344_">
							<use xlink:href="#SVGID_343_"  style="overflow:visible;"/>
						</clipPath>
						
							<rect x="67.7" y="119.4" transform="matrix(1.244413e-02 -0.9999 0.9999 1.244413e-02 -42.7588 197.3479)" class="st172" width="21.6" height="1.8"/>
					</g>
				</g>
			</g>
		</g>
	</g>
	
		<rect x="79.9" y="116.1" transform="matrix(1.243764e-02 -0.9999 0.9999 1.243764e-02 -28.8493 211.8437)" class="st173" width="25.9" height="8.8"/>
	<g>
		<g>
			<defs>
				<rect id="SVGID_345_" x="5" y="5" width="290" height="290"/>
			</defs>
			<clipPath id="SVGID_346_">
				<use xlink:href="#SVGID_345_"  style="overflow:visible;"/>
			</clipPath>
			<path class="st174" d="M99.3,106.5v3.2l-21.5-0.3v-3.2c0-1.8,1.3-3.2,3-3.2l15.6,0.2C98.1,103.3,99.4,104.7,99.3,106.5"/>
		</g>
		<g>
			<defs>
				<rect id="SVGID_347_" x="5" y="5" width="290" height="290"/>
			</defs>
			<clipPath id="SVGID_348_">
				<use xlink:href="#SVGID_347_"  style="overflow:visible;"/>
			</clipPath>
			<g class="st175">
				<g>
					<g>
						<defs>
							<rect id="SVGID_349_" x="77.8" y="103.1" width="21.5" height="6.7"/>
						</defs>
						<clipPath id="SVGID_350_">
							<use xlink:href="#SVGID_349_"  style="overflow:visible;"/>
						</clipPath>
						<g class="st176">
							<g>
								<defs>
									<rect id="SVGID_351_" x="77.8" y="103.1" width="21.5" height="6.7"/>
								</defs>
								<clipPath id="SVGID_352_">
									<use xlink:href="#SVGID_351_"  style="overflow:visible;"/>
								</clipPath>
								<path class="st177" d="M99.3,106.5v3.2l-21.5-0.3v-3.2c0-1.8,1.3-3.2,3-3.2l15.6,0.2C98,103.3,99.3,104.7,99.3,106.5"/>
							</g>
						</g>
					</g>
				</g>
			</g>
		</g>
		<g>
			<defs>
				<rect id="SVGID_353_" x="5" y="5" width="290" height="290"/>
			</defs>
			<clipPath id="SVGID_354_">
				<use xlink:href="#SVGID_353_"  style="overflow:visible;"/>
			</clipPath>
			<path class="st178" d="M99.3,106.5v3.2l-10.8-0.1l0.1-6.5l7.8,0.1C98.1,103.3,99.4,104.7,99.3,106.5"/>
		</g>
		<g>
			<defs>
				<rect id="SVGID_355_" x="5" y="5" width="290" height="290"/>
			</defs>
			<clipPath id="SVGID_356_">
				<use xlink:href="#SVGID_355_"  style="overflow:visible;"/>
			</clipPath>
			<path class="st179" d="M99,131.4l-0.1,5.4c0,1.8-1.3,3.2-3,3.2l-15.6-0.2c-1.6,0-2.9-1.5-2.9-3.3l0.1-5.4l9.8,0.1l1,2.2l1-2.1
				L99,131.4z"/>
		</g>
		<g>
			<defs>
				<rect id="SVGID_357_" x="5" y="5" width="290" height="290"/>
			</defs>
			<clipPath id="SVGID_358_">
				<use xlink:href="#SVGID_357_"  style="overflow:visible;"/>
			</clipPath>
			<g class="st180">
				<g>
					<g>
						<defs>
							<rect id="SVGID_359_" x="77.4" y="131.1" width="21.6" height="8.8"/>
						</defs>
						<clipPath id="SVGID_360_">
							<use xlink:href="#SVGID_359_"  style="overflow:visible;"/>
						</clipPath>
						<g class="st181">
							<g>
								<defs>
									<rect id="SVGID_361_" x="77.4" y="131.1" width="21.6" height="8.8"/>
								</defs>
								<clipPath id="SVGID_362_">
									<use xlink:href="#SVGID_361_"  style="overflow:visible;"/>
								</clipPath>
								<path class="st182" d="M99,131.4l-0.1,5.4c0,1.8-1.3,3.2-3,3.2l-15.6-0.2c-1.6,0-2.9-1.5-2.9-3.3l0.1-5.4l9.8,0.1l1,2.2
									l1-2.1L99,131.4z"/>
							</g>
						</g>
					</g>
				</g>
			</g>
		</g>
		<g>
			<defs>
				<rect id="SVGID_363_" x="5" y="5" width="290" height="290"/>
			</defs>
			<clipPath id="SVGID_364_">
				<use xlink:href="#SVGID_363_"  style="overflow:visible;"/>
			</clipPath>
			<path class="st183" d="M99,131.4l-0.1,5.4c0,1.8-1.3,3.2-3,3.2l-7.8-0.1l0.1-6.5l1-2.1L99,131.4z"/>
		</g>
		<g>
			<defs>
				<rect id="SVGID_365_" x="5" y="5" width="290" height="290"/>
			</defs>
			<clipPath id="SVGID_366_">
				<use xlink:href="#SVGID_365_"  style="overflow:visible;"/>
			</clipPath>
			<path class="st184" d="M89.2,131.3v3.2c0,0.6-0.4,1.1-1,1.1c-0.5,0-1-0.5-1-1.1v-3.2H89.2z"/>
		</g>
		<g>
			<defs>
				<rect id="SVGID_367_" x="5" y="5" width="290" height="290"/>
			</defs>
			<clipPath id="SVGID_368_">
				<use xlink:href="#SVGID_367_"  style="overflow:visible;"/>
			</clipPath>
			<path class="st185" d="M89.2,131.3v3.2c0,0.6-0.4,1.1-1,1.1l0.1-4.3H89.2z"/>
		</g>
	</g>
</g>
</svg>
