<?xml version="1.0" encoding="utf-8"?>
<!-- Generator: Adobe Illustrator 16.0.0, SVG Export Plug-In . SVG Version: 6.00 Build 0)  -->
<!DOCTYPE svg PUBLIC "-//W3C//DTD SVG 1.1//EN" "http://www.w3.org/Graphics/SVG/1.1/DTD/svg11.dtd">
<svg version="1.1" xmlns="http://www.w3.org/2000/svg" xmlns:xlink="http://www.w3.org/1999/xlink" x="0px" y="0px" width="200px"
	 height="200px" viewBox="0 0 200 200" enable-background="new 0 0 200 200" xml:space="preserve">
<g id="BG">
</g>
<g id="Object">
	<g>
		
			<radialGradient id="SVGID_1_" cx="28.1484" cy="-381.1797" r="89.2969" gradientTransform="matrix(0.6504 0 0 0.112 81.6934 228.6725)" gradientUnits="userSpaceOnUse">
			<stop  offset="0" style="stop-color:#999999"/>
			<stop  offset="0.0043" style="stop-color:#9A9A9A"/>
			<stop  offset="0.1104" style="stop-color:#B9B9B9"/>
			<stop  offset="0.2255" style="stop-color:#D3D3D3"/>
			<stop  offset="0.3537" style="stop-color:#E6E6E6"/>
			<stop  offset="0.5004" style="stop-color:#F4F4F4"/>
			<stop  offset="0.6815" style="stop-color:#FDFDFD"/>
			<stop  offset="1" style="stop-color:#FFFFFF"/>
		</radialGradient>
		<ellipse fill="url(#SVGID_1_)" cx="100" cy="185.98" rx="58.074" ry="10.002"/>
		<g>
			<linearGradient id="SVGID_2_" gradientUnits="userSpaceOnUse" x1="48.9492" y1="134.2549" x2="151.0506" y2="32.1535">
				<stop  offset="0" style="stop-color:#990000"/>
				<stop  offset="1" style="stop-color:#CC0000"/>
			</linearGradient>
			<path fill="url(#SVGID_2_)" d="M164.967,72.979c0,46.212-48.521,96.266-61.698,109.008c-1.823,1.764-4.714,1.764-6.538,0
				c-13.179-12.742-61.697-62.796-61.697-109.008c0-35.88,29.087-64.967,64.967-64.967S164.967,37.099,164.967,72.979z"/>
			<linearGradient id="SVGID_3_" gradientUnits="userSpaceOnUse" x1="63.3457" y1="109.6338" x2="136.655" y2="36.3245">
				<stop  offset="0" style="stop-color:#CC0000"/>
				<stop  offset="1" style="stop-color:#990000"/>
			</linearGradient>
			<circle fill="url(#SVGID_3_)" cx="100" cy="72.979" r="51.838"/>
			<radialGradient id="SVGID_4_" cx="100" cy="72.9785" r="47.125" gradientUnits="userSpaceOnUse">
				<stop  offset="0.7092" style="stop-color:#FFFFFF"/>
				<stop  offset="0.8395" style="stop-color:#FDFDFD"/>
				<stop  offset="0.8864" style="stop-color:#F6F6F6"/>
				<stop  offset="0.9198" style="stop-color:#EBEBEB"/>
				<stop  offset="0.9469" style="stop-color:#DADADA"/>
				<stop  offset="0.97" style="stop-color:#C4C4C4"/>
				<stop  offset="0.9902" style="stop-color:#A9A9A9"/>
				<stop  offset="1" style="stop-color:#999999"/>
			</radialGradient>
			<circle fill="url(#SVGID_4_)" cx="100" cy="72.979" r="47.125"/>
		</g>
	</g>
</g>
</svg>
