<?xml version="1.0" encoding="utf-8"?>
<!-- Generator: Adobe Illustrator 24.0.2, SVG Export Plug-In . SVG Version: 6.00 Build 0)  -->
<svg version="1.1" id="Layer_1" xmlns="http://www.w3.org/2000/svg" xmlns:xlink="http://www.w3.org/1999/xlink" x="0px" y="0px"
	 viewBox="0 0 792 129" style="enable-background:new 0 0 792 129;" xml:space="preserve">
<style type="text/css">
	.st0{fill:#E5243B;}
	.st1{fill:#DDA63A;}
	.st2{fill:#4C9F38;}
	.st3{fill:#C5192D;}
	.st4{fill:#FF3A21;}
	.st5{fill:#26BDE2;}
	.st6{fill:#FFFFFF;}
	.st7{fill:none;stroke:#FFFFFF;stroke-width:1.3962;stroke-linecap:round;stroke-miterlimit:10;}
</style>
<rect x="7.2" y="5" class="st0" width="117.7" height="117.8"/>
<rect x="139.2" y="5" class="st1" width="118" height="117.8"/>
<rect x="271.4" y="5" class="st2" width="118" height="117.8"/>
<rect x="403.6" y="5" class="st3" width="118" height="117.8"/>
<rect x="535.8" y="5" class="st4" width="118" height="117.8"/>
<rect x="668" y="5" class="st5" width="118" height="117.8"/>
<g>
	<path class="st6" d="M17.5,19.5c-0.2,0.1-0.8,0.3-1.8,0.7c-0.8,0.3-1.3,0.4-1.5,0.5v-3.2c0.6-0.2,1.4-0.6,2.3-1.1
		c0.9-0.5,1.5-1,1.9-1.4h3.4v22.5h-4.3V19.5z"/>
	<polygon class="st6" points="31.2,23.6 31.2,15 34.7,15 34.7,16.1 32.8,16.1 32.8,18.6 34.3,18.6 34.3,19.7 32.8,19.7 32.8,23.6 	
		"/>
	<rect x="35.4" y="15" class="st6" width="1.5" height="8.6"/>
	<polygon class="st6" points="38,23.6 38,15 39.1,15 41.2,19.9 41.2,15 42.5,15 42.5,23.6 41.5,23.6 39.4,18.5 39.4,23.6 	"/>
	<path class="st6" d="M31.2,37.7v-8.6h2c0.5,0,1,0.1,1.3,0.2s0.6,0.3,0.8,0.5c0.2,0.2,0.4,0.5,0.4,0.8c0.1,0.3,0.1,0.7,0.1,1.2v3.1
		c0,0.5,0,0.9-0.1,1.2c-0.1,0.3-0.2,0.6-0.4,0.9c-0.2,0.2-0.5,0.4-0.8,0.5c-0.3,0.1-0.8,0.2-1.3,0.2H31.2z M32.8,36.6h0.4
		c0.2,0,0.3,0,0.4,0c0.1,0,0.2-0.1,0.3-0.1c0.1,0,0.1-0.1,0.2-0.2c0.1-0.1,0.1-0.2,0.1-0.2c0-0.1,0-0.2,0.1-0.3c0-0.1,0-0.3,0-0.4
		c0-0.1,0-0.3,0-0.5v-3.1c0-0.2,0-0.4,0-0.5c0-0.1,0-0.3,0-0.4c0-0.1-0.1-0.2-0.1-0.3c-0.1-0.1-0.1-0.1-0.2-0.2
		c-0.1-0.1-0.2-0.1-0.3-0.1c-0.1,0-0.3,0-0.5,0h-0.4V36.6z"/>
	<polygon class="st6" points="36.9,37.7 36.9,29.1 40.5,29.1 40.5,30.2 38.4,30.2 38.4,32.7 40,32.7 40,33.8 38.4,33.8 38.4,36.6 
		40.5,36.6 40.5,37.7 	"/>
	<polygon class="st6" points="43.6,37.7 43.6,29.1 45.1,29.1 45.1,36.6 47.2,36.6 47.2,37.7 	"/>
	<path class="st6" d="M47.4,37.7l1.7-8.6h1.6l1.7,8.6H51l-0.3-2h-1.5l-0.4,2H47.4z M49.3,34.7h1.2l-0.6-3.5L49.3,34.7z"/>
	<path class="st6" d="M55.5,37.7v-8.6H58c1.5,0,2.2,0.8,2.2,2.4c0,0.8-0.2,1.4-0.6,1.8c-0.4,0.4-1,0.6-1.7,0.6h-0.8v3.8H55.5z
		 M57.1,32.7h0.5c0.4,0,0.7-0.1,0.9-0.3c0.2-0.2,0.2-0.5,0.2-1c0-0.3,0-0.5,0-0.6c0-0.1-0.1-0.3-0.1-0.4c-0.1-0.1-0.2-0.2-0.3-0.2
		c-0.2,0-0.4-0.1-0.6-0.1h-0.5V32.7z"/>
	<path class="st6" d="M63.1,37.8c-0.9,0-1.5-0.2-1.9-0.7c-0.4-0.5-0.6-1.2-0.6-2.1v-3.2c0-0.5,0-0.9,0.1-1.2
		c0.1-0.3,0.2-0.6,0.4-0.9c0.2-0.2,0.4-0.4,0.8-0.6c0.3-0.1,0.7-0.2,1.2-0.2c0.9,0,1.5,0.2,1.9,0.7c0.4,0.5,0.6,1.2,0.6,2.1V35
		c0,0.4,0,0.8-0.1,1.2c-0.1,0.3-0.2,0.6-0.4,0.9c-0.2,0.3-0.4,0.4-0.8,0.6C64,37.7,63.6,37.8,63.1,37.8 M62.7,36.6
		c0.1,0,0.2,0.1,0.4,0.1c0.2,0,0.3,0,0.4-0.1c0.1,0,0.2-0.1,0.3-0.2c0.1-0.1,0.1-0.2,0.2-0.3c0-0.1,0.1-0.2,0.1-0.4
		c0-0.1,0-0.3,0-0.4v-3.9c0-0.2,0-0.4,0-0.5c0-0.1-0.1-0.3-0.1-0.4c-0.1-0.1-0.2-0.2-0.3-0.3c-0.1-0.1-0.3-0.1-0.5-0.1
		c-0.2,0-0.3,0-0.5,0.1c-0.1,0.1-0.2,0.2-0.3,0.3c-0.1,0.1-0.1,0.3-0.1,0.4c0,0.1,0,0.3,0,0.5v3.9c0,0.2,0,0.3,0,0.4
		c0,0.1,0,0.2,0.1,0.4c0,0.1,0.1,0.2,0.1,0.3C62.5,36.5,62.6,36.5,62.7,36.6"/>
	<path class="st6" d="M66.5,37.7v-8.6h2.1c0.4,0,0.7,0,1,0.1c0.3,0.1,0.6,0.2,0.8,0.4c0.2,0.2,0.4,0.4,0.5,0.7
		c0.1,0.3,0.2,0.6,0.2,1.1c0,1.1-0.4,1.7-1.3,1.8c0.5,0.1,0.9,0.3,1.1,0.7c0.3,0.3,0.4,0.8,0.4,1.5c0,0.8-0.2,1.4-0.6,1.9
		c-0.4,0.4-1,0.6-1.8,0.6H66.5z M68.1,32.6h0.5c0.5,0,0.8-0.1,0.9-0.3c0.2-0.2,0.3-0.5,0.3-1c0-0.2,0-0.4-0.1-0.6
		c-0.1-0.2-0.2-0.3-0.3-0.3c-0.1-0.1-0.3-0.1-0.4-0.2c-0.2,0-0.4,0-0.7,0h-0.2V32.6z M68.1,36.6h0.6c0.5,0,0.8-0.1,1-0.3
		c0.2-0.2,0.3-0.6,0.3-1.1c0-0.5-0.1-0.9-0.3-1.1c-0.2-0.2-0.5-0.4-1-0.4h-0.5V36.6z"/>
	<path class="st6" d="M72.2,37.7v-8.6h2c0.5,0,0.8,0,1.2,0.1c0.3,0.1,0.6,0.2,0.8,0.4c0.2,0.2,0.4,0.4,0.5,0.7
		c0.1,0.3,0.2,0.7,0.2,1.1c0,0.5-0.1,1-0.2,1.3c-0.2,0.3-0.4,0.6-0.8,0.7l1.2,4.2h-1.6l-1-3.9h-0.7v3.9H72.2z M73.8,32.8h0.4
		c0.5,0,0.8-0.1,1-0.3c0.2-0.2,0.3-0.5,0.3-1c0-0.5-0.1-0.8-0.3-1c-0.2-0.2-0.5-0.3-0.9-0.3h-0.5V32.8z"/>
	<polygon class="st6" points="77.9,37.7 77.9,29.1 81.5,29.1 81.5,30.2 79.5,30.2 79.5,32.7 81.1,32.7 81.1,33.8 79.5,33.8 
		79.5,36.6 81.5,36.6 81.5,37.7 	"/>
	<polygon class="st6" points="81.9,37.7 81.9,36.7 84.2,30.2 82,30.2 82,29.1 85.8,29.1 85.8,29.9 83.4,36.6 85.8,36.6 85.8,37.7 	
		"/>
	<path class="st6" d="M86.1,37.7l1.7-8.6h1.6l1.7,8.6h-1.5l-0.3-2h-1.5l-0.4,2H86.1z M88.1,34.7h1.2l-0.6-3.5L88.1,34.7z"/>
	<path class="st6" d="M148.7,34.5l5.4-8.4l0.3-0.5c0.7-1.1,1.2-1.9,1.6-2.7c0.3-0.7,0.5-1.5,0.5-2.3c0-0.7-0.1-1.3-0.4-1.7
		c-0.3-0.4-0.7-0.6-1.2-0.6c-0.8,0-1.3,0.3-1.6,0.9c-0.3,0.6-0.4,1.4-0.4,2.4v1h-4.2v-1.1c0-2.1,0.5-3.8,1.5-5
		c1-1.2,2.5-1.8,4.7-1.8c1.9,0,3.4,0.5,4.4,1.5c1,1,1.5,2.5,1.5,4.4c0,0.9-0.1,1.7-0.4,2.4c-0.3,0.8-0.6,1.4-0.9,2
		c-0.4,0.6-0.9,1.4-1.6,2.5l-4.3,6.5h6.7v3.4h-11.5V34.5z"/>
	<polygon class="st6" points="170.3,23.6 170.3,15 171.8,15 171.8,18.6 173.6,18.6 173.6,15 175.1,15 175.1,23.6 173.6,23.6 
		173.6,19.7 171.8,19.7 171.8,23.6 	"/>
	<path class="st6" d="M175.9,23.6l1.7-8.6h1.6l1.7,8.6h-1.5l-0.3-2h-1.5l-0.4,2H175.9z M177.9,20.6h1.2l-0.6-3.5L177.9,20.6z"/>
	<polygon class="st6" points="181.8,23.6 182,15 183.6,15 184.8,21.1 186.1,15 187.7,15 187.8,23.6 186.6,23.6 186.5,17.7 
		185.3,23.6 184.4,23.6 183.1,17.7 183,23.6 	"/>
	<path class="st6" d="M189,23.6V15h2.1c0.4,0,0.7,0,1,0.1c0.3,0.1,0.6,0.2,0.8,0.4c0.2,0.2,0.4,0.4,0.5,0.7c0.1,0.3,0.2,0.6,0.2,1.1
		c0,1.1-0.4,1.7-1.3,1.8c0.5,0.1,0.9,0.3,1.1,0.7c0.3,0.3,0.4,0.8,0.4,1.5c0,0.8-0.2,1.4-0.6,1.9c-0.4,0.4-1,0.6-1.8,0.6H189z
		 M190.6,18.5h0.5c0.5,0,0.8-0.1,0.9-0.3c0.2-0.2,0.3-0.5,0.3-1c0-0.2,0-0.4-0.1-0.6c-0.1-0.2-0.2-0.3-0.3-0.3
		c-0.1-0.1-0.3-0.1-0.4-0.2c-0.2,0-0.4,0-0.7,0h-0.2V18.5z M190.6,22.5h0.6c0.5,0,0.8-0.1,1-0.3c0.2-0.2,0.3-0.6,0.3-1.1
		c0-0.5-0.1-0.9-0.3-1.1c-0.2-0.2-0.5-0.4-1-0.4h-0.5V22.5z"/>
	<path class="st6" d="M194.9,23.6V15h2c0.5,0,0.8,0,1.2,0.1c0.3,0.1,0.6,0.2,0.8,0.4c0.2,0.2,0.4,0.4,0.5,0.7
		c0.1,0.3,0.2,0.7,0.2,1.1c0,0.5-0.1,1-0.2,1.3c-0.2,0.3-0.4,0.6-0.8,0.7l1.2,4.2h-1.6l-1-3.9h-0.7v3.9H194.9z M196.5,18.7h0.4
		c0.5,0,0.8-0.1,1-0.3c0.2-0.2,0.3-0.5,0.3-1c0-0.5-0.1-0.8-0.3-1c-0.2-0.2-0.5-0.3-0.9-0.3h-0.5V18.7z"/>
	<polygon class="st6" points="200.7,23.6 200.7,15 204.3,15 204.3,16.1 202.3,16.1 202.3,18.6 203.9,18.6 203.9,19.7 202.3,19.7 
		202.3,22.5 204.4,22.5 204.4,23.6 	"/>
	<path class="st6" d="M172.6,37.8c-0.4,0-0.7,0-1-0.1c-0.3-0.1-0.5-0.2-0.7-0.4c-0.2-0.2-0.3-0.4-0.5-0.6c-0.1-0.2-0.2-0.5-0.2-0.8
		c0-0.3-0.1-0.6-0.1-1v-3c0-0.4,0-0.7,0.1-1c0-0.3,0.1-0.6,0.2-0.8c0.1-0.2,0.3-0.5,0.4-0.6c0.2-0.2,0.4-0.3,0.7-0.4
		c0.3-0.1,0.6-0.1,1-0.1c0.4,0,0.8,0.1,1.1,0.2c0.3,0.1,0.5,0.3,0.7,0.5c0.2,0.2,0.3,0.5,0.4,0.8c0.1,0.3,0.1,0.6,0.1,1v0.7h-1.5
		v-0.7c0-0.4,0-0.7-0.1-0.9c-0.1-0.3-0.3-0.4-0.7-0.5h-0.1c-0.1,0-0.2,0-0.3,0c-0.1,0-0.2,0.1-0.2,0.1c-0.1,0.1-0.1,0.1-0.2,0.2
		c0,0.1-0.1,0.2-0.1,0.3c0,0.1,0,0.2,0,0.3c0,0.1,0,0.2,0,0.4v3.6c0,0.5,0.1,0.9,0.2,1.1c0.1,0.2,0.4,0.3,0.7,0.3c0.1,0,0.2,0,0.3,0
		c0.1,0,0.2-0.1,0.2-0.1c0.1,0,0.1-0.1,0.1-0.2c0-0.1,0.1-0.1,0.1-0.2c0-0.1,0-0.2,0-0.3c0-0.1,0-0.2,0-0.3c0-0.1,0-0.2,0-0.3v-0.8
		h1.5v0.7c0,0.3,0,0.6-0.1,0.9c0,0.3-0.1,0.5-0.2,0.7c-0.1,0.2-0.3,0.4-0.4,0.6c-0.2,0.2-0.4,0.3-0.7,0.4
		C173.2,37.7,172.9,37.8,172.6,37.8"/>
	<polygon class="st6" points="175.9,37.7 175.9,29.1 179.5,29.1 179.5,30.2 177.5,30.2 177.5,32.7 179.1,32.7 179.1,33.8 
		177.5,33.8 177.5,36.6 179.5,36.6 179.5,37.7 	"/>
	<path class="st6" d="M180.4,37.7v-8.6h2c0.5,0,0.8,0,1.2,0.1c0.3,0.1,0.6,0.2,0.8,0.4c0.2,0.2,0.4,0.4,0.5,0.7
		c0.1,0.3,0.2,0.7,0.2,1.1c0,0.5-0.1,1-0.2,1.3c-0.2,0.3-0.4,0.6-0.8,0.7l1.2,4.2h-1.6l-1-3.9h-0.7v3.9H180.4z M181.9,32.8h0.4
		c0.5,0,0.8-0.1,1-0.3c0.2-0.2,0.3-0.5,0.3-1c0-0.5-0.1-0.8-0.3-1c-0.2-0.2-0.5-0.3-0.9-0.3h-0.5V32.8z"/>
	<path class="st6" d="M188.6,37.8c-0.9,0-1.5-0.2-1.9-0.7c-0.4-0.5-0.6-1.2-0.6-2.1v-3.2c0-0.5,0-0.9,0.1-1.2
		c0.1-0.3,0.2-0.6,0.4-0.9c0.2-0.2,0.4-0.4,0.8-0.6c0.3-0.1,0.7-0.2,1.2-0.2c0.9,0,1.5,0.2,1.9,0.7c0.4,0.5,0.6,1.2,0.6,2.1V35
		c0,0.4,0,0.8-0.1,1.2c-0.1,0.3-0.2,0.6-0.4,0.9c-0.2,0.3-0.4,0.4-0.8,0.6C189.4,37.7,189,37.8,188.6,37.8 M188.2,36.6
		c0.1,0,0.2,0.1,0.4,0.1c0.2,0,0.3,0,0.4-0.1c0.1,0,0.2-0.1,0.3-0.2c0.1-0.1,0.1-0.2,0.2-0.3c0-0.1,0.1-0.2,0.1-0.4
		c0-0.1,0-0.3,0-0.4v-3.9c0-0.2,0-0.4,0-0.5c0-0.1-0.1-0.3-0.1-0.4c-0.1-0.1-0.2-0.2-0.3-0.3c-0.1-0.1-0.3-0.1-0.5-0.1
		c-0.2,0-0.3,0-0.5,0.1c-0.1,0.1-0.2,0.2-0.3,0.3c-0.1,0.1-0.1,0.3-0.1,0.4c0,0.1,0,0.3,0,0.5v3.9c0,0.2,0,0.3,0,0.4
		c0,0.1,0,0.2,0.1,0.4c0,0.1,0.1,0.2,0.1,0.3C188,36.5,188.1,36.5,188.2,36.6"/>
	<path class="st6" d="M419.4,32.2h-6.8v-3.4l5.9-13.8h4.8V29h2.2v3.2h-2.2v5.3h-3.9V32.2z M419.4,29v-9.6L416,29H419.4z"/>
	<polygon class="st6" points="434.7,23.6 434.7,15 438.3,15 438.3,16.1 436.2,16.1 436.2,18.6 437.8,18.6 437.8,19.7 436.2,19.7 
		436.2,22.5 438.3,22.5 438.3,23.6 	"/>
	<path class="st6" d="M439.3,23.6V15h2c0.5,0,1,0.1,1.3,0.2c0.3,0.1,0.6,0.3,0.8,0.5c0.2,0.2,0.4,0.5,0.4,0.8
		c0.1,0.3,0.1,0.7,0.1,1.2v3.1c0,0.5,0,0.9-0.1,1.2c-0.1,0.3-0.2,0.6-0.4,0.9c-0.2,0.2-0.5,0.4-0.8,0.5c-0.3,0.1-0.8,0.2-1.3,0.2
		H439.3z M440.8,22.5h0.4c0.2,0,0.3,0,0.4,0c0.1,0,0.2-0.1,0.3-0.1c0.1,0,0.1-0.1,0.2-0.2c0.1-0.1,0.1-0.2,0.1-0.2
		c0-0.1,0-0.2,0.1-0.3c0-0.1,0-0.3,0-0.4c0-0.1,0-0.3,0-0.5v-3.1c0-0.2,0-0.4,0-0.5c0-0.1,0-0.3,0-0.4c0-0.1-0.1-0.2-0.1-0.3
		c-0.1-0.1-0.1-0.1-0.2-0.2c-0.1-0.1-0.2-0.1-0.3-0.1s-0.3,0-0.5,0h-0.4V22.5z"/>
	<path class="st6" d="M447.6,23.7c-0.4,0-0.7,0-1-0.1c-0.3-0.1-0.5-0.2-0.7-0.4s-0.3-0.4-0.4-0.6c-0.1-0.3-0.2-0.5-0.2-0.8
		c0-0.3-0.1-0.6-0.1-1V15h1.5v5.9c0,0.2,0,0.4,0,0.5c0,0.1,0,0.3,0.1,0.4c0,0.2,0.1,0.3,0.1,0.4c0.1,0.1,0.2,0.2,0.3,0.2
		c0.1,0.1,0.2,0.1,0.4,0.1c0.2,0,0.3,0,0.4-0.1c0.1-0.1,0.2-0.1,0.3-0.2c0.1-0.1,0.1-0.2,0.1-0.4c0-0.2,0.1-0.3,0.1-0.4
		c0-0.1,0-0.3,0-0.5V15h1.5v5.7c0,0.4,0,0.7-0.1,1c0,0.3-0.1,0.6-0.2,0.8c-0.1,0.3-0.3,0.5-0.4,0.6c-0.2,0.2-0.4,0.3-0.7,0.4
		C448.3,23.7,447.9,23.7,447.6,23.7"/>
	<path class="st6" d="M453.6,23.7c-0.4,0-0.7,0-1-0.1s-0.5-0.2-0.7-0.4c-0.2-0.2-0.3-0.4-0.5-0.6c-0.1-0.2-0.2-0.5-0.2-0.8
		c0-0.3-0.1-0.6-0.1-1v-3c0-0.4,0-0.7,0.1-1c0-0.3,0.1-0.6,0.2-0.8c0.1-0.2,0.3-0.5,0.4-0.6c0.2-0.2,0.4-0.3,0.7-0.4
		c0.3-0.1,0.6-0.1,1-0.1c0.4,0,0.8,0.1,1.1,0.2c0.3,0.1,0.5,0.3,0.7,0.5c0.2,0.2,0.3,0.5,0.4,0.8c0.1,0.3,0.1,0.6,0.1,1v0.7h-1.5
		v-0.7c0-0.4,0-0.7-0.1-0.9c-0.1-0.3-0.3-0.4-0.7-0.5h-0.1c-0.1,0-0.2,0-0.3,0c-0.1,0-0.2,0.1-0.2,0.1c-0.1,0.1-0.1,0.1-0.2,0.2
		c0,0.1-0.1,0.2-0.1,0.3c0,0.1,0,0.2,0,0.3c0,0.1,0,0.2,0,0.4v3.6c0,0.5,0.1,0.9,0.2,1.1c0.1,0.2,0.4,0.3,0.7,0.3c0.1,0,0.2,0,0.3,0
		c0.1,0,0.2-0.1,0.2-0.1c0.1,0,0.1-0.1,0.1-0.2c0-0.1,0.1-0.1,0.1-0.2c0-0.1,0-0.2,0-0.3c0-0.1,0-0.2,0-0.3c0-0.1,0-0.2,0-0.3v-0.8
		h1.5v0.7c0,0.3,0,0.6-0.1,0.9c0,0.3-0.1,0.5-0.2,0.7s-0.2,0.4-0.4,0.6c-0.2,0.1-0.4,0.3-0.7,0.4C454.2,23.7,453.9,23.7,453.6,23.7"
		/>
	<path class="st6" d="M456.6,23.6l1.7-8.6h1.6l1.7,8.6h-1.5l-0.3-2h-1.5l-0.4,2H456.6z M458.6,20.6h1.2l-0.6-3.5L458.6,20.6z"/>
	<path class="st6" d="M465,23.7c-0.4,0-0.7,0-1-0.1c-0.3-0.1-0.5-0.2-0.7-0.4c-0.2-0.2-0.3-0.4-0.5-0.6c-0.1-0.2-0.2-0.5-0.2-0.8
		c0-0.3-0.1-0.6-0.1-1v-3c0-0.4,0-0.7,0.1-1c0-0.3,0.1-0.6,0.2-0.8c0.1-0.2,0.3-0.5,0.4-0.6c0.2-0.2,0.4-0.3,0.7-0.4
		c0.3-0.1,0.6-0.1,1-0.1c0.4,0,0.8,0.1,1.1,0.2c0.3,0.1,0.5,0.3,0.7,0.5c0.2,0.2,0.3,0.5,0.4,0.8c0.1,0.3,0.1,0.6,0.1,1v0.7h-1.5
		v-0.7c0-0.4,0-0.7-0.1-0.9c-0.1-0.3-0.3-0.4-0.7-0.5H465c-0.1,0-0.2,0-0.3,0c-0.1,0-0.2,0.1-0.2,0.1c-0.1,0.1-0.1,0.1-0.2,0.2
		c0,0.1-0.1,0.2-0.1,0.3c0,0.1,0,0.2,0,0.3c0,0.1,0,0.2,0,0.4v3.6c0,0.5,0.1,0.9,0.2,1.1c0.1,0.2,0.4,0.3,0.7,0.3c0.1,0,0.2,0,0.3,0
		c0.1,0,0.2-0.1,0.2-0.1c0.1,0,0.1-0.1,0.1-0.2c0-0.1,0.1-0.1,0.1-0.2c0-0.1,0-0.2,0-0.3c0-0.1,0-0.2,0-0.3c0-0.1,0-0.2,0-0.3v-0.8
		h1.5v0.7c0,0.3,0,0.6-0.1,0.9c0,0.3-0.1,0.5-0.2,0.7s-0.3,0.4-0.4,0.6c-0.2,0.1-0.4,0.3-0.7,0.4C465.6,23.7,465.3,23.7,465,23.7"/>
	<rect x="468.5" y="15" class="st6" width="1.5" height="8.6"/>
	<path class="st6" d="M473.8,23.7c-0.9,0-1.5-0.2-1.9-0.7c-0.4-0.5-0.6-1.2-0.6-2.1v-3.2c0-0.5,0-0.9,0.1-1.2
		c0.1-0.3,0.2-0.6,0.4-0.9c0.2-0.2,0.4-0.4,0.8-0.6c0.3-0.1,0.7-0.2,1.2-0.2c0.9,0,1.5,0.2,1.9,0.7c0.4,0.5,0.6,1.2,0.6,2.1v3.2
		c0,0.4,0,0.8-0.1,1.2c-0.1,0.3-0.2,0.6-0.4,0.9c-0.2,0.3-0.4,0.4-0.8,0.6C474.6,23.7,474.2,23.7,473.8,23.7 M473.4,22.5
		c0.1,0,0.2,0.1,0.4,0.1c0.2,0,0.3,0,0.4-0.1c0.1,0,0.2-0.1,0.3-0.2c0.1-0.1,0.1-0.2,0.2-0.3c0-0.1,0.1-0.2,0.1-0.4
		c0-0.1,0-0.3,0-0.4v-3.9c0-0.2,0-0.4,0-0.5c0-0.1-0.1-0.3-0.1-0.4c-0.1-0.1-0.2-0.2-0.3-0.3c-0.1-0.1-0.3-0.1-0.5-0.1
		c-0.2,0-0.3,0-0.5,0.1c-0.1,0.1-0.2,0.2-0.3,0.3c-0.1,0.1-0.1,0.3-0.1,0.4c0,0.1,0,0.3,0,0.5v3.9c0,0.2,0,0.3,0,0.4
		c0,0.1,0,0.2,0.1,0.4c0,0.1,0.1,0.2,0.1,0.3C473.2,22.4,473.3,22.5,473.4,22.5 M473.4,14.3l0.6-2.1h1.5l-1.3,2.1H473.4z"/>
	<polygon class="st6" points="477.5,23.6 477.5,15 478.5,15 480.6,19.9 480.6,15 481.9,15 481.9,23.6 480.9,23.6 478.8,18.5 
		478.8,23.6 	"/>
	<path class="st6" d="M434.7,37.7v-8.6h2c0.5,0,1,0.1,1.3,0.2c0.3,0.1,0.6,0.3,0.8,0.5c0.2,0.2,0.4,0.5,0.4,0.8
		c0.1,0.3,0.1,0.7,0.1,1.2v3.1c0,0.5,0,0.9-0.1,1.2c-0.1,0.3-0.2,0.6-0.4,0.9c-0.2,0.2-0.5,0.4-0.8,0.5c-0.3,0.1-0.8,0.2-1.3,0.2
		H434.7z M436.2,36.6h0.4c0.2,0,0.3,0,0.4,0c0.1,0,0.2-0.1,0.3-0.1c0.1,0,0.1-0.1,0.2-0.2c0.1-0.1,0.1-0.2,0.1-0.2
		c0-0.1,0-0.2,0.1-0.3c0-0.1,0-0.3,0-0.4c0-0.1,0-0.3,0-0.5v-3.1c0-0.2,0-0.4,0-0.5c0-0.1,0-0.3-0.1-0.4c0-0.1-0.1-0.2-0.1-0.3
		c-0.1-0.1-0.1-0.1-0.2-0.2c-0.1-0.1-0.2-0.1-0.3-0.1c-0.1,0-0.3,0-0.5,0h-0.4V36.6z"/>
	<polygon class="st6" points="440.5,37.7 440.5,29.1 444.1,29.1 444.1,30.2 442,30.2 442,32.7 443.7,32.7 443.7,33.8 442,33.8 
		442,36.6 444.1,36.6 444.1,37.7 	"/>
	<path class="st6" d="M449.8,37.8c-0.4,0-0.7,0-1-0.1c-0.3-0.1-0.5-0.2-0.7-0.4c-0.2-0.2-0.3-0.4-0.5-0.6c-0.1-0.2-0.2-0.5-0.2-0.8
		c0-0.3-0.1-0.6-0.1-1v-3c0-0.4,0-0.7,0.1-1c0-0.3,0.1-0.6,0.2-0.8c0.1-0.2,0.3-0.5,0.4-0.6c0.2-0.2,0.4-0.3,0.7-0.4
		c0.3-0.1,0.6-0.1,1-0.1c0.4,0,0.8,0.1,1.1,0.2c0.3,0.1,0.5,0.3,0.7,0.5c0.2,0.2,0.3,0.5,0.4,0.8c0.1,0.3,0.1,0.6,0.1,1v0.7h-1.5
		v-0.7c0-0.4,0-0.7-0.1-0.9c-0.1-0.3-0.3-0.4-0.7-0.5h-0.1c-0.1,0-0.2,0-0.3,0c-0.1,0-0.2,0.1-0.2,0.1c-0.1,0.1-0.1,0.1-0.2,0.2
		c0,0.1-0.1,0.2-0.1,0.3c0,0.1,0,0.2,0,0.3c0,0.1,0,0.2,0,0.4v3.6c0,0.5,0.1,0.9,0.2,1.1c0.1,0.2,0.4,0.3,0.7,0.3c0.1,0,0.2,0,0.3,0
		c0.1,0,0.2-0.1,0.2-0.1c0.1,0,0.1-0.1,0.1-0.2c0-0.1,0.1-0.1,0.1-0.2c0-0.1,0-0.2,0-0.3c0-0.1,0-0.2,0-0.3c0-0.1,0-0.2,0-0.3v-0.8
		h1.5v0.7c0,0.3,0,0.6-0.1,0.9c0,0.3-0.1,0.5-0.2,0.7c-0.1,0.2-0.2,0.4-0.4,0.6c-0.2,0.2-0.4,0.3-0.7,0.4
		C450.5,37.7,450.2,37.8,449.8,37.8"/>
	<path class="st6" d="M452.7,37.7l1.7-8.6h1.6l1.7,8.6h-1.5l-0.3-2h-1.5l-0.4,2H452.7z M454.7,34.7h1.2l-0.6-3.5L454.7,34.7z"/>
	<polygon class="st6" points="458.6,37.7 458.6,29.1 460.2,29.1 460.2,36.6 462.2,36.6 462.2,37.7 	"/>
	<rect x="463.1" y="29.1" class="st6" width="1.5" height="8.6"/>
	<path class="st6" d="M465.9,37.7v-8.6h2c0.5,0,1,0.1,1.3,0.2c0.3,0.1,0.6,0.3,0.8,0.5c0.2,0.2,0.4,0.5,0.4,0.8
		c0.1,0.3,0.1,0.7,0.1,1.2v3.1c0,0.5,0,0.9-0.1,1.2c-0.1,0.3-0.2,0.6-0.4,0.9c-0.2,0.2-0.5,0.4-0.8,0.5c-0.3,0.1-0.8,0.2-1.3,0.2
		H465.9z M467.4,36.6h0.4c0.2,0,0.3,0,0.4,0c0.1,0,0.2-0.1,0.3-0.1c0.1,0,0.1-0.1,0.2-0.2c0.1-0.1,0.1-0.2,0.1-0.2
		c0-0.1,0-0.2,0.1-0.3c0-0.1,0-0.3,0-0.4c0-0.1,0-0.3,0-0.5v-3.1c0-0.2,0-0.4,0-0.5c0-0.1,0-0.3,0-0.4c0-0.1-0.1-0.2-0.1-0.3
		c-0.1-0.1-0.1-0.1-0.2-0.2c-0.1-0.1-0.2-0.1-0.3-0.1c-0.1,0-0.3,0-0.5,0h-0.4V36.6z"/>
	<path class="st6" d="M471.1,37.7l1.7-8.6h1.6l1.7,8.6h-1.5l-0.3-2H473l-0.4,2H471.1z M473.1,34.7h1.2l-0.6-3.5L473.1,34.7z"/>
	<path class="st6" d="M477.1,37.7v-8.6h2c0.5,0,1,0.1,1.3,0.2c0.3,0.1,0.6,0.3,0.8,0.5c0.2,0.2,0.4,0.5,0.4,0.8
		c0.1,0.3,0.1,0.7,0.1,1.2v3.1c0,0.5,0,0.9-0.1,1.2c-0.1,0.3-0.2,0.6-0.4,0.9c-0.2,0.2-0.5,0.4-0.8,0.5c-0.3,0.1-0.8,0.2-1.3,0.2
		H477.1z M478.6,36.6h0.4c0.2,0,0.3,0,0.4,0c0.1,0,0.2-0.1,0.3-0.1c0.1,0,0.1-0.1,0.2-0.2c0.1-0.1,0.1-0.2,0.1-0.2
		c0-0.1,0-0.2,0.1-0.3c0-0.1,0-0.3,0-0.4c0-0.1,0-0.3,0-0.5v-3.1c0-0.2,0-0.4,0-0.5c0-0.1,0-0.3,0-0.4c0-0.1-0.1-0.2-0.1-0.3
		c-0.1-0.1-0.1-0.1-0.2-0.2c-0.1-0.1-0.2-0.1-0.3-0.1c-0.1,0-0.3,0-0.5,0h-0.4V36.6z"/>
	<path class="st6" d="M547.6,37.1c-0.9-0.5-1.4-1.3-1.7-2.3c-0.3-1-0.5-2.2-0.5-3.8h4.2c0,1.3,0.1,2.2,0.4,2.8
		c0.2,0.6,0.7,0.9,1.4,0.9c0.6,0,1-0.2,1.2-0.6c0.3-0.4,0.4-0.9,0.5-1.5c0.1-0.6,0.1-1.6,0.1-2.8c0-1.4-0.1-2.4-0.4-3.1
		c-0.3-0.7-0.8-1-1.5-1c-1,0-1.6,0.7-1.9,2h-3.7l0.3-12.8h10.4v3.7h-6.8l-0.3,5c0.3-0.3,0.7-0.6,1.3-0.8c0.6-0.2,1.3-0.3,2-0.3
		c1.5,0,2.7,0.6,3.5,1.9c0.8,1.2,1.2,3,1.2,5.2c0,1.8-0.2,3.3-0.5,4.4c-0.3,1.2-0.9,2.1-1.8,2.8c-0.9,0.7-2.1,1-3.8,1
		C549.7,37.9,548.5,37.6,547.6,37.1"/>
	<rect x="566.9" y="15" class="st6" width="1.5" height="8.6"/>
	<path class="st6" d="M571.9,23.7c-0.8,0-1.4-0.3-1.8-0.8c-0.4-0.5-0.5-1.2-0.5-2.2V18c0-0.5,0-0.9,0.1-1.3c0.1-0.4,0.2-0.7,0.4-0.9
		c0.2-0.3,0.4-0.5,0.8-0.6c0.3-0.1,0.7-0.2,1.2-0.2c0.9,0,1.5,0.2,1.8,0.6c0.4,0.4,0.6,1,0.6,1.9v0.4h-1.5v-0.4c0-0.2,0-0.3,0-0.5
		c0-0.1,0-0.2-0.1-0.4c0-0.1-0.1-0.2-0.1-0.3c-0.1-0.1-0.1-0.1-0.3-0.2c-0.1,0-0.2-0.1-0.4-0.1c-0.1,0-0.2,0-0.3,0
		c-0.1,0-0.2,0.1-0.2,0.1c-0.1,0-0.1,0.1-0.2,0.2c0,0.1-0.1,0.2-0.1,0.2c0,0.1,0,0.2-0.1,0.3c0,0.1,0,0.2,0,0.3c0,0.1,0,0.2,0,0.3
		v3.5c0,0.5,0.1,0.9,0.2,1.1c0.1,0.2,0.4,0.4,0.7,0.4c0.2,0,0.3,0,0.5-0.1c0.1-0.1,0.2-0.2,0.3-0.3c0.1-0.1,0.1-0.3,0.2-0.5
		c0-0.2,0-0.4,0-0.7v-0.7h-0.9v-1h2.3v4.4h-1l-0.1-0.9C573.1,23.4,572.6,23.7,571.9,23.7"/>
	<path class="st6" d="M577.9,23.7c-0.4,0-0.7,0-1-0.1c-0.3-0.1-0.5-0.2-0.7-0.4c-0.2-0.2-0.3-0.4-0.4-0.6c-0.1-0.3-0.2-0.5-0.2-0.8
		c0-0.3-0.1-0.6-0.1-1V15h1.5v5.9c0,0.2,0,0.4,0,0.5c0,0.1,0,0.3,0.1,0.4c0,0.2,0.1,0.3,0.1,0.4c0.1,0.1,0.2,0.2,0.3,0.2
		c0.1,0.1,0.2,0.1,0.4,0.1c0.2,0,0.3,0,0.4-0.1c0.1-0.1,0.2-0.1,0.3-0.2c0.1-0.1,0.1-0.2,0.1-0.4c0-0.2,0.1-0.3,0.1-0.4
		c0-0.1,0-0.3,0-0.5V15h1.5v5.7c0,0.4,0,0.7-0.1,1c0,0.3-0.1,0.6-0.2,0.8c-0.1,0.3-0.3,0.5-0.4,0.6s-0.4,0.3-0.7,0.4
		C578.7,23.7,578.3,23.7,577.9,23.7"/>
	<path class="st6" d="M581.1,23.6l1.7-8.6h1.6l1.7,8.6h-1.5l-0.3-2h-1.5l-0.4,2H581.1z M583.1,20.6h1.2l-0.6-3.5L583.1,20.6z"/>
	<polygon class="st6" points="587,23.6 587,15 588.6,15 588.6,22.5 590.6,22.5 590.6,23.6 	"/>
	<path class="st6" d="M591.4,23.6V15h2c0.5,0,1,0.1,1.3,0.2c0.3,0.1,0.6,0.3,0.8,0.5c0.2,0.2,0.4,0.5,0.4,0.8
		c0.1,0.3,0.1,0.7,0.1,1.2v3.1c0,0.5,0,0.9-0.1,1.2c-0.1,0.3-0.2,0.6-0.4,0.9c-0.2,0.2-0.5,0.4-0.8,0.5c-0.3,0.1-0.8,0.2-1.3,0.2
		H591.4z M593,22.5h0.4c0.2,0,0.3,0,0.4,0c0.1,0,0.2-0.1,0.3-0.1c0.1,0,0.1-0.1,0.2-0.2c0.1-0.1,0.1-0.2,0.1-0.2
		c0-0.1,0-0.2,0.1-0.3c0-0.1,0-0.3,0-0.4c0-0.1,0-0.3,0-0.5v-3.1c0-0.2,0-0.4,0-0.5c0-0.1,0-0.3,0-0.4c0-0.1-0.1-0.2-0.1-0.3
		s-0.1-0.1-0.2-0.2c-0.1-0.1-0.2-0.1-0.3-0.1s-0.3,0-0.5,0H593V22.5z"/>
	<path class="st6" d="M596.6,23.6l1.7-8.6h1.6l1.7,8.6h-1.5l-0.3-2h-1.5l-0.4,2H596.6z M598.6,20.6h1.2l-0.6-3.5L598.6,20.6z"/>
	<path class="st6" d="M602.6,23.6V15h2c0.5,0,1,0.1,1.3,0.2c0.3,0.1,0.6,0.3,0.8,0.5c0.2,0.2,0.4,0.5,0.4,0.8
		c0.1,0.3,0.1,0.7,0.1,1.2v3.1c0,0.5,0,0.9-0.1,1.2c-0.1,0.3-0.2,0.6-0.4,0.9c-0.2,0.2-0.5,0.4-0.8,0.5s-0.8,0.2-1.3,0.2H602.6z
		 M604.1,22.5h0.4c0.2,0,0.3,0,0.4,0c0.1,0,0.2-0.1,0.3-0.1c0.1,0,0.1-0.1,0.2-0.2c0.1-0.1,0.1-0.2,0.1-0.2c0-0.1,0-0.2,0.1-0.3
		c0-0.1,0-0.3,0-0.4c0-0.1,0-0.3,0-0.5v-3.1c0-0.2,0-0.4,0-0.5c0-0.1,0-0.3,0-0.4s-0.1-0.2-0.1-0.3s-0.1-0.1-0.2-0.2
		c-0.1-0.1-0.2-0.1-0.3-0.1c-0.1,0-0.3,0-0.5,0h-0.4V22.5z"/>
	<path class="st6" d="M566.9,37.7v-8.6h2c0.5,0,1,0.1,1.3,0.2c0.3,0.1,0.6,0.3,0.8,0.5c0.2,0.2,0.4,0.5,0.4,0.8
		c0.1,0.3,0.1,0.7,0.1,1.2v3.1c0,0.5,0,0.9-0.1,1.2c-0.1,0.3-0.2,0.6-0.4,0.9c-0.2,0.2-0.5,0.4-0.8,0.5c-0.3,0.1-0.8,0.2-1.3,0.2
		H566.9z M568.4,36.6h0.4c0.2,0,0.3,0,0.4,0c0.1,0,0.2-0.1,0.3-0.1c0.1,0,0.1-0.1,0.2-0.2c0.1-0.1,0.1-0.2,0.1-0.2
		c0-0.1,0-0.2,0.1-0.3c0-0.1,0-0.3,0-0.4c0-0.1,0-0.3,0-0.5v-3.1c0-0.2,0-0.4,0-0.5c0-0.1,0-0.3-0.1-0.4c0-0.1-0.1-0.2-0.1-0.3
		c-0.1-0.1-0.1-0.1-0.2-0.2c-0.1-0.1-0.2-0.1-0.3-0.1c-0.1,0-0.3,0-0.5,0h-0.4V36.6z"/>
	<polygon class="st6" points="572.7,37.7 572.7,29.1 576.3,29.1 576.3,30.2 574.3,30.2 574.3,32.7 575.9,32.7 575.9,33.8 
		574.3,33.8 574.3,36.6 576.3,36.6 576.3,37.7 	"/>
	<path class="st6" d="M581.8,37.8c-0.8,0-1.4-0.3-1.8-0.8c-0.4-0.5-0.5-1.2-0.5-2.2V32c0-0.5,0-0.9,0.1-1.3c0.1-0.4,0.2-0.7,0.4-0.9
		c0.2-0.3,0.4-0.5,0.8-0.6c0.3-0.1,0.7-0.2,1.2-0.2c0.9,0,1.5,0.2,1.8,0.6c0.4,0.4,0.6,1,0.6,1.9v0.4h-1.5v-0.4c0-0.2,0-0.3,0-0.5
		c0-0.1,0-0.2-0.1-0.4c0-0.1-0.1-0.2-0.1-0.3c-0.1-0.1-0.1-0.1-0.3-0.2c-0.1,0-0.2-0.1-0.4-0.1c-0.1,0-0.2,0-0.3,0
		c-0.1,0-0.2,0.1-0.2,0.1c-0.1,0-0.1,0.1-0.2,0.2c0,0.1-0.1,0.2-0.1,0.2c0,0.1,0,0.2-0.1,0.3c0,0.1,0,0.2,0,0.3c0,0.1,0,0.2,0,0.3
		v3.5c0,0.5,0.1,0.9,0.2,1.1c0.1,0.2,0.4,0.4,0.7,0.4c0.2,0,0.3,0,0.5-0.1c0.1-0.1,0.2-0.2,0.3-0.3c0.1-0.1,0.1-0.3,0.2-0.5
		c0-0.2,0-0.4,0-0.7v-0.7h-0.9v-1h2.3v4.4h-1l-0.1-0.9C583,37.5,582.6,37.8,581.8,37.8"/>
	<path class="st6" d="M585.6,37.7v-8.6h3.6v1.1h-2v2.5h1.6v1.1h-1.6v2.8h2.1v1.1H585.6z M587,28.4l0.6-2.1h1.5l-1.3,2.1H587z"/>
	<polygon class="st6" points="590,37.7 590,29.1 591.1,29.1 593.2,34 593.2,29.1 594.5,29.1 594.5,37.7 593.5,37.7 591.4,32.6 
		591.4,37.7 	"/>
	<polygon class="st6" points="595.8,37.7 595.8,29.1 599.3,29.1 599.3,30.2 597.3,30.2 597.3,32.7 598.9,32.7 598.9,33.8 
		597.3,33.8 597.3,36.6 599.4,36.6 599.4,37.7 	"/>
	<path class="st6" d="M600.2,37.7v-8.6h2c0.5,0,0.8,0,1.2,0.1c0.3,0.1,0.6,0.2,0.8,0.4c0.2,0.2,0.4,0.4,0.5,0.7
		c0.1,0.3,0.2,0.7,0.2,1.1c0,0.5-0.1,1-0.2,1.3c-0.2,0.3-0.4,0.6-0.8,0.7l1.2,4.2h-1.6l-1-3.9h-0.7v3.9H600.2z M601.8,32.8h0.4
		c0.5,0,0.8-0.1,1-0.3c0.2-0.2,0.3-0.5,0.3-1c0-0.5-0.1-0.8-0.3-1c-0.2-0.2-0.5-0.3-0.9-0.3h-0.5V32.8z"/>
	<path class="st6" d="M608.4,37.8c-0.9,0-1.5-0.2-1.9-0.7c-0.4-0.5-0.6-1.2-0.6-2.1v-3.2c0-0.5,0-0.9,0.1-1.2
		c0.1-0.3,0.2-0.6,0.4-0.9c0.2-0.2,0.4-0.4,0.8-0.6c0.3-0.1,0.7-0.2,1.2-0.2c0.9,0,1.5,0.2,1.9,0.7c0.4,0.5,0.6,1.2,0.6,2.1V35
		c0,0.4,0,0.8-0.1,1.2c-0.1,0.3-0.2,0.6-0.4,0.9c-0.2,0.3-0.4,0.4-0.8,0.6C609.2,37.7,608.8,37.8,608.4,37.8 M608,36.6
		c0.1,0,0.2,0.1,0.4,0.1c0.2,0,0.3,0,0.4-0.1c0.1,0,0.2-0.1,0.3-0.2c0.1-0.1,0.1-0.2,0.2-0.3c0-0.1,0.1-0.2,0.1-0.4
		c0-0.1,0-0.3,0-0.4v-3.9c0-0.2,0-0.4,0-0.5c0-0.1-0.1-0.3-0.1-0.4c-0.1-0.1-0.2-0.2-0.3-0.3c-0.1-0.1-0.3-0.1-0.5-0.1
		c-0.2,0-0.3,0-0.5,0.1c-0.1,0.1-0.2,0.2-0.3,0.3c-0.1,0.1-0.1,0.3-0.1,0.4c0,0.1,0,0.3,0,0.5v3.9c0,0.2,0,0.3,0,0.4
		c0,0.1,0,0.2,0.1,0.4c0,0.1,0.1,0.2,0.1,0.3C607.8,36.5,607.9,36.5,608,36.6"/>
	<path class="st6" d="M679,35.8c-1-1.3-1.5-3.1-1.5-5.4v-8c0-2.4,0.4-4.3,1.3-5.7c0.9-1.3,2.5-2,4.7-2c2,0,3.4,0.5,4.3,1.4
		c0.9,0.9,1.3,2.4,1.4,4.3l0,0.4h-4.1c0-1-0.1-1.8-0.3-2.2c-0.2-0.4-0.6-0.6-1.3-0.6c-0.5,0-0.8,0.1-1.1,0.4
		c-0.3,0.3-0.4,0.7-0.5,1.4c-0.1,0.6-0.2,1.6-0.2,2.7v2.3c0.2-0.4,0.6-0.7,1.2-1c0.5-0.2,1.1-0.3,1.8-0.3c1.7,0,2.9,0.6,3.6,1.7
		c0.7,1.2,1.1,2.7,1.1,4.7c0,2.5-0.5,4.4-1.4,5.8c-0.9,1.4-2.5,2-4.6,2C681.5,37.8,680,37.2,679,35.8 M684.9,33.7
		c0.2-0.6,0.3-1.6,0.3-3c0-0.9,0-1.7-0.1-2.2c-0.1-0.5-0.2-0.9-0.5-1.2c-0.2-0.3-0.6-0.5-1.2-0.5c-0.4,0-0.7,0.1-1,0.3
		c-0.3,0.2-0.5,0.4-0.7,0.7v3.6c0,2.1,0.6,3.2,1.8,3.2C684.3,34.7,684.7,34.3,684.9,33.7"/>
	<path class="st6" d="M698.6,23.6l1.7-8.6h1.6l1.7,8.6h-1.5l-0.3-2h-1.5l-0.4,2H698.6z M700.6,20.6h1.2l-0.6-3.5L700.6,20.6z"/>
	<path class="st6" d="M706.7,23.7c-0.8,0-1.4-0.3-1.8-0.8c-0.4-0.5-0.5-1.2-0.5-2.2V18c0-0.5,0-0.9,0.1-1.3c0.1-0.4,0.2-0.7,0.4-0.9
		c0.2-0.3,0.4-0.5,0.8-0.6c0.3-0.1,0.7-0.2,1.2-0.2c0.9,0,1.5,0.2,1.8,0.6c0.4,0.4,0.6,1,0.6,1.9v0.4h-1.5v-0.4c0-0.2,0-0.3,0-0.5
		c0-0.1,0-0.2-0.1-0.4c0-0.1-0.1-0.2-0.1-0.3c-0.1-0.1-0.1-0.1-0.3-0.2c-0.1,0-0.2-0.1-0.4-0.1c-0.1,0-0.2,0-0.3,0
		c-0.1,0-0.2,0.1-0.2,0.1c-0.1,0-0.1,0.1-0.2,0.2c0,0.1-0.1,0.2-0.1,0.2c0,0.1,0,0.2-0.1,0.3c0,0.1,0,0.2,0,0.3c0,0.1,0,0.2,0,0.3
		v3.5c0,0.5,0.1,0.9,0.2,1.1c0.1,0.2,0.4,0.4,0.7,0.4c0.2,0,0.3,0,0.5-0.1c0.1-0.1,0.2-0.2,0.3-0.3c0.1-0.1,0.1-0.3,0.2-0.5
		c0-0.2,0-0.4,0-0.7v-0.7h-0.9v-1h2.3v4.4h-1l-0.1-0.9C707.9,23.4,707.4,23.7,706.7,23.7"/>
	<path class="st6" d="M712.7,23.7c-0.4,0-0.7,0-1-0.1s-0.5-0.2-0.7-0.4c-0.2-0.2-0.3-0.4-0.4-0.6c-0.1-0.3-0.2-0.5-0.2-0.8
		c0-0.3-0.1-0.6-0.1-1V15h1.5v5.9c0,0.2,0,0.4,0,0.5c0,0.1,0,0.3,0.1,0.4c0,0.2,0.1,0.3,0.1,0.4c0.1,0.1,0.2,0.2,0.3,0.2
		c0.1,0.1,0.2,0.1,0.4,0.1c0.2,0,0.3,0,0.4-0.1c0.1-0.1,0.2-0.1,0.3-0.2c0.1-0.1,0.1-0.2,0.1-0.4c0-0.2,0.1-0.3,0.1-0.4
		c0-0.1,0-0.3,0-0.5V15h1.5v5.7c0,0.4,0,0.7-0.1,1c0,0.3-0.1,0.6-0.2,0.8c-0.1,0.3-0.3,0.5-0.4,0.6c-0.2,0.2-0.4,0.3-0.7,0.4
		C713.4,23.7,713.1,23.7,712.7,23.7"/>
	<path class="st6" d="M715.9,23.6l1.7-8.6h1.6l1.7,8.6h-1.5l-0.3-2h-1.5l-0.4,2H715.9z M717.9,20.6h1.2l-0.6-3.5L717.9,20.6z"/>
	<polygon class="st6" points="724.3,23.6 724.3,15 725.9,15 725.9,22.5 727.9,22.5 727.9,23.6 	"/>
	<rect x="728.8" y="15" class="st6" width="1.5" height="8.6"/>
	<polygon class="st6" points="731.6,23.6 731.7,15 733.3,15 734.6,21.1 735.8,15 737.4,15 737.6,23.6 736.4,23.6 736.3,17.7 
		735,23.6 734.1,23.6 732.9,17.7 732.8,23.6 	"/>
	<path class="st6" d="M738.8,23.6V15h2.5c1.5,0,2.2,0.8,2.2,2.4c0,0.8-0.2,1.4-0.6,1.8c-0.4,0.4-1,0.6-1.7,0.6h-0.8v3.8H738.8z
		 M740.3,18.7h0.5c0.4,0,0.7-0.1,0.9-0.3c0.2-0.2,0.2-0.5,0.2-1c0-0.3,0-0.5,0-0.6c0-0.1-0.1-0.3-0.1-0.4c-0.1-0.1-0.2-0.2-0.3-0.2
		c-0.2,0-0.4-0.1-0.6-0.1h-0.5V18.7z"/>
	<rect x="744.3" y="15" class="st6" width="1.5" height="8.6"/>
	<path class="st6" d="M746.6,23.6l1.7-8.6h1.6l1.7,8.6h-1.5l-0.3-2h-1.5l-0.4,2H746.6z M748.6,20.6h1.2l-0.6-3.5L748.6,20.6z"/>
	<polygon class="st6" points="700.3,37.7 700.3,34.4 698.5,29.1 700,29.1 701,32.5 702.1,29.1 703.5,29.1 701.8,34.4 701.8,37.7 	
		"/>
	<path class="st6" d="M708.9,37.8c-1.5,0-2.3-0.9-2.4-2.6l1.4-0.3c0,1.1,0.4,1.7,1,1.7c0.2,0,0.4-0.1,0.5-0.2
		c0.1-0.1,0.2-0.3,0.2-0.6c0-0.2,0-0.5-0.1-0.7c-0.1-0.2-0.2-0.4-0.3-0.5c-0.1-0.1-0.3-0.3-0.5-0.5l-1.1-1c-0.3-0.3-0.6-0.6-0.7-0.9
		c-0.2-0.3-0.2-0.7-0.2-1.2c0-0.7,0.2-1.2,0.6-1.6c0.4-0.4,0.9-0.6,1.6-0.6c0.3,0,0.6,0,0.8,0.1c0.2,0.1,0.4,0.2,0.6,0.3
		c0.2,0.1,0.3,0.3,0.4,0.5c0.1,0.2,0.2,0.4,0.2,0.6c0.1,0.2,0.1,0.5,0.1,0.7l-1.3,0.3c0-0.2,0-0.3,0-0.5c0-0.1,0-0.3-0.1-0.4
		c0-0.1-0.1-0.2-0.1-0.3c-0.1-0.1-0.1-0.1-0.2-0.2c-0.1,0-0.2-0.1-0.4-0.1c-0.2,0-0.4,0.1-0.5,0.2c-0.1,0.1-0.2,0.3-0.2,0.6
		c0,0.3,0.1,0.5,0.2,0.7c0.1,0.2,0.3,0.4,0.5,0.6l1.1,1c0.2,0.2,0.3,0.3,0.5,0.5c0.1,0.2,0.3,0.3,0.4,0.5c0.1,0.2,0.2,0.4,0.3,0.7
		c0.1,0.2,0.1,0.5,0.1,0.8c0,0.6-0.2,1.1-0.6,1.5C710.1,37.6,709.6,37.8,708.9,37.8"/>
	<path class="st6" d="M711.5,37.7l1.7-8.6h1.6l1.7,8.6h-1.5l-0.3-2h-1.5l-0.4,2H711.5z M713.5,34.7h1.2l-0.6-3.5L713.5,34.7z"/>
	<polygon class="st6" points="717.4,37.7 717.4,29.1 718.5,29.1 720.6,34 720.6,29.1 721.9,29.1 721.9,37.7 720.8,37.7 718.7,32.6 
		718.7,37.7 	"/>
	<polygon class="st6" points="723.1,37.7 723.1,29.1 726.7,29.1 726.7,30.2 724.7,30.2 724.7,32.7 726.3,32.7 726.3,33.8 
		724.7,33.8 724.7,36.6 726.7,36.6 726.7,37.7 	"/>
	<path class="st6" d="M727.1,37.7l1.7-8.6h1.6l1.7,8.6h-1.5l-0.3-2H729l-0.4,2H727.1z M729.1,34.7h1.2l-0.6-3.5L729.1,34.7z"/>
	<polygon class="st6" points="733,37.7 733.2,29.1 734.8,29.1 736,35.1 737.3,29.1 738.9,29.1 739,37.7 737.8,37.7 737.7,31.8 
		736.5,37.7 735.6,37.7 734.3,31.7 734.2,37.7 	"/>
	<rect x="740.3" y="29.1" class="st6" width="1.5" height="8.6"/>
	<polygon class="st6" points="743.1,37.7 743.1,29.1 746.7,29.1 746.7,30.2 744.7,30.2 744.7,32.7 746.3,32.7 746.3,33.8 
		744.7,33.8 744.7,36.6 746.7,36.6 746.7,37.7 	"/>
	<polygon class="st6" points="747.6,37.7 747.6,29.1 748.7,29.1 750.8,34 750.8,29.1 752.1,29.1 752.1,37.7 751,37.7 748.9,32.6 
		748.9,37.7 	"/>
	<polygon class="st6" points="754.1,37.7 754.1,30.2 752.7,30.2 752.7,29.1 757.1,29.1 757.1,30.2 755.7,30.2 755.7,37.7 	"/>
	<path class="st6" d="M760.1,37.8c-0.9,0-1.5-0.2-1.9-0.7c-0.4-0.5-0.6-1.2-0.6-2.1v-3.2c0-0.5,0-0.9,0.1-1.2
		c0.1-0.3,0.2-0.6,0.4-0.9c0.2-0.2,0.4-0.4,0.8-0.6c0.3-0.1,0.7-0.2,1.2-0.2c0.9,0,1.5,0.2,1.9,0.7c0.4,0.5,0.6,1.2,0.6,2.1V35
		c0,0.4,0,0.8-0.1,1.2c-0.1,0.3-0.2,0.6-0.4,0.9c-0.2,0.3-0.4,0.4-0.8,0.6C760.9,37.7,760.5,37.8,760.1,37.8 M759.7,36.6
		c0.1,0,0.2,0.1,0.4,0.1s0.3,0,0.4-0.1c0.1,0,0.2-0.1,0.3-0.2c0.1-0.1,0.1-0.2,0.2-0.3c0-0.1,0.1-0.2,0.1-0.4c0-0.1,0-0.3,0-0.4
		v-3.9c0-0.2,0-0.4,0-0.5c0-0.1-0.1-0.3-0.1-0.4c-0.1-0.1-0.2-0.2-0.3-0.3c-0.1-0.1-0.3-0.1-0.5-0.1c-0.2,0-0.3,0-0.5,0.1
		c-0.1,0.1-0.2,0.2-0.3,0.3c-0.1,0.1-0.1,0.3-0.1,0.4c0,0.1,0,0.3,0,0.5v3.9c0,0.2,0,0.3,0,0.4c0,0.1,0,0.2,0.1,0.4
		c0,0.1,0.1,0.2,0.1,0.3C759.5,36.5,759.6,36.5,759.7,36.6"/>
	<path class="st6" d="M282.2,36.2c-0.9-1.2-1.4-2.9-1.4-5v-0.8h4.3v0.7c0,1.1,0.2,2,0.4,2.5c0.3,0.5,0.7,0.8,1.4,0.8
		s1.1-0.3,1.4-0.8c0.2-0.5,0.3-1.3,0.3-2.5c0-1.2-0.2-2.1-0.5-2.7c-0.4-0.6-1-0.9-1.9-0.9c-0.1,0-0.3,0-0.8,0v-3.1h0.7
		c1,0,1.6-0.3,2-0.8c0.4-0.5,0.6-1.4,0.6-2.6c0-1-0.1-1.7-0.4-2.1c-0.3-0.5-0.7-0.7-1.4-0.7c-0.6,0-1.1,0.3-1.3,0.7
		c-0.2,0.5-0.4,1.2-0.4,2.2v1h-4.3v-1.2c0-2,0.5-3.5,1.6-4.6c1-1.1,2.5-1.6,4.4-1.6c1.9,0,3.4,0.5,4.5,1.6c1.1,1,1.6,2.5,1.6,4.5
		c0,1.3-0.3,2.4-0.8,3.3c-0.5,0.9-1.2,1.4-2.1,1.7c1.9,0.7,2.9,2.5,2.9,5.3c0,2.2-0.5,3.9-1.4,5.1c-1,1.2-2.5,1.8-4.6,1.8
		C284.7,37.9,283.1,37.3,282.2,36.2"/>
	<path class="st6" d="M304.6,23.7c-1.5,0-2.3-0.9-2.4-2.6l1.4-0.3c0,1.1,0.4,1.7,1,1.7c0.2,0,0.4-0.1,0.5-0.2
		c0.1-0.1,0.2-0.3,0.2-0.6c0-0.2,0-0.5-0.1-0.7c-0.1-0.2-0.2-0.4-0.3-0.5c-0.1-0.1-0.3-0.3-0.5-0.5l-1.1-1c-0.3-0.3-0.6-0.6-0.7-0.9
		c-0.2-0.3-0.2-0.7-0.2-1.2c0-0.7,0.2-1.2,0.6-1.6c0.4-0.4,0.9-0.6,1.6-0.6c0.3,0,0.6,0,0.8,0.1c0.2,0.1,0.4,0.2,0.6,0.3
		c0.2,0.1,0.3,0.3,0.4,0.5c0.1,0.2,0.2,0.4,0.2,0.6c0.1,0.2,0.1,0.5,0.1,0.7l-1.3,0.3c0-0.2,0-0.3,0-0.5c0-0.1,0-0.3-0.1-0.4
		c0-0.1-0.1-0.2-0.1-0.3c-0.1-0.1-0.1-0.1-0.2-0.2c-0.1,0-0.2-0.1-0.4-0.1c-0.2,0-0.4,0.1-0.5,0.2c-0.1,0.1-0.2,0.3-0.2,0.6
		c0,0.3,0.1,0.5,0.2,0.7c0.1,0.2,0.3,0.4,0.5,0.6l1.1,1c0.2,0.2,0.3,0.3,0.5,0.5c0.1,0.2,0.3,0.3,0.4,0.5c0.1,0.2,0.2,0.4,0.3,0.7
		c0.1,0.2,0.1,0.5,0.1,0.8c0,0.6-0.2,1.1-0.6,1.5C305.8,23.5,305.3,23.7,304.6,23.7"/>
	<path class="st6" d="M307.2,23.6l1.7-8.6h1.6l1.7,8.6h-1.5l-0.3-2H309l-0.4,2H307.2z M309.2,20.6h1.2l-0.6-3.5L309.2,20.6z"/>
	<polygon class="st6" points="313.1,23.6 313.1,15 314.7,15 314.7,22.5 316.7,22.5 316.7,23.6 	"/>
	<path class="st6" d="M319.9,23.7c-0.4,0-0.7,0-1-0.1c-0.3-0.1-0.5-0.2-0.7-0.4c-0.2-0.2-0.3-0.4-0.4-0.6c-0.1-0.3-0.2-0.5-0.2-0.8
		c0-0.3-0.1-0.6-0.1-1V15h1.5v5.9c0,0.2,0,0.4,0,0.5c0,0.1,0,0.3,0.1,0.4c0,0.2,0.1,0.3,0.1,0.4c0.1,0.1,0.2,0.2,0.3,0.2
		c0.1,0.1,0.2,0.1,0.4,0.1c0.2,0,0.3,0,0.4-0.1c0.1-0.1,0.2-0.1,0.3-0.2c0.1-0.1,0.1-0.2,0.1-0.4c0-0.2,0.1-0.3,0.1-0.4
		c0-0.1,0-0.3,0-0.5V15h1.5v5.7c0,0.4,0,0.7-0.1,1c0,0.3-0.1,0.6-0.2,0.8c-0.1,0.3-0.3,0.5-0.4,0.6c-0.2,0.2-0.4,0.3-0.7,0.4
		C320.6,23.7,320.2,23.7,319.9,23.7"/>
	<path class="st6" d="M323.4,23.6V15h2c0.5,0,1,0.1,1.3,0.2c0.3,0.1,0.6,0.3,0.8,0.5c0.2,0.2,0.4,0.5,0.4,0.8
		c0.1,0.3,0.1,0.7,0.1,1.2v3.1c0,0.5,0,0.9-0.1,1.2c-0.1,0.3-0.2,0.6-0.4,0.9c-0.2,0.2-0.5,0.4-0.8,0.5c-0.3,0.1-0.8,0.2-1.3,0.2
		H323.4z M325,22.5h0.4c0.2,0,0.3,0,0.4,0c0.1,0,0.2-0.1,0.3-0.1c0.1,0,0.1-0.1,0.2-0.2c0.1-0.1,0.1-0.2,0.1-0.2
		c0-0.1,0-0.2,0.1-0.3c0-0.1,0-0.3,0-0.4c0-0.1,0-0.3,0-0.5v-3.1c0-0.2,0-0.4,0-0.5c0-0.1,0-0.3,0-0.4c0-0.1-0.1-0.2-0.1-0.3
		c-0.1-0.1-0.1-0.1-0.2-0.2c-0.1-0.1-0.2-0.1-0.3-0.1c-0.1,0-0.3,0-0.5,0H325V22.5z"/>
	<polygon class="st6" points="303.7,37.7 303.7,34.4 301.9,29.1 303.4,29.1 304.4,32.5 305.4,29.1 306.9,29.1 305.2,34.4 
		305.2,37.7 	"/>
	<path class="st6" d="M310.1,37.7v-8.6h2.1c0.4,0,0.7,0,1,0.1c0.3,0.1,0.6,0.2,0.8,0.4c0.2,0.2,0.4,0.4,0.5,0.7
		c0.1,0.3,0.2,0.6,0.2,1.1c0,1.1-0.4,1.7-1.3,1.8c0.5,0.1,0.9,0.3,1.1,0.7c0.3,0.3,0.4,0.8,0.4,1.5c0,0.8-0.2,1.4-0.6,1.9
		c-0.4,0.4-1,0.6-1.8,0.6H310.1z M311.7,32.6h0.5c0.5,0,0.8-0.1,0.9-0.3c0.2-0.2,0.3-0.5,0.3-1c0-0.2,0-0.4-0.1-0.6
		c-0.1-0.2-0.2-0.3-0.3-0.3c-0.1-0.1-0.3-0.1-0.4-0.2c-0.2,0-0.4,0-0.7,0h-0.2V32.6z M311.7,36.6h0.6c0.5,0,0.8-0.1,1-0.3
		c0.2-0.2,0.3-0.6,0.3-1.1c0-0.5-0.1-0.9-0.3-1.1c-0.2-0.2-0.5-0.4-1-0.4h-0.5V36.6z"/>
	<rect x="316" y="29.1" class="st6" width="1.5" height="8.6"/>
	<polygon class="st6" points="318.8,37.7 318.8,29.1 322.4,29.1 322.4,30.2 320.4,30.2 320.4,32.7 322,32.7 322,33.8 320.4,33.8 
		320.4,36.6 322.5,36.6 322.5,37.7 	"/>
	<polygon class="st6" points="323.3,37.7 323.3,29.1 324.4,29.1 326.5,34 326.5,29.1 327.8,29.1 327.8,37.7 326.8,37.7 324.6,32.6 
		324.6,37.7 	"/>
	<polygon class="st6" points="329,37.7 329,29.1 332.6,29.1 332.6,30.2 330.6,30.2 330.6,32.7 332.2,32.7 332.2,33.8 330.6,33.8 
		330.6,36.6 332.6,36.6 332.6,37.7 	"/>
	<path class="st6" d="M335.7,37.8c-1.5,0-2.3-0.9-2.4-2.6l1.4-0.3c0,1.1,0.4,1.7,1,1.7c0.2,0,0.4-0.1,0.5-0.2
		c0.1-0.1,0.2-0.3,0.2-0.6c0-0.2,0-0.5-0.1-0.7c-0.1-0.2-0.2-0.4-0.3-0.5c-0.1-0.1-0.3-0.3-0.5-0.5l-1.1-1c-0.3-0.3-0.6-0.6-0.7-0.9
		c-0.2-0.3-0.2-0.7-0.2-1.2c0-0.7,0.2-1.2,0.6-1.6c0.4-0.4,0.9-0.6,1.6-0.6c0.3,0,0.6,0,0.8,0.1c0.2,0.1,0.4,0.2,0.6,0.3
		c0.2,0.1,0.3,0.3,0.4,0.5c0.1,0.2,0.2,0.4,0.2,0.6c0.1,0.2,0.1,0.5,0.1,0.7l-1.3,0.3c0-0.2,0-0.3,0-0.5c0-0.1,0-0.3-0.1-0.4
		c0-0.1-0.1-0.2-0.1-0.3c-0.1-0.1-0.1-0.1-0.2-0.2c-0.1,0-0.2-0.1-0.4-0.1c-0.2,0-0.4,0.1-0.5,0.2c-0.1,0.1-0.2,0.3-0.2,0.6
		c0,0.3,0.1,0.5,0.2,0.7c0.1,0.2,0.3,0.4,0.5,0.6l1.1,1c0.2,0.2,0.3,0.3,0.5,0.5c0.1,0.2,0.3,0.3,0.4,0.5c0.1,0.2,0.2,0.4,0.3,0.7
		c0.1,0.2,0.1,0.5,0.1,0.8c0,0.6-0.2,1.1-0.6,1.5C336.8,37.6,336.3,37.8,335.7,37.8"/>
	<polygon class="st6" points="339.5,37.7 339.5,30.2 338.1,30.2 338.1,29.1 342.5,29.1 342.5,30.2 341.1,30.2 341.1,37.7 	"/>
	<path class="st6" d="M342.6,37.7l1.7-8.6h1.6l1.7,8.6h-1.5l-0.3-2h-1.5l-0.4,2H342.6z M344.6,34.7h1.2l-0.6-3.5L344.6,34.7z"/>
	<path class="st6" d="M348.5,37.7v-8.6h2c0.5,0,0.8,0,1.2,0.1c0.3,0.1,0.6,0.2,0.8,0.4c0.2,0.2,0.4,0.4,0.5,0.7
		c0.1,0.3,0.2,0.7,0.2,1.1c0,0.5-0.1,1-0.2,1.3c-0.2,0.3-0.4,0.6-0.8,0.7l1.2,4.2h-1.6l-1-3.9h-0.7v3.9H348.5z M350.1,32.8h0.4
		c0.5,0,0.8-0.1,1-0.3c0.2-0.2,0.3-0.5,0.3-1c0-0.5-0.1-0.8-0.3-1c-0.2-0.2-0.5-0.3-0.9-0.3h-0.5V32.8z"/>
	<path class="st6" d="M186.2,105.2v1.7c0,0,0,0,0,0c0,0,0,0,0,0c0,0.4,0.4,0.7,0.8,0.7c0,0,0,0,0,0c0,0,0,0,0,0h19.5c0,0,0,0,0,0
		c0,0,0,0,0,0c0.4,0,0.8-0.4,0.8-0.8c0,0,0,0,0,0l0,0V105c11-3.6,19.2-12.5,21.1-23.4c0,0,0,0,0-0.1c0,0,0-0.1,0-0.1
		c0-0.4-0.4-0.8-0.8-0.8h-61.9h-0.4c-0.4,0-0.8,0.4-0.8,0.8l0,0.4C166.5,92.8,175,101.8,186.2,105.2"/>
	<path class="st6" d="M207.3,54.1c-0.3,0.4-6.3,9,0.1,16c2.9,3.2,2.7,6.1,1.8,8h4.1c0.8-2.8,0.5-6.4-2.9-10
		c-4.7-5.2,0.1-12.1,0.1-12.3c0.6-0.8,0.3-1.8-0.7-2.3C209.1,53,207.9,53.3,207.3,54.1"/>
	<path class="st6" d="M196.9,78.1h4.1c0.8-2.8,0.5-6.4-2.9-10c-4.7-5.2,0.1-12.1,0.1-12.3c0.6-0.8,0.3-1.8-0.7-2.3
		c-0.9-0.5-2.1-0.2-2.7,0.6c-0.3,0.4-6.3,9,0.1,16C198,73.3,197.8,76.2,196.9,78.1"/>
	<path class="st6" d="M182.6,54.1c-0.3,0.4-6.3,9,0.1,16c2.9,3.2,2.7,6.1,1.8,8h4.1c0.8-2.8,0.5-6.4-2.9-10
		c-4.7-5.2,0.1-12.1,0.1-12.3c0.6-0.8,0.3-1.8-0.7-2.3C184.3,53,183.1,53.3,182.6,54.1"/>
	<path class="st6" d="M98,61.1c0-1.8,1.5-3.3,3.3-3.3c1.8,0,3.3,1.5,3.3,3.3c0,1.8-1.5,3.3-3.3,3.3C99.5,64.3,98,62.9,98,61.1"/>
	<path class="st6" d="M105.1,65.6c2.2,0.2,4,2.1,4,4.4v1.1v0.5v7.5c0,0.7-0.6,1.3-1.3,1.3c-0.7,0-1.3-0.6-1.3-1.3v-7.8
		c0-0.3-0.1-0.7-0.6-0.7c-0.4,0-0.4,0.4-0.5,0.6v23.4c0,1-0.8,1.8-1.8,1.8c-1,0-1.8-0.8-1.8-1.8V81.1c0-0.1-0.1-0.5-0.5-0.5h0
		c-0.5,0-0.5,0.4-0.5,0.5v13.5c0,1-0.8,1.8-1.8,1.8c-1,0-1.8-0.8-1.8-1.8V71.2c0-0.2-0.1-0.6-0.5-0.6c-0.5,0-0.6,0.4-0.6,0.7v7.8
		c0,0.7-0.6,1.3-1.3,1.3c-0.7,0-1.3-0.6-1.3-1.3v-7.5v-0.5V70c0-2.3,1.7-4.2,4-4.4c0.1,0,0.2,0,0.2,0h3.6h3.6
		C105,65.6,105,65.6,105.1,65.6"/>
	<path class="st6" d="M78.5,62.8c0-1.7-1.4-3.1-3.1-3.1s-3.1,1.4-3.1,3.1c0,1.7,1.4,3.1,3.1,3.1S78.5,64.5,78.5,62.8"/>
	<path class="st6" d="M69.1,69.8l-2.6,8.4c0,0-0.5,1.5,0.8,1.9c1.3,0.4,1.7-1.1,1.7-1.1l2.1-7c0,0,0.1-0.5,0.5-0.4
		c0.4,0.1,0.3,0.7,0.3,0.7l-3.6,13.2h3.4v9.4c0,0.9,0.7,1.6,1.6,1.6s1.6-0.7,1.6-1.6v-9.4h0.5h0.5v9.4c0,0.9,0.7,1.6,1.6,1.6
		c0.9,0,1.6-0.7,1.6-1.6v-9.4h3.4l-3.6-13.2c0,0-0.2-0.6,0.3-0.7c0.4-0.1,0.5,0.4,0.5,0.4l2.1,7c0,0,0.4,1.5,1.7,1.1
		c1.3-0.4,0.8-1.9,0.8-1.9l-2.6-8.4c0,0-0.9-2.4-3-2.4h-3.3h-3.3C70.1,67.4,69.1,69.8,69.1,69.8"/>
	<path class="st6" d="M59.9,62.8c0-1.7-1.4-3.1-3.1-3.1c-1.7,0-3.1,1.4-3.1,3.1c0,1.7,1.4,3.1,3.1,3.1
		C58.5,65.9,59.9,64.5,59.9,62.8"/>
	<path class="st6" d="M50.5,69.8l-2.6,8.4c0,0-0.5,1.5,0.8,1.9c1.3,0.4,1.7-1.1,1.7-1.1l2.1-7c0,0,0.1-0.5,0.5-0.4
		c0.4,0.1,0.3,0.7,0.3,0.7l-3.6,13.2h3.4v9.4c0,0.9,0.7,1.6,1.6,1.6c0.9,0,1.6-0.7,1.6-1.6v-9.4h0.5h0.5v9.4c0,0.9,0.7,1.6,1.6,1.6
		c0.9,0,1.6-0.7,1.6-1.6v-9.4h3.4l-3.6-13.2c0,0-0.2-0.6,0.3-0.7C60.9,71.5,61,72,61,72l2.1,7c0,0,0.4,1.5,1.7,1.1
		c1.3-0.4,0.8-1.9,0.8-1.9L63,69.8c0,0-0.9-2.4-3-2.4h-3.3h-3.3C51.4,67.4,50.5,69.8,50.5,69.8"/>
	<path class="st6" d="M88.9,80.2c1.4,0,2.6-1.2,2.6-2.6c0-1.4-1.2-2.6-2.6-2.6c-1.4,0-2.6,1.2-2.6,2.6C86.3,79,87.5,80.2,88.9,80.2"
		/>
	<path class="st6" d="M82.7,88.2c-0.1,0.3-0.2,0.9,0.4,1.2c0.7,0.3,1.1-0.4,1.1-0.4l1.4-4.5c0,0,0.2-0.3,0.2,0v10.6h0
		c0,0.7,0.6,1.3,1.3,1.3c0.7,0,1.3-0.6,1.3-1.3V91c0,0-0.1-0.6,0.4-0.6c0.5,0,0.4,0.6,0.4,0.6v4.2c0,0.7,0.6,1.3,1.3,1.3
		c0.7,0,1.3-0.6,1.3-1.3V84.6c0-0.3,0.2-0.1,0.2-0.1l1.1,3.1c0,0,0.5,1.4,0.6,1.4c0.5,0.2,1.1,0,1.3-0.5c0.1-0.3,0.1-0.7-0.1-0.9
		l0,0c0-0.1-1.6-4.1-1.8-4.6c-0.6-1.7-1.6-1.7-2.7-1.7c-1,0-1.6,0-1.6,0s-0.7,0-2,0c-1.3,0-1.8,0.7-3.3,4.6
		C83.4,86.3,82.7,88.1,82.7,88.2L82.7,88.2z"/>
	<path class="st6" d="M32.1,61.1c0-1.8-1.5-3.3-3.3-3.3c-1.8,0-3.3,1.5-3.3,3.3c0,1.8,1.5,3.3,3.3,3.3
		C30.7,64.3,32.1,62.9,32.1,61.1"/>
	<path class="st6" d="M25,65.6c-2.2,0.2-4,2.1-4,4.4v1.1v0.5v7.5c0,0.7,0.6,1.3,1.3,1.3c0.7,0,1.3-0.6,1.3-1.3v-7.8
		c0-0.3,0.1-0.7,0.6-0.7c0.4,0,0.4,0.4,0.5,0.6v23.4c0,1,0.8,1.8,1.8,1.8c1,0,1.8-0.8,1.8-1.8V81.1c0-0.1,0.1-0.5,0.5-0.5h0
		c0.5,0,0.5,0.4,0.5,0.5v13.5c0,1,0.8,1.8,1.8,1.8c1,0,1.8-0.8,1.8-1.8V71.2c0-0.2,0.1-0.6,0.5-0.6c0.5,0,0.6,0.4,0.6,0.7v7.8
		c0,0.7,0.6,1.3,1.3,1.3c0.7,0,1.3-0.6,1.3-1.3v-7.5v-0.5V70c0-2.3-1.7-4.2-4-4.4c-0.1,0-0.2,0-0.2,0h-3.6h-3.6
		C25.2,65.6,25.1,65.6,25,65.6"/>
	<line class="st7" x1="22.2" y1="80.4" x2="19.2" y2="95.8"/>
	<path class="st6" d="M38.2,78.8c-0.2-0.3-0.5-0.4-0.8-0.4c-0.5,0-0.9,0.4-0.9,0.9c0,0.2,0.1,0.4,0.1,0.4l2.6,4.7
		c0,0,0.2,0.3,0.2,0.6v10.1h0c0,0.7,0.6,1.3,1.3,1.3c0.7,0,1.3-0.6,1.3-1.3v-4c0,0-0.1-0.6,0.4-0.6c0.5,0,0.4,0.6,0.4,0.6v4
		c0,0.7,0.6,1.3,1.3,1.3c0.7,0,1.3-0.6,1.3-1.3V85.1c0-0.3,0.2-0.6,0.2-0.6l2.4-4.4c0,0,0.3-0.6,0.3-0.8c0-0.5-0.4-0.9-0.9-0.9
		c-0.3,0-0.6,0.2-0.8,0.4l0,0c-0.1,0.1-1.3,2.2-1.7,2.6c-0.4,0.4-0.8,0.4-0.8,0.4h-1.6h-1.6c0,0-0.4,0-0.8-0.4
		C39.5,81,38.3,78.9,38.2,78.8L38.2,78.8z"/>
	<path class="st6" d="M42.3,80.2c1.4,0,2.6-1.2,2.6-2.6c0-1.4-1.2-2.6-2.6-2.6c-1.4,0-2.6,1.2-2.6,2.6C39.7,79,40.8,80.2,42.3,80.2"
		/>
	<polygon class="st6" points="42.3,83.8 45.2,85.9 46.6,91 42.3,91 38,91 39.4,85.9 	"/>
	<path class="st6" d="M370.2,78.6c0-3.3-2.1-6-5.4-6c-1.6,0-3.6,1.8-4.6,2.9c-1.1-1.1-2.9-2.9-4.5-2.9c-3.2,0-5.5,2.7-5.5,6
		c0,1.7,0.7,3.2,1.7,4.3l8.3,8.3l8.3-8.3l0,0C369.5,81.8,370.2,80.3,370.2,78.6"/>
	<path class="st6" d="M334.8,104.8C334.8,104.8,334.8,104.8,334.8,104.8c-0.7,0-1.2-0.5-1.3-1.1l-4.2-24.6l-6.4,11.9
		c-0.3,0.5-0.9,0.8-1.4,0.7c-0.6-0.1-1-0.6-1.1-1.1l-2.7-19l-5,11.2c-0.2,0.5-0.7,0.8-1.2,0.8h-19.3c-0.8,0-1.4-0.6-1.4-1.4
		c0-0.8,0.6-1.4,1.4-1.4h18.4L317,66c0.2-0.6,0.8-0.9,1.4-0.8c0.6,0.1,1.1,0.6,1.2,1.2l2.8,19.6l6.3-11.7c0.3-0.5,0.8-0.8,1.4-0.7
		c0.6,0.1,1,0.5,1.1,1.1l3.9,22.8l14.2-47.3c0.2-0.5,0.6-0.9,1.2-1c0.6,0,1.1,0.3,1.3,0.8l7.5,15.5c0.3,0.7,0,1.5-0.6,1.8
		c-0.7,0.3-1.5,0-1.8-0.6l-6-12.4l-14.9,49.5C336,104.4,335.4,104.8,334.8,104.8"/>
	<polygon class="st6" points="455.9,68.1 434.6,55.8 434.6,95.5 455.9,101.9 	"/>
	<polygon class="st6" points="458.2,68.1 458.2,101.9 479.6,95.5 479.6,55.8 	"/>
	<polygon class="st6" points="491.9,94.8 491.3,94.8 493.8,103.6 496.3,94.8 495.7,94.8 496.3,94.8 496.3,59.5 495.7,59.5 
		495.1,59.5 494.4,59.5 493.2,59.5 492.5,59.5 491.9,59.5 491.3,59.5 491.3,94.8 	"/>
	<polygon class="st6" points="484.2,57.5 481.9,55.7 481.9,96.6 458.3,104.2 457.2,104.2 457,104.2 455.9,104.2 432.4,97.6 
		432.4,55.7 430.1,57.5 430.1,99.2 455.8,106.3 457,106.3 457.2,106.3 458.4,106.3 482.1,98.8 484.2,98.2 	"/>
	<path class="st6" d="M496.3,54.8c0-1.4-1.1-2.5-2.5-2.5c-1.4,0-2.5,1.1-2.5,2.5v2.7h5V54.8z"/>
	<path class="st6" d="M621.9,49.4h-14.7c-0.1,0-0.2,0.1-0.2,0.2v4.9c0,0.1,0.1,0.2,0.2,0.2h5.9l-6.5,6.5c-3.3-2.6-7.4-4.1-11.9-4.1
		c-10.6,0-19.3,8.7-19.3,19.3c0,9.8,7.3,17.9,16.8,19.1v5.6h-5.8c-0.1,0-0.2,0.1-0.2,0.2v5.2c0,0.1,0.1,0.2,0.2,0.2h5.8v5.6
		c0,0.1,0.1,0.2,0.2,0.2h5.2c0.1,0,0.2-0.1,0.2-0.2v-5.6h5.8c0.1,0,0.2-0.1,0.2-0.2v-5.2c0-0.1-0.1-0.2-0.2-0.2h-5.8v-5.7
		c9.2-1.5,16.2-9.5,16.2-19c0-4.1-1.3-8-3.5-11.1l6.4-6.4v5.5c0,0.1,0.1,0.2,0.2,0.2h4.9c0.1,0,0.2-0.1,0.2-0.2V49.5
		C622.1,49.4,622,49.4,621.9,49.4 M594.6,90.5c-7.8,0-14.2-6.4-14.2-14.2c0-7.8,6.4-14.2,14.2-14.2c7.8,0,14.2,6.4,14.2,14.2
		C608.8,84.1,602.4,90.5,594.6,90.5"/>
	<path class="st6" d="M603.3,70.5h-17.2c-0.1,0-0.2,0.1-0.2,0.2v4.2c0,0.1,0.1,0.2,0.2,0.2h17.2c0.1,0,0.2-0.1,0.2-0.2v-4.2
		C603.5,70.6,603.4,70.5,603.3,70.5"/>
	<path class="st6" d="M603.3,77.9h-17.2c-0.1,0-0.2,0.1-0.2,0.2v4.2c0,0.1,0.1,0.2,0.2,0.2h17.2c0.1,0,0.2-0.1,0.2-0.2v-4.2
		C603.5,78,603.4,77.9,603.3,77.9"/>
	<path class="st6" d="M748.8,52.4c-0.1-0.1-0.2-0.2-0.4-0.2h-43c-0.1,0-0.3,0.1-0.4,0.2c-0.1,0.1-0.1,0.3-0.1,0.4l7.2,43.7
		c0,0.2,0.3,0.4,0.5,0.4h8.9l0.6,7.1l-3.7,0l8.7,8.7l8.7-8.7l-3.7,0l0.6-7.1h9c0.2,0,0.5-0.2,0.5-0.4l6.8-43.7
		C749,52.7,748.9,52.6,748.8,52.4 M732.2,87.4c0,0-2,2-5.1,1.8c-3.2,0.2-5.1-1.8-5.1-1.8c-3.2-3.2-2.1-7.2-1-9.3
		c0.7-1.3,5.6-8.7,6.1-9.4v-0.1c0,0,0,0,0,0l0,0v0.1c0.4,0.6,5.4,8.1,6.1,9.4C734.3,80.2,735.4,84.2,732.2,87.4 M745.9,61.6
		c-1.2-0.5-2.6-0.3-4.1,0.2c-5.3,2.2-9,2.9-14.6,1.2c-3.5-1.1-6.8-3.4-10.7-2c-2.6,0.9-5,1.8-7.9,1.8l-1.7-8.7h40.2L745.9,61.6z"/>
</g>
</svg>
