<?xml version="1.0" encoding="utf-8"?>
<!-- Generator: Adobe Illustrator 23.1.0, SVG Export Plug-In . SVG Version: 6.00 Build 0)  -->
<svg version="1.1" id="Layer_1" xmlns="http://www.w3.org/2000/svg" xmlns:xlink="http://www.w3.org/1999/xlink" x="0px" y="0px"
	 viewBox="0 0 300 300" style="enable-background:new 0 0 300 300;" xml:space="preserve">
<style type="text/css">
	.st0{fill:#00ACCE;}
	.st1{fill:#6278A1;}
	.st2{fill:#DC4226;}
	.st3{opacity:0.15;}
	.st4{clip-path:url(#SVGID_2_);fill:#FFFFFF;}
	.st5{fill:#FFFFFF;}
	.st6{fill:none;stroke:#F7D64B;stroke-width:13.4005;stroke-linecap:round;stroke-miterlimit:10;}
</style>
<g>
	<g>
		<path class="st0" d="M9.3,148.2c0,77.4,62.7,140.1,140.1,140.1s140.1-62.7,140.1-140.1S226.8,8,149.4,8
			C72.1,8.1,9.3,70.8,9.3,148.2"/>
		<path class="st1" d="M147.8,288.4c0.1,0,0.3,0,0.4,0c-0.1,0-0.2,0-0.2,0H147.8 M147.3,288.3L147.3,288.3L147.3,288.3L147.3,288.3
			 M147.3,288.3c-0.1,0-0.1,0-0.2,0C147.2,288.3,147.2,288.3,147.3,288.3 M147.1,288.3L147.1,288.3L147.1,288.3L147.1,288.3
			 M147,288.3h-0.1c-0.2,0-0.5,0-0.7,0C146.4,288.3,146.7,288.3,147,288.3 M145.7,288.3C145.6,288.3,145.6,288.3,145.7,288.3
			c-0.4,0-0.7,0-1.1,0C144.9,288.3,145.3,288.3,145.7,288.3 M144.6,288.3c-0.2,0-0.3,0-0.5,0C144.3,288.3,144.4,288.3,144.6,288.3
			 M143.8,288.2c-0.2,0-0.5,0-0.7,0C143.4,288.2,143.6,288.2,143.8,288.2 M143.1,288.2c-0.2,0-0.4,0-0.7,0
			C142.7,288.2,142.9,288.2,143.1,288.2 M141.9,288.2c-0.2,0-0.4,0-0.5,0C141.6,288.1,141.7,288.2,141.9,288.2 M141.4,288.1
			c-0.2,0-0.4,0-0.5,0C141,288.1,141.2,288.1,141.4,288.1 M140.3,288.1c-0.2,0-0.3,0-0.5,0C139.9,288,140.1,288.1,140.3,288.1
			 M139.8,288c-0.3,0-0.6,0-1-0.1C139.1,288,139.4,288,139.8,288 M138.2,287.9c-0.3,0-0.7,0-1-0.1
			C137.5,287.9,137.9,287.9,138.2,287.9 M136.5,287.8c-0.3,0-0.6-0.1-0.9-0.1C135.9,287.7,136.2,287.7,136.5,287.8 M134.9,287.6
			c-0.3,0-0.6-0.1-1-0.1C134.3,287.5,134.6,287.6,134.9,287.6 M132.7,287.4c-0.2,0-0.4-0.1-0.7-0.1
			C132.2,287.3,132.5,287.3,132.7,287.4 M131.1,287.2c-0.2,0-0.4,0-0.6-0.1C130.8,287.1,130.9,287.1,131.1,287.2 M127.2,286.6
			c-0.1,0-0.1,0-0.2,0C127,286.6,127.1,286.6,127.2,286.6 M125.8,286.4c-0.1,0-0.1,0-0.2,0C125.7,286.4,125.7,286.4,125.8,286.4
			 M121.9,285.7L121.9,285.7L121.9,285.7"/>
		<path class="st2" d="M230.1,98.8c-12.9-20.3-39.8-22-56.6-16.2c-13,4.5-22.4,16.9-24.1,19.1c-1.6-2.1-10.7-14.3-23.7-18.8
			c-16.8-5.8-44.1-4.4-57,15.9c-5.1,8.1-21.2,34.2,13.7,74.5c0,0,33,38.1,63.5,56.6c1.4,0.8,3.2,1.9,3.3,1.8c0.1,0.1,2.1-1,3.5-1.8
			c30.5-18.4,63.7-56.6,63.7-56.6C251.4,133,235.3,106.9,230.1,98.8"/>
		<g class="st3">
			<g>
				<g>
					<g>
						<defs>
							<rect id="SVGID_1_" x="60.6" y="79.7" width="177.7" height="152"/>
						</defs>
						<clipPath id="SVGID_2_">
							<use xlink:href="#SVGID_1_"  style="overflow:visible;"/>
						</clipPath>
						<path class="st4" d="M230.1,98.8c-12.9-20.3-39.8-22-56.6-16.2c-13,4.5-22.4,16.9-24.1,19.1c-1.6-2.1-10.7-14.3-23.7-18.8
							c-16.8-5.8-44.1-4.4-57,15.9c-5.1,8.1-21.2,34.2,13.7,74.5c0,0,33,38.1,63.5,56.6c1.4,0.8,3.2,1.9,3.3,1.8
							c0.1,0.1,2.1-1,3.5-1.8c30.5-18.4,63.7-56.6,63.7-56.6C251.4,133,235.3,106.9,230.1,98.8"/>
					</g>
				</g>
			</g>
		</g>
		<path class="st5" d="M143.9,173.5c-1.2,0-2.3-0.5-2.7-1.2l-20.9-33.7l-7.9,15.4c-0.4,0.7-1.5,1.3-2.8,1.3H87.2c-1.6,0-3-0.8-3-1.8
			s1.3-1.8,3-1.8h20.2l9.8-19c0.4-0.7,1.5-1.2,2.7-1.3c1.3,0,2.4,0.5,2.8,1.2l20.6,33.3l10.8-25.2c0.3-0.7,1.3-1.3,2.6-1.3
			c1.2-0.1,2.4,0.3,2.9,1l8.6,11l9.5-23.1c0.3-0.8,1.4-1.3,2.7-1.3s2.5,0.5,2.9,1.2l7,12h27c1.6,0,2.9,0.7,2.9,1.6
			c0,1-1.3,1.6-3,1.6l-29.1,0.1c-1.2,0-2.3-0.4-2.8-1.1l-4.4-7.6L172,157c-0.3,0.7-1.3,1.3-2.6,1.4c-1.2,0.1-2.4-0.3-2.9-1
			l-8.7-11.1l-11.2,25.9C146.3,173,145.2,173.5,143.9,173.5L143.9,173.5z"/>
		<path class="st5" d="M90.2,154c0,0.8-0.2,1.7-0.5,2.4c-0.3,0.8-0.8,1.5-1.4,2.1s-1.3,1.1-2.1,1.4c-0.8,0.3-1.6,0.5-2.4,0.5
			s-1.7-0.2-2.4-0.5c-0.8-0.3-1.5-0.8-2.1-1.4c-0.6-0.6-1.1-1.3-1.4-2.1s-0.5-1.6-0.5-2.4c0-0.8,0.2-1.7,0.5-2.4
			c0.3-0.8,0.8-1.5,1.4-2.1s1.3-1.1,2.1-1.4c0.8-0.3,1.6-0.5,2.4-0.5c0.9,0,1.7,0.2,2.4,0.5c0.8,0.3,1.5,0.8,2.1,1.4
			c0.6,0.6,1.1,1.3,1.4,2.1C90.1,152.4,90.2,153.2,90.2,154"/>
	</g>
	<g>
		<path class="st6" d="M66,280.7"/>
	</g>
</g>
</svg>
