<?xml version="1.0" encoding="utf-8"?>
<!-- Generator: Adobe Illustrator 24.0.2, SVG Export Plug-In . SVG Version: 6.00 Build 0)  -->
<svg version="1.1" id="Layer_1" xmlns="http://www.w3.org/2000/svg" xmlns:xlink="http://www.w3.org/1999/xlink" x="0px" y="0px"
	 viewBox="0 0 400 327" style="enable-background:new 0 0 400 327;" xml:space="preserve">
<style type="text/css">
	.st0{opacity:0.2;clip-path:url(#SVGID_2_);enable-background:new    ;}
	.st1{opacity:0.2;clip-path:url(#SVGID_4_);enable-background:new    ;}
	.st2{fill:url(#SVGID_5_);}
	.st3{fill:#FFFFFF;}
</style>
<g>
	<g>
		<g>
			<defs>
				<rect id="SVGID_1_" x="2.1" y="1.5" width="394.5" height="38.2"/>
			</defs>
			<clipPath id="SVGID_2_">
				<use xlink:href="#SVGID_1_"  style="overflow:visible;"/>
			</clipPath>
			<polygon class="st0" points="54.2,1.7 0.1,55.8 87,74.3 			"/>
		</g>
		<g>
			<defs>
				<rect id="SVGID_3_" x="2.1" y="1.5" width="394.5" height="38.2"/>
			</defs>
			<clipPath id="SVGID_4_">
				<use xlink:href="#SVGID_3_"  style="overflow:visible;"/>
			</clipPath>
			<polygon class="st1" points="353.5,1.7 401.2,49.3 288.9,61.4 			"/>
		</g>
	</g>
	
		<linearGradient id="SVGID_5_" gradientUnits="userSpaceOnUse" x1="-17.5267" y1="381.7631" x2="304.2733" y2="381.7631" gradientTransform="matrix(0 1 1 0 -177.9131 19.2267)">
		<stop  offset="0" style="stop-color:#F99E1C"/>
		<stop  offset="1" style="stop-color:#F47B20"/>
	</linearGradient>
	<path class="st2" d="M54.2,271.9V1.7h299.3V272c0,28.5-23.1,51.5-51.5,51.5H105.7C77.2,323.4,54.2,300.4,54.2,271.9z"/>
</g>
<g>
	<g>
		<g>
			<path class="st3" d="M154.8,70.5c-13.6,0-24.4,11.4-24.4,24.8c0,13.4,10.9,24.4,24.4,24.4s24.4-10.9,24.4-24.4
				C179.2,81.9,168.4,70.5,154.8,70.5z M154.8,109.3c-7.7,0-14-6.3-14-14c0-7.8,6.4-14.5,14-14.5s14,6.6,14,14.5
				C168.8,103,162.6,109.3,154.8,109.3z"/>
		</g>
	</g>
	<g>
		<g>
			<path class="st3" d="M289.7,70.5h-86.1c-10.1,0-18.3,8.2-18.3,18.3v41.6L180,125c-3.5-3.5-8-5.4-12.9-5.4h-12.2
				c-2.6,0-21.8,0-24.4,0c-16.8,0-30.5,13.7-30.5,30.5c0,3.5,0,31.6,0,36.6c0,10.1,8.2,18.3,18.3,18.3c2.1,0,4.2-0.4,6.1-1v56.3
				c0,10.1,8.2,18.3,18.3,18.3c4.7,0,9-1.8,12.2-4.7c3.2,2.9,7.5,4.7,12.2,4.7c10.1,0,18.3-8.2,18.3-18.3v-80.7
				c4.7,1.6,9.8,1.3,14.3-0.9l20.5-10.3h69.6c10.1,0,18.3-8.2,18.3-18.3V88.8C308,78.7,299.8,70.5,289.7,70.5z M218.5,155.6
				l-24.4,12.2c-2.3,1.1-5.1,0.8-7-1.1l-3.6-3.6c-3.8-3.8-10.4-1.2-10.4,4.3c0,0,0,0,0,0v92.9c0,3.4-2.7,6.1-6.1,6.1
				s-6.1-2.7-6.1-6.1v-61.3c0-3.4-2.7-6.1-6.1-6.1s-6.1,2.7-6.1,6.1v61.3c0,3.4-2.7,6.1-6.1,6.1s-6.1-2.7-6.1-6.1v-73.5
				c0-4.6,0-32.8,0-36.6c0-3.4-2.7-6.1-6.1-6.1s-6.1,2.7-6.1,6.1c0,3.5,0,31.6,0,36.6c0,3.4-2.7,6.1-6.1,6.1s-6.1-2.7-6.1-6.1
				c0-4.6,0-32.8,0-36.6c0-10.1,8.2-18.3,18.3-18.3c4.6,0,32.8,0,36.6,0c1.6,0,3.2,0.6,4.3,1.8l18.2,18.2c1.9,1.9,4.7,2.3,7,1.1
				l16.5-8.3c3-1.5,6.7-0.3,8.2,2.7C222.7,150.4,221.5,154.1,218.5,155.6z M295.8,150.1c0,3.4-2.7,6.1-6.1,6.1H233
				c0-0.1,0.1-0.2,0.1-0.3c0.9-2.6,1.1-5.4,0.8-8l33.3-16.7c3-1.5,4.2-5.2,2.7-8.2s-5.2-4.2-8.2-2.7L228.5,137
				c-5.3-5.2-13.7-6.8-20.9-3.2l-10.1,5.1v-50c0-3.4,2.7-6.1,6.1-6.1h86.1c3.4,0,6.1,2.7,6.1,6.1V150.1z"/>
		</g>
	</g>
</g>
</svg>
