<?xml version="1.0" encoding="utf-8"?>
<!-- Generator: Adobe Illustrator 16.0.0, SVG Export Plug-In . SVG Version: 6.00 Build 0)  -->
<!DOCTYPE svg PUBLIC "-//W3C//DTD SVG 1.1//EN" "http://www.w3.org/Graphics/SVG/1.1/DTD/svg11.dtd">
<svg version="1.1" id="Capa_1" xmlns="http://www.w3.org/2000/svg" xmlns:xlink="http://www.w3.org/1999/xlink" x="0px" y="0px"
	 width="612px" height="80.272px" viewBox="0 0 612 80.272" enable-background="new 0 0 612 80.272" xml:space="preserve">
<g>
	<defs>
		<rect id="SVGID_1_" width="612" height="80.272"/>
	</defs>
	<clipPath id="SVGID_2_">
		<use xlink:href="#SVGID_1_"  overflow="visible"/>
	</clipPath>
	<path clip-path="url(#SVGID_2_)" fill="#60BA46" d="M298.903,32.537c0.61-1.036,1.352-1.99,2.2-2.832l-7.218-7.917
		c-1.817,1.736-3.365,3.749-4.583,5.968L298.903,32.537z"/>
	<path clip-path="url(#SVGID_2_)" fill="#D19F2A" d="M316.599,26.944c1.093,0.5,2.109,1.14,3.027,1.897l7.238-7.905
		c-1.905-1.644-4.066-3.001-6.416-4.002L316.599,26.944z"/>
	<path clip-path="url(#SVGID_2_)" fill="#C22034" d="M333.177,29.325l-9.595,4.785c0.459,1.069,0.783,2.203,0.96,3.389l10.674-1.008
		C334.901,33.965,334.202,31.554,333.177,29.325"/>
	<path clip-path="url(#SVGID_2_)" fill="#2E9A47" d="M322.894,32.721l9.593-4.781c-1.185-2.208-2.702-4.213-4.482-5.953
		l-7.237,7.903C321.589,30.737,322.307,31.689,322.894,32.721"/>
	<path clip-path="url(#SVGID_2_)" fill="#49783D" d="M296.995,39.54c0-0.215,0.008-0.433,0.016-0.646l-10.675-0.955
		c-0.034,0.528-0.052,1.063-0.052,1.601c0,2.047,0.253,4.039,0.725,5.938l10.312-2.957C297.11,41.559,296.995,40.565,296.995,39.54"
		/>
	<path clip-path="url(#SVGID_2_)" fill="#FDB716" d="M321.55,48.314c-0.758,0.924-1.634,1.748-2.604,2.449l5.639,9.125
		c2.093-1.417,3.954-3.148,5.52-5.127L321.55,48.314z"/>
	<path clip-path="url(#SVGID_2_)" fill="#EF4229" d="M324.691,39.54c0,1.011-0.108,1.998-0.316,2.945l10.309,2.962
		c0.471-1.894,0.721-3.874,0.721-5.908c0-0.507-0.014-1.009-0.048-1.509l-10.675,1.009C324.688,39.208,324.691,39.373,324.691,39.54
		"/>
	<path clip-path="url(#SVGID_2_)" fill="#F99E27" d="M300.31,48.518l-8.534,6.486c1.586,1.953,3.466,3.657,5.573,5.048l5.636-9.116
		C301.993,50.248,301.091,49.435,300.31,48.518"/>
	<path clip-path="url(#SVGID_2_)" fill="#0B7DBB" d="M297.168,37.352c0.19-1.205,0.539-2.358,1.024-3.439l-9.595-4.777
		c-1.059,2.254-1.784,4.696-2.114,7.259L297.168,37.352z"/>
	<path clip-path="url(#SVGID_2_)" fill="#901939" d="M323.272,60.715l-5.629-9.114c-1.023,0.577-2.123,1.03-3.285,1.334
		l1.984,10.542C318.818,62.909,321.147,61.971,323.272,60.715"/>
	<path clip-path="url(#SVGID_2_)" fill="#00ADD8" d="M323.965,43.977c-0.374,1.1-0.879,2.132-1.498,3.085l8.559,6.458
		c1.39-2,2.491-4.212,3.239-6.583L323.965,43.977z"/>
	<path clip-path="url(#SVGID_2_)" fill="#F36F26" d="M312.842,53.243c-0.651,0.094-1.321,0.146-2,0.146
		c-0.543,0-1.08-0.033-1.608-0.094l-1.988,10.541c1.178,0.175,2.376,0.265,3.597,0.265c1.357,0,2.689-0.111,3.984-0.323
		L312.842,53.243z"/>
	<path clip-path="url(#SVGID_2_)" fill="#E9222F" d="M311.729,25.718c1.191,0.077,2.339,0.302,3.427,0.662l3.852-10.008
		c-2.292-0.805-4.735-1.286-7.278-1.375V25.718z"/>
	<path clip-path="url(#SVGID_2_)" fill="#DF1D83" d="M307.705,53.03c-1.202-0.281-2.338-0.715-3.399-1.284l-5.641,9.118
		c2.17,1.241,4.542,2.162,7.058,2.698L307.705,53.03z"/>
	<path clip-path="url(#SVGID_2_)" fill="#1E3768" d="M306.683,26.331c1.109-0.352,2.283-0.565,3.495-0.621V14.987
		c-2.575,0.067-5.051,0.54-7.374,1.344L306.683,26.331z"/>
	<path clip-path="url(#SVGID_2_)" fill="#CD8C2A" d="M299.372,47.285c-0.681-1.005-1.234-2.101-1.634-3.275l-10.303,2.957
		c0.779,2.459,1.937,4.748,3.401,6.804L299.372,47.285z"/>
	<path clip-path="url(#SVGID_2_)" fill="#01568A" d="M302.263,28.677c0.905-0.716,1.901-1.321,2.97-1.798l-3.874-9.992
		c-2.31,0.967-4.435,2.278-6.321,3.87L302.263,28.677z"/>
	<path clip-path="url(#SVGID_2_)" fill="#099DD9" d="M387.088,33.642V14.491h6.168c1.692,0,3.215,0.382,4.564,1.151
		c1.351,0.767,2.405,1.849,3.164,3.249c0.76,1.4,1.142,2.967,1.151,4.703v0.882c0,1.753-0.37,3.324-1.112,4.714
		c-0.74,1.39-1.784,2.478-3.128,3.262c-1.349,0.785-2.851,1.182-4.508,1.19H387.088z M391.705,18.055v12.037h1.604
		c1.325,0,2.343-0.473,3.053-1.415c0.712-0.942,1.065-2.343,1.065-4.201v-0.831c0-1.849-0.354-3.243-1.065-4.183
		c-0.71-0.938-1.745-1.407-3.105-1.407H391.705z"/>
	<polygon clip-path="url(#SVGID_2_)" fill="#099DD9" points="416.516,25.512 409.255,25.512 409.255,30.092 417.83,30.092 
		417.83,33.644 404.637,33.644 404.637,14.491 417.857,14.491 417.857,18.055 409.255,18.055 409.255,22.096 416.516,22.096 	"/>
	<path clip-path="url(#SVGID_2_)" fill="#099DD9" d="M426.689,33.642V14.491h6.168c1.691,0,3.214,0.382,4.565,1.151
		c1.351,0.767,2.405,1.849,3.161,3.249c0.76,1.4,1.143,2.967,1.154,4.703v0.882c0,1.753-0.371,3.324-1.112,4.714
		c-0.743,1.39-1.785,2.478-3.131,3.262c-1.347,0.785-2.849,1.182-4.508,1.19H426.689z M431.306,18.055v12.037h1.603
		c1.327,0,2.344-0.473,3.056-1.415c0.708-0.942,1.064-2.343,1.064-4.201v-0.831c0-1.849-0.356-3.243-1.064-4.183
		c-0.712-0.938-1.746-1.407-3.106-1.407H431.306z"/>
	<polygon clip-path="url(#SVGID_2_)" fill="#099DD9" points="456.118,25.512 448.856,25.512 448.856,30.092 457.433,30.092 
		457.433,33.644 444.237,33.644 444.237,14.491 457.46,14.491 457.46,18.055 448.856,18.055 448.856,22.096 456.118,22.096 	"/>
	<path clip-path="url(#SVGID_2_)" fill="#099DD9" d="M469.325,28.551c0-0.674-0.238-1.197-0.716-1.578
		c-0.479-0.377-1.318-0.765-2.521-1.168c-1.2-0.404-2.181-0.794-2.943-1.173c-2.482-1.215-3.724-2.893-3.724-5.025
		c0-1.06,0.312-1.996,0.927-2.807c0.618-0.811,1.493-1.444,2.623-1.896c1.133-0.452,2.403-0.673,3.816-0.673
		c1.377,0,2.61,0.244,3.702,0.736c1.093,0.49,1.94,1.187,2.546,2.094c0.605,0.909,0.907,1.945,0.907,3.112h-4.603
		c0-0.778-0.242-1.386-0.717-1.814c-0.48-0.429-1.127-0.646-1.941-0.646c-0.824,0-1.477,0.183-1.951,0.546
		c-0.48,0.363-0.72,0.827-0.72,1.392c0,0.49,0.264,0.933,0.791,1.332c0.524,0.398,1.449,0.812,2.773,1.236
		c1.325,0.425,2.411,0.882,3.262,1.375c2.069,1.192,3.105,2.836,3.105,4.933c0,1.672-0.633,2.989-1.896,3.945
		c-1.261,0.959-2.993,1.434-5.195,1.434c-1.549,0-2.956-0.279-4.215-0.836c-1.259-0.556-2.207-1.319-2.842-2.288
		c-0.636-0.967-0.951-2.086-0.951-3.345h4.629c0,1.022,0.266,1.778,0.796,2.267c0.529,0.486,1.392,0.729,2.583,0.729
		c0.762,0,1.367-0.163,1.813-0.492C469.105,29.61,469.325,29.149,469.325,28.551"/>
	<path clip-path="url(#SVGID_2_)" fill="#099DD9" d="M487.322,30.066h-6.327l-1.104,3.576h-4.934l7.024-19.151h4.343l7.075,19.151
		h-4.958L487.322,30.066z M482.101,26.5h4.118l-2.064-6.642L482.101,26.5z"/>
	<path clip-path="url(#SVGID_2_)" fill="#099DD9" d="M502.046,26.87h-2.501v6.772h-4.617V14.493h7.535
		c2.273,0,4.049,0.5,5.329,1.509c1.281,1.007,1.918,2.432,1.918,4.269c0,1.333-0.269,2.436-0.807,3.311
		c-0.54,0.879-1.385,1.588-2.53,2.13l3.995,7.734v0.196h-4.945L502.046,26.87z M499.545,23.317h2.918c0.881,0,1.54-0.231,1.98-0.692
		c0.446-0.461,0.665-1.105,0.665-1.932c0-0.826-0.224-1.474-0.671-1.943c-0.448-0.471-1.102-0.706-1.975-0.706h-2.918V23.317z"/>
	<path clip-path="url(#SVGID_2_)" fill="#099DD9" d="M519.753,26.87h-2.499v6.772h-4.619V14.493h7.536
		c2.273,0,4.051,0.5,5.328,1.509c1.282,1.007,1.921,2.432,1.921,4.269c0,1.333-0.271,2.436-0.808,3.311
		c-0.542,0.879-1.384,1.588-2.533,2.13l3.998,7.734v0.196h-4.946L519.753,26.87z M517.254,23.317h2.917
		c0.878,0,1.539-0.231,1.979-0.692c0.444-0.461,0.667-1.105,0.667-1.932c0-0.826-0.223-1.474-0.672-1.943
		c-0.446-0.471-1.104-0.706-1.975-0.706h-2.917V23.317z"/>
	<path clip-path="url(#SVGID_2_)" fill="#099DD9" d="M546.563,24.461c0,1.866-0.346,3.522-1.04,4.961
		c-0.693,1.437-1.677,2.543-2.956,3.32c-1.271,0.774-2.728,1.163-4.355,1.163c-1.635,0-3.08-0.373-4.344-1.123
		c-1.261-0.751-2.245-1.824-2.951-3.218c-0.707-1.394-1.076-2.993-1.112-4.8v-1.079c0-1.875,0.346-3.531,1.03-4.965
		c0.692-1.432,1.677-2.541,2.962-3.32c1.283-0.783,2.748-1.173,4.386-1.173c1.622,0,3.07,0.386,4.341,1.157
		c1.271,0.771,2.259,1.871,2.968,3.297c0.704,1.425,1.062,3.057,1.072,4.898V24.461z M541.865,23.659
		c0-1.903-0.32-3.349-0.952-4.335c-0.637-0.987-1.549-1.479-2.731-1.479c-2.315,0-3.537,1.736-3.668,5.208l-0.016,1.408
		c0,1.878,0.312,3.322,0.937,4.327c0.62,1.009,1.548,1.513,2.776,1.513c1.164,0,2.063-0.496,2.693-1.486
		c0.634-0.99,0.951-2.415,0.961-4.273V23.659z"/>
	<polygon clip-path="url(#SVGID_2_)" fill="#099DD9" points="553.695,30.092 561.731,30.092 561.731,33.644 549.076,33.644 
		549.076,14.491 553.695,14.491 	"/>
	<polygon clip-path="url(#SVGID_2_)" fill="#099DD9" points="568.429,30.092 576.464,30.092 576.464,33.644 563.811,33.644 
		563.811,14.491 568.429,14.491 	"/>
	<path clip-path="url(#SVGID_2_)" fill="#099DD9" d="M593.924,24.461c0,1.866-0.346,3.522-1.041,4.961
		c-0.693,1.437-1.674,2.543-2.954,3.32c-1.272,0.774-2.727,1.163-4.355,1.163c-1.635,0-3.083-0.373-4.341-1.123
		c-1.265-0.751-2.25-1.824-2.953-3.218c-0.71-1.394-1.077-2.993-1.111-4.8v-1.079c0-1.875,0.342-3.531,1.028-4.965
		c0.689-1.432,1.679-2.541,2.961-3.32c1.285-0.783,2.746-1.173,4.389-1.173c1.618,0,3.068,0.386,4.341,1.157
		c1.269,0.771,2.257,1.871,2.965,3.297c0.703,1.425,1.064,3.057,1.072,4.898V24.461z M589.229,23.659
		c0-1.903-0.318-3.349-0.953-4.335c-0.638-0.987-1.549-1.479-2.729-1.479c-2.318,0-3.537,1.736-3.67,5.208l-0.014,1.408
		c0,1.878,0.312,3.322,0.933,4.327c0.625,1.009,1.55,1.513,2.778,1.513c1.162,0,2.063-0.496,2.694-1.486
		c0.63-0.99,0.948-2.415,0.961-4.273V23.659z"/>
	<path clip-path="url(#SVGID_2_)" fill="#099DD9" d="M400.518,57.672c0-0.884-0.314-1.578-0.943-2.072
		c-0.625-0.496-1.729-1.005-3.308-1.538c-1.576-0.529-2.866-1.04-3.869-1.534c-3.259-1.604-4.889-3.805-4.889-6.604
		c0-1.392,0.406-2.622,1.218-3.687s1.961-1.894,3.447-2.486c1.485-0.592,3.151-0.892,5.011-0.892c1.808,0,3.427,0.323,4.859,0.971
		c1.436,0.644,2.548,1.561,3.346,2.752c0.792,1.192,1.191,2.555,1.191,4.085h-6.047c0-1.023-0.313-1.819-0.943-2.384
		c-0.625-0.565-1.478-0.844-2.549-0.844c-1.08,0-1.935,0.238-2.563,0.715c-0.63,0.477-0.94,1.088-0.94,1.824
		c0,0.644,0.343,1.229,1.032,1.751c0.694,0.525,1.907,1.065,3.648,1.623c1.738,0.562,3.165,1.161,4.283,1.807
		c2.719,1.564,4.078,3.724,4.078,6.478c0,2.201-0.83,3.93-2.489,5.181c-1.656,1.255-3.934,1.884-6.822,1.884
		c-2.04,0-3.885-0.364-5.536-1.096c-1.656-0.73-2.899-1.732-3.732-3.007c-0.835-1.272-1.253-2.738-1.253-4.396h6.081
		c0,1.346,0.348,2.339,1.046,2.981c0.694,0.638,1.828,0.958,3.395,0.958c0.999,0,1.795-0.215,2.376-0.646
		C400.226,59.062,400.518,58.457,400.518,57.672"/>
	<path clip-path="url(#SVGID_2_)" fill="#099DD9" d="M430.991,52.299c0,2.453-0.455,4.627-1.366,6.517
		c-0.909,1.888-2.201,3.339-3.879,4.362c-1.675,1.015-3.586,1.525-5.726,1.525c-2.143,0-4.041-0.493-5.701-1.477
		c-1.658-0.984-2.95-2.392-3.88-4.223c-0.926-1.831-1.411-3.932-1.459-6.306v-1.415c0-2.463,0.452-4.641,1.359-6.522
		c0.903-1.885,2.198-3.335,3.885-4.362c1.688-1.024,3.608-1.538,5.763-1.538c2.13,0,4.029,0.507,5.697,1.521
		c1.672,1.013,2.972,2.459,3.899,4.332c0.925,1.867,1.396,4.016,1.407,6.431V52.299z M424.823,51.246
		c0-2.499-0.417-4.393-1.252-5.692c-0.838-1.296-2.03-1.943-3.584-1.943c-3.041,0-4.648,2.282-4.821,6.844l-0.016,1.846
		c0,2.466,0.408,4.359,1.227,5.687c0.816,1.324,2.031,1.987,3.644,1.987c1.531,0,2.713-0.652,3.539-1.955
		c0.831-1.301,1.252-3.172,1.264-5.615V51.246z"/>
	<path clip-path="url(#SVGID_2_)" fill="#099DD9" d="M447.09,57.672c0-0.884-0.314-1.578-0.941-2.072
		c-0.627-0.496-1.729-1.005-3.307-1.538c-1.577-0.529-2.869-1.04-3.872-1.534c-3.257-1.604-4.887-3.805-4.887-6.604
		c0-1.392,0.405-2.622,1.22-3.687c0.811-1.065,1.96-1.894,3.444-2.486c1.485-0.592,3.154-0.892,5.012-0.892
		c1.807,0,3.428,0.323,4.861,0.971c1.434,0.644,2.547,1.561,3.343,2.752c0.795,1.192,1.19,2.555,1.19,4.085h-6.044
		c0-1.023-0.315-1.819-0.942-2.384c-0.626-0.565-1.478-0.844-2.548-0.844c-1.084,0-1.938,0.238-2.565,0.715
		c-0.629,0.477-0.942,1.088-0.942,1.824c0,0.644,0.347,1.229,1.035,1.751c0.691,0.525,1.907,1.065,3.648,1.623
		c1.738,0.562,3.166,1.161,4.283,1.807c2.719,1.564,4.075,3.724,4.075,6.478c0,2.201-0.828,3.93-2.486,5.181
		c-1.658,1.255-3.933,1.884-6.824,1.884c-2.039,0-3.885-0.364-5.534-1.096c-1.655-0.73-2.901-1.732-3.733-3.007
		c-0.834-1.272-1.253-2.738-1.253-4.396h6.082c0,1.346,0.347,2.339,1.046,2.981c0.694,0.638,1.827,0.958,3.393,0.958
		c1.001,0,1.794-0.215,2.376-0.646C446.801,59.062,447.09,58.457,447.09,57.672"/>
	<polygon clip-path="url(#SVGID_2_)" fill="#099DD9" points="476.011,43.887 468.459,43.887 468.459,64.358 462.396,64.358 
		462.396,43.887 454.985,43.887 454.985,39.206 476.011,39.206 	"/>
	<polygon clip-path="url(#SVGID_2_)" fill="#099DD9" points="494.166,53.681 484.629,53.681 484.629,59.697 495.896,59.697 
		495.896,64.358 478.567,64.358 478.567,39.206 495.929,39.206 495.929,43.887 484.629,43.887 484.629,49.19 494.166,49.19 	"/>
	<polygon clip-path="url(#SVGID_2_)" fill="#099DD9" points="519.372,64.358 513.342,64.358 504.428,48.707 504.428,64.358 
		498.364,64.358 498.364,39.206 504.428,39.206 513.324,54.856 513.324,39.206 519.372,39.206 	"/>
	<rect x="523.625" y="39.204" clip-path="url(#SVGID_2_)" fill="#099DD9" width="6.044" height="25.155"/>
	<path clip-path="url(#SVGID_2_)" fill="#099DD9" d="M533.884,64.36V39.206h9.034c3.234,0,5.696,0.594,7.386,1.782
		c1.687,1.184,2.53,2.907,2.53,5.165c0,1.3-0.298,2.409-0.9,3.332c-0.597,0.921-1.479,1.6-2.641,2.04
		c1.315,0.344,2.318,0.99,3.02,1.936c0.706,0.942,1.056,2.094,1.056,3.453c0,2.464-0.78,4.316-2.337,5.555
		c-1.562,1.238-3.876,1.867-6.94,1.892H533.884z M539.946,49.69h3.16c1.325-0.008,2.269-0.25,2.834-0.727
		c0.565-0.473,0.848-1.171,0.848-2.095c0-1.063-0.308-1.831-0.917-2.296c-0.609-0.467-1.598-0.704-2.953-0.704h-2.972V49.69z
		 M539.946,53.666v6.031h3.974c1.092,0,1.936-0.252,2.523-0.752c0.588-0.504,0.881-1.209,0.881-2.119
		c0-2.095-1.042-3.148-3.127-3.16H539.946z"/>
	<polygon clip-path="url(#SVGID_2_)" fill="#099DD9" points="562.77,59.695 573.321,59.695 573.321,64.358 556.706,64.358 
		556.706,39.206 562.77,39.206 	"/>
	<polygon clip-path="url(#SVGID_2_)" fill="#099DD9" points="591.479,53.681 581.943,53.681 581.943,59.697 593.209,59.697 
		593.209,64.358 575.88,64.358 575.88,39.206 593.241,39.206 593.241,43.887 581.943,43.887 581.943,49.19 591.479,49.19 	"/>
	<path clip-path="url(#SVGID_2_)" fill="#099DD9" d="M60.302,42.281c0.032,4.858-0.796,9.124-2.489,12.796
		c-1.692,3.669-4.131,6.513-7.314,8.523c-3.182,2.007-6.843,3.026-10.976,3.057c-4.093,0.026-7.747-0.933-10.968-2.874
		c-3.222-1.943-5.726-4.735-7.513-8.371c-1.788-3.639-2.709-7.83-2.764-12.574l-0.016-2.438c-0.034-4.86,0.813-9.143,2.539-12.848
		c1.725-3.706,4.18-6.559,7.365-8.557c3.183-2.001,6.83-3.012,10.943-3.04c4.11-0.03,7.771,0.933,10.984,2.89
		c3.209,1.955,5.704,4.773,7.477,8.455c1.777,3.684,2.683,7.943,2.714,12.779L60.302,42.281z M49.983,40.115
		c-0.038-5.173-0.988-9.099-2.858-11.775c-1.873-2.676-4.523-4.002-7.959-3.979c-3.413,0.023-6.037,1.369-7.871,4.035
		c-1.834,2.67-2.746,6.567-2.732,11.696l0.017,2.405c0.036,5.042,0.986,8.941,2.86,11.707c1.869,2.769,4.544,4.139,8.025,4.114
		c3.411-0.021,6.024-1.378,7.835-4.068c1.814-2.69,2.713-6.6,2.699-11.729L49.983,40.115z"/>
	<path clip-path="url(#SVGID_2_)" fill="#099DD9" d="M66.53,65.794l-0.336-49.346l17.286-0.119
		c5.987-0.037,10.536,1.078,13.645,3.349c3.11,2.274,4.684,5.623,4.713,10.052c0.019,2.417-0.59,4.55-1.818,6.402
		c-1.23,1.847-2.951,3.212-5.16,4.085c2.535,0.615,4.538,1.876,6.01,3.787c1.469,1.913,2.215,4.256,2.23,7.036
		c0.036,4.743-1.454,8.346-4.465,10.806c-3.011,2.46-7.319,3.737-12.923,3.82L66.53,65.794z M76.504,37.055L84.027,37
		c5.126-0.121,7.677-2.186,7.652-6.185c-0.017-2.237-0.676-3.843-1.983-4.817c-1.304-0.975-3.359-1.452-6.16-1.432l-7.118,0.048
		L76.504,37.055z M76.553,44.238l0.09,13.32l8.71-0.062c2.394-0.014,4.26-0.598,5.595-1.747c1.336-1.15,2-2.732,1.983-4.743
		c-0.028-4.518-2.383-6.798-7.061-6.831L76.553,44.238z"/>
	<path clip-path="url(#SVGID_2_)" fill="#099DD9" d="M129.065,16.02l10.167-0.069l0.231,34.163c0.023,3.14-0.653,5.919-2.025,8.337
		c-1.375,2.413-3.321,4.285-5.843,5.611c-2.521,1.327-5.375,2.001-8.56,2.026c-5.222,0.033-9.296-1.267-12.229-3.9
		c-2.933-2.634-4.415-6.382-4.448-11.241l10.237-0.069c0.015,2.42,0.535,4.199,1.561,5.345c1.023,1.145,2.632,1.71,4.823,1.695
		c1.945-0.012,3.486-0.687,4.63-2.032c1.144-1.34,1.707-3.241,1.69-5.704L129.065,16.02z"/>
	<polygon clip-path="url(#SVGID_2_)" fill="#099DD9" points="176.502,43.658 156.981,43.791 157.071,57.009 179.983,56.853 
		180.04,65.022 146.96,65.247 146.624,15.9 179.635,15.675 179.689,23.913 156.849,24.066 156.929,35.826 176.449,35.693 	"/>
	<polygon clip-path="url(#SVGID_2_)" fill="#099DD9" points="222.227,23.621 207.11,23.722 207.392,64.835 197.224,64.904 
		196.943,23.793 182.034,23.896 181.976,15.66 222.171,15.387 	"/>
	
		<rect x="227.459" y="15.318" transform="matrix(1 -0.0068 0.0068 1 -0.2654 1.5755)" clip-path="url(#SVGID_2_)" fill="#099DD9" width="10.168" height="49.343"/>
	<polygon clip-path="url(#SVGID_2_)" fill="#099DD9" points="264.047,52.212 274.978,15.024 286.297,14.947 269.453,64.41 
		258.844,64.481 241.393,15.256 252.677,15.179 	"/>
	<path clip-path="url(#SVGID_2_)" fill="#099DD9" d="M366.479,50.802c-0.016-1.918-0.699-3.39-2.063-4.408
		c-1.365-1.019-3.809-2.086-7.34-3.203c-3.537-1.117-6.334-2.224-8.396-3.316c-5.622-2.989-8.455-7.048-8.489-12.176
		c-0.02-2.667,0.715-5.05,2.208-7.151c1.486-2.1,3.631-3.745,6.437-4.941c2.805-1.193,5.959-1.803,9.46-1.826
		c3.523-0.023,6.67,0.592,9.435,1.851c2.765,1.257,4.919,3.045,6.46,5.362s2.32,4.954,2.341,7.913l-10.166,0.071
		c-0.014-2.258-0.739-4.012-2.171-5.256c-1.434-1.244-3.436-1.859-6.013-1.839c-2.485,0.017-4.413,0.554-5.786,1.615
		c-1.369,1.059-2.049,2.449-2.036,4.166c0.01,1.605,0.827,2.943,2.448,4.016c1.625,1.073,4.009,2.074,7.156,3.003
		c5.795,1.7,10.023,3.828,12.686,6.386c2.661,2.559,4.006,5.757,4.032,9.599c0.028,4.27-1.564,7.632-4.779,10.083
		c-3.214,2.449-7.555,3.695-13.022,3.731c-3.796,0.025-7.257-0.646-10.385-2.013c-3.128-1.368-5.518-3.256-7.174-5.663
		c-1.655-2.407-2.491-5.202-2.514-8.39l10.201-0.069c0.039,5.446,3.313,8.147,9.815,8.101c2.417-0.016,4.301-0.518,5.649-1.511
		C365.823,53.943,366.49,52.566,366.479,50.802"/>
</g>
</svg>
