<?xml version="1.0" encoding="utf-8"?>
<!-- Generator: Adobe Illustrator 24.0.2, SVG Export Plug-In . SVG Version: 6.00 Build 0)  -->
<svg version="1.1" id="Layer_1" xmlns="http://www.w3.org/2000/svg" xmlns:xlink="http://www.w3.org/1999/xlink" x="0px" y="0px"
	 viewBox="0 0 612 800" style="enable-background:new 0 0 612 800;" xml:space="preserve">
<style type="text/css">
	.st0{fill:#EE9022;}
	.st1{clip-path:url(#SVGID_2_);fill:#D87D27;}
	.st2{clip-path:url(#SVGID_4_);fill:#FFFFFF;}
	.st3{clip-path:url(#SVGID_6_);fill:#FFFFFF;}
	.st4{clip-path:url(#SVGID_8_);fill:#FFFFFF;}
	.st5{enable-background:new    ;}
	.st6{fill:#FFFFFF;}
	.st7{fill:none;}
</style>
<g id="Primer_plano">
	<rect x="373" y="609.3" class="st0" width="214.3" height="44"/>
	<rect x="152.5" y="609.3" class="st0" width="217.5" height="44"/>
	<g>
		<rect x="21" y="609.3" class="st0" width="126.7" height="126.6"/>
		<g>
			<g>
				<g>
					<defs>
						<rect id="SVGID_1_" x="21" y="609.3" width="126.7" height="126.6"/>
					</defs>
					<clipPath id="SVGID_2_">
						<use xlink:href="#SVGID_1_"  style="overflow:visible;"/>
					</clipPath>
					<path class="st1" d="M120.4,637.3c-1-1-2.2-1.8-3.5-2.5c-2.8-1.6-5.8-2.5-9.1-2.8c-4-0.4-8-0.1-11.8,1.3
						c-4.8,1.7-8.6,4.8-11.2,9.2c-0.5,0.9-0.9,1.8-0.8,2.9c0.1,2.2,0,4.3,0,6.5c-0.1,0-0.2,0.1-0.3,0.1c-0.2-0.2-0.3-0.5-0.6-0.7
						c-2.7-2.7-5.4-5.5-8.2-8.2c-4.2-4.2-9.3-5.9-15.1-5.2c-5.2,0.5-9.5,3.1-12.6,7.3c-3,4-4.2,8.6-3.5,13.6
						c0.5,4.1,2.4,7.7,5.3,10.6c3.4,3.4,6.8,6.8,10.1,10.2c0.2,0.2,0.5,0.3,0.6,0.8c-3.5-0.2-7,0.2-10.2,1.6c0.2,0.4,0.5,0.7,0.8,1
						c14.9,14.8,29.7,29.7,44.6,44.5c2.6,2.6,5.2,5.2,7.8,7.8c0.3,0.3,0.6,0.4,1,0.5c0.1,0,0.1,0,0.2,0c14.4,0,28.9,0,43.3,0
						c0.1,0,0.1,0,0.2,0c0.2,0,0.3-0.1,0.3-0.3v-70.3c0-0.2-0.1-0.5-0.3-0.7C138.3,655.3,129.4,646.3,120.4,637.3"/>
				</g>
			</g>
			<g>
				<g>
					<defs>
						<rect id="SVGID_3_" x="21" y="609.3" width="126.7" height="126.6"/>
					</defs>
					<clipPath id="SVGID_4_">
						<use xlink:href="#SVGID_3_"  style="overflow:visible;"/>
					</clipPath>
					<path class="st2" d="M57.9,680.2c-3,0-5.9,0.6-8.5,1.8c2.2,2.4,4.6,4.6,7,6.8c6.8,6.1,13.8,11.9,20.6,18c0-0.2,0-0.3,0-0.5V697
						C77,687.7,68.4,680.2,57.9,680.2"/>
				</g>
			</g>
			<g>
				<g>
					<defs>
						<rect id="SVGID_5_" x="21" y="609.3" width="126.7" height="126.6"/>
					</defs>
					<clipPath id="SVGID_6_">
						<use xlink:href="#SVGID_5_"  style="overflow:visible;"/>
					</clipPath>
					<path class="st3" d="M105.6,631.9h-2c-10.2,1.4-16.3,5.4-19.3,12.1v68.3c1.4-1.9,3.6-3.8,5.7-5.6c0-0.1-0.5-0.3-0.5-0.4V697
						c0-9.3,8.5-16.9,19.1-16.9c3,0,5.6,0.6,8.2,1.7c5.9-6.3,10.5-14,10.5-26v-2.7C126.6,640.1,118.8,633.4,105.6,631.9
						 M104.9,674.6c-10.2,0-18.4-8.2-18.4-18.4s8.2-18.4,18.4-18.4s18.4,8.2,18.4,18.4C123.3,666.3,115.1,674.6,104.9,674.6"/>
				</g>
			</g>
			<g>
				<g>
					<defs>
						<rect id="SVGID_7_" x="21" y="609.3" width="126.7" height="126.6"/>
					</defs>
					<clipPath id="SVGID_8_">
						<use xlink:href="#SVGID_7_"  style="overflow:visible;"/>
					</clipPath>
					<path class="st4" d="M62,637.7c-10.2,0-18.4,8.2-18.4,18.4s8.2,18.4,18.4,18.4s18.4-8.2,18.4-18.4
						C80.4,646,72.2,637.7,62,637.7"/>
				</g>
			</g>
		</g>
	</g>
	<g class="st5">
		<path class="st6" d="M383.8,638.6v-14.2h4.2c1.3,0,2.4,0.3,3.3,0.8c1,0.6,1.7,1.4,2.3,2.4c0.5,1,0.8,2.2,0.8,3.5v0.7
			c0,1.3-0.3,2.5-0.8,3.6s-1.3,1.8-2.3,2.4c-1,0.6-2.1,0.8-3.4,0.8H383.8z M386.3,626.4v10.2h1.6c1.3,0,2.3-0.4,3-1.2s1-2,1.1-3.5
			v-0.8c0-1.5-0.3-2.7-1-3.5s-1.6-1.2-2.9-1.2H386.3z"/>
		<path class="st6" d="M401.3,638.8c-1.5,0-2.7-0.5-3.7-1.4c-0.9-0.9-1.4-2.2-1.4-3.8v-0.3c0-1.1,0.2-2,0.6-2.8s1-1.5,1.7-1.9
			c0.7-0.5,1.6-0.7,2.5-0.7c1.4,0,2.5,0.5,3.3,1.4s1.2,2.2,1.2,3.9v1h-6.9c0.1,0.9,0.4,1.6,0.9,2.1s1.2,0.8,1.9,0.8
			c1.1,0,2-0.4,2.7-1.3l1.3,1.2c-0.4,0.6-1,1.1-1.7,1.5C402.9,638.7,402.1,638.8,401.3,638.8z M401,629.8c-0.7,0-1.2,0.2-1.6,0.7
			s-0.7,1.1-0.8,1.9h4.5v-0.2c-0.1-0.8-0.3-1.4-0.6-1.8S401.6,629.8,401,629.8z"/>
		<path class="st6" d="M412.9,630.2c-0.3-0.1-0.6-0.1-1-0.1c-1.1,0-1.8,0.4-2.2,1.3v7.2h-2.4V628h2.3l0.1,1.2
			c0.6-0.9,1.4-1.4,2.4-1.4c0.3,0,0.6,0,0.8,0.1L412.9,630.2z"/>
		<path class="st6" d="M418.8,638.8c-1.5,0-2.7-0.5-3.7-1.4c-0.9-0.9-1.4-2.2-1.4-3.8v-0.3c0-1.1,0.2-2,0.6-2.8s1-1.5,1.7-1.9
			c0.7-0.5,1.6-0.7,2.5-0.7c1.4,0,2.5,0.5,3.3,1.4s1.2,2.2,1.2,3.9v1h-6.9c0.1,0.9,0.4,1.6,0.9,2.1s1.2,0.8,1.9,0.8
			c1.1,0,2-0.4,2.7-1.3l1.3,1.2c-0.4,0.6-1,1.1-1.7,1.5C420.5,638.7,419.7,638.8,418.8,638.8z M418.6,629.8c-0.7,0-1.2,0.2-1.6,0.7
			s-0.7,1.1-0.8,1.9h4.5v-0.2c-0.1-0.8-0.3-1.4-0.6-1.8S419.2,629.8,418.6,629.8z"/>
		<path class="st6" d="M429.3,636.9c0.6,0,1.1-0.2,1.5-0.5s0.6-0.8,0.6-1.3h2.2c0,0.7-0.2,1.3-0.6,1.8c-0.4,0.6-0.9,1-1.6,1.4
			c-0.7,0.3-1.4,0.5-2.1,0.5c-1.5,0-2.7-0.5-3.5-1.4c-0.9-1-1.3-2.3-1.3-4v-0.2c0-1.6,0.4-2.9,1.3-3.9s2-1.5,3.5-1.5
			c1.3,0,2.3,0.4,3.1,1.1s1.2,1.7,1.2,2.9h-2.2c0-0.6-0.2-1.1-0.6-1.5s-0.9-0.6-1.5-0.6c-0.8,0-1.4,0.3-1.8,0.8
			c-0.4,0.6-0.6,1.4-0.6,2.5v0.4c0,1.1,0.2,2,0.6,2.6C427.9,636.7,428.5,636.9,429.3,636.9z"/>
		<path class="st6" d="M437.7,629.2c0.8-0.9,1.8-1.3,2.9-1.3c2.3,0,3.4,1.3,3.4,3.9v6.9h-2.4v-6.8c0-0.7-0.2-1.2-0.5-1.5
			s-0.8-0.5-1.4-0.5c-1,0-1.7,0.4-2.1,1.3v7.5h-2.4v-15h2.4v5.5H437.7z"/>
		<path class="st6" d="M446.1,633.3c0-1,0.2-2,0.6-2.8s1-1.5,1.7-1.9s1.6-0.7,2.6-0.7c1.4,0,2.6,0.5,3.5,1.4s1.4,2.1,1.4,3.7v0.6
			c0,1-0.2,2-0.6,2.8s-1,1.5-1.7,1.9S452,639,451,639c-1.5,0-2.7-0.5-3.6-1.5s-1.3-2.3-1.3-4V633.3z M448.4,633.5
			c0,1.1,0.2,1.9,0.7,2.6s1.1,0.9,1.9,0.9s1.4-0.3,1.9-0.9c0.4-0.6,0.7-1.5,0.7-2.7c0-1.1-0.2-1.9-0.7-2.5s-1.1-0.9-1.9-0.9
			s-1.4,0.3-1.8,0.9C448.7,631.3,448.4,632.2,448.4,633.5z"/>
		<path class="st6" d="M463.8,635.8c0-0.4-0.2-0.7-0.5-1c-0.3-0.2-0.9-0.4-1.7-0.6c-0.8-0.2-1.5-0.4-2-0.6c-1.2-0.6-1.8-1.4-1.8-2.5
			c0-0.9,0.4-1.7,1.2-2.3c0.8-0.6,1.7-0.9,2.9-0.9c1.3,0,2.3,0.3,3.1,0.9c0.8,0.6,1.2,1.4,1.2,2.4h-2.4c0-0.5-0.2-0.8-0.5-1.1
			s-0.8-0.5-1.3-0.5s-0.9,0.1-1.3,0.4c-0.3,0.2-0.5,0.6-0.5,1s0.2,0.6,0.5,0.8s0.9,0.4,1.9,0.6c0.9,0.2,1.7,0.4,2.2,0.7
			s0.9,0.6,1.2,1c0.3,0.4,0.4,0.9,0.4,1.4c0,1-0.4,1.7-1.2,2.3c-0.8,0.6-1.8,0.9-3.1,0.9c-0.9,0-1.6-0.2-2.3-0.5
			c-0.7-0.3-1.2-0.7-1.6-1.3c-0.4-0.5-0.6-1.1-0.6-1.8h2.3c0,0.6,0.2,1,0.6,1.3s0.9,0.5,1.6,0.5c0.6,0,1.1-0.1,1.4-0.4
			C463.6,636.5,463.8,636.1,463.8,635.8z"/>
		<path class="st6" d="M484.7,638.6h-2.5v-6.3h-6.4v6.3h-2.5v-14.2h2.5v5.9h6.4v-5.9h2.5V638.6z"/>
		<path class="st6" d="M493.8,637.6c-0.7,0.8-1.7,1.2-3,1.2c-1.1,0-2-0.3-2.6-1s-0.9-1.6-0.9-2.9v-6.8h2.4v6.8c0,1.3,0.6,2,1.7,2
			c1.2,0,1.9-0.4,2.3-1.2v-7.6h2.4v10.6h-2.2L493.8,637.6z"/>
		<path class="st6" d="M500.7,628.1l0.1,1.1c0.7-0.9,1.8-1.3,3-1.3c1.4,0,2.4,0.5,2.9,1.6c0.8-1.1,1.8-1.6,3.2-1.6
			c1.2,0,2,0.3,2.6,1c0.6,0.6,0.9,1.6,0.9,2.9v6.9H511v-6.9c0-0.7-0.1-1.2-0.4-1.5s-0.8-0.5-1.5-0.5c-0.5,0-1,0.1-1.3,0.4
			s-0.6,0.7-0.7,1.1v7.2h-2.4v-7c0-1.2-0.7-1.9-1.9-1.9c-1,0-1.6,0.4-2,1.2v7.7h-2.4v-10.6h2.3V628.1z"/>
		<path class="st6" d="M522.2,638.6c-0.1-0.2-0.2-0.5-0.3-1c-0.8,0.8-1.7,1.2-2.8,1.2s-1.9-0.3-2.6-0.9c-0.7-0.6-1-1.4-1-2.2
			c0-1.1,0.4-2,1.3-2.6c0.8-0.6,2-0.9,3.6-0.9h1.5v-0.7c0-0.5-0.2-1-0.5-1.3s-0.8-0.5-1.4-0.5c-0.5,0-1,0.1-1.3,0.4
			c-0.3,0.3-0.5,0.6-0.5,1h-2.4c0-0.6,0.2-1.1,0.6-1.6c0.4-0.5,0.9-0.9,1.6-1.2c0.7-0.3,1.4-0.4,2.2-0.4c1.2,0,2.2,0.3,3,0.9
			c0.7,0.6,1.1,1.5,1.1,2.6v4.8c0,1,0.1,1.7,0.4,2.3v0.2L522.2,638.6L522.2,638.6z M519.6,636.9c0.5,0,0.9-0.1,1.3-0.3
			c0.4-0.2,0.7-0.5,0.9-0.9v-2h-1.3c-0.9,0-1.5,0.2-2,0.5c-0.4,0.3-0.7,0.7-0.7,1.3c0,0.5,0.2,0.8,0.5,1.1S519.1,636.9,519.6,636.9z
			"/>
		<path class="st6" d="M528.9,628.1l0.1,1.2c0.8-0.9,1.8-1.4,3.1-1.4c2.2,0,3.3,1.3,3.4,3.8v7h-2.4v-6.8c0-0.7-0.1-1.2-0.4-1.5
			c-0.3-0.3-0.8-0.5-1.4-0.5c-1,0-1.7,0.4-2.1,1.3v7.5h-2.4v-10.6H528.9z"/>
		<path class="st6" d="M537.4,633.3c0-1,0.2-2,0.6-2.8s1-1.5,1.7-1.9s1.6-0.7,2.6-0.7c1.4,0,2.6,0.5,3.5,1.4s1.4,2.1,1.4,3.7v0.6
			c0,1-0.2,2-0.6,2.8s-1,1.5-1.7,1.9s-1.6,0.7-2.6,0.7c-1.5,0-2.7-0.5-3.6-1.5c-0.9-1-1.3-2.3-1.3-4L537.4,633.3L537.4,633.3z
			 M539.8,633.5c0,1.1,0.2,1.9,0.7,2.6s1.1,0.9,1.9,0.9s1.4-0.3,1.9-0.9c0.4-0.6,0.7-1.5,0.7-2.7c0-1.1-0.2-1.9-0.7-2.5
			s-1.1-0.9-1.9-0.9c-0.8,0-1.4,0.3-1.8,0.9C540,631.3,539.8,632.2,539.8,633.5z"/>
		<path class="st6" d="M555.2,635.8c0-0.4-0.2-0.7-0.5-1c-0.3-0.2-0.9-0.4-1.7-0.6c-0.8-0.2-1.5-0.4-2-0.6c-1.2-0.6-1.8-1.4-1.8-2.5
			c0-0.9,0.4-1.7,1.2-2.3s1.7-0.9,2.9-0.9c1.3,0,2.3,0.3,3.1,0.9c0.8,0.6,1.2,1.4,1.2,2.4H555c0-0.5-0.2-0.8-0.5-1.1
			s-0.8-0.5-1.3-0.5s-0.9,0.1-1.3,0.4c-0.3,0.2-0.5,0.6-0.5,1s0.2,0.6,0.5,0.8s0.9,0.4,1.9,0.6c0.9,0.2,1.7,0.4,2.2,0.7
			s0.9,0.6,1.2,1s0.4,0.9,0.4,1.4c0,1-0.4,1.7-1.2,2.3s-1.8,0.9-3.1,0.9c-0.9,0-1.6-0.2-2.3-0.5s-1.2-0.7-1.6-1.3
			c-0.4-0.5-0.6-1.1-0.6-1.8h2.3c0,0.6,0.2,1,0.6,1.3s0.9,0.5,1.6,0.5c0.6,0,1.1-0.1,1.4-0.4C555,636.5,555.2,636.1,555.2,635.8z"/>
	</g>
	<rect x="162.1" y="620.7" class="st7" width="145.9" height="28.2"/>
	<g class="st5">
		<path class="st6" d="M166.6,634.5v8.7h-1.8v-21.3h7.3c2.2,0,4,0.6,5.3,1.7s1.9,2.7,1.9,4.7s-0.6,3.5-1.9,4.6
			c-1.2,1.1-3,1.6-5.4,1.6H166.6z M166.6,633h5.5c1.7,0,3.1-0.4,4-1.2s1.4-2,1.4-3.5s-0.5-2.7-1.4-3.5c-0.9-0.9-2.2-1.3-3.9-1.3
			h-5.6V633z"/>
		<path class="st6" d="M190.2,628.8c-0.4-0.1-0.8-0.1-1.2-0.1c-1.1,0-2,0.3-2.8,0.9c-0.8,0.6-1.3,1.5-1.6,2.7v10.9h-1.7v-15.8h1.7
			v2.5c0.9-1.9,2.4-2.8,4.5-2.8c0.5,0,0.9,0.1,1.2,0.2L190.2,628.8z"/>
		<path class="st6" d="M192.9,622.8c0-0.3,0.1-0.6,0.3-0.8s0.5-0.3,0.9-0.3s0.7,0.1,0.9,0.3s0.3,0.5,0.3,0.8s-0.1,0.6-0.3,0.8
			s-0.5,0.3-0.9,0.3s-0.7-0.1-0.9-0.3C193,623.4,192.9,623.1,192.9,622.8z M194.9,643.2h-1.8v-15.8h1.8V643.2z"/>
		<path class="st6" d="M201.4,627.4l0.1,2.7c0.6-1,1.3-1.7,2.2-2.2s1.9-0.8,2.9-0.8c1.7,0,3,0.5,3.8,1.4s1.3,2.4,1.3,4.3v10.4H210
			v-10.4c0-1.4-0.3-2.5-0.9-3.2s-1.5-1-2.8-1c-1.1,0-2,0.3-2.9,1c-0.8,0.7-1.5,1.6-1.9,2.7v10.9h-1.7v-15.8L201.4,627.4L201.4,627.4
			z"/>
		<path class="st6" d="M222,642c1.2,0,2.2-0.3,3.1-1c0.8-0.7,1.3-1.6,1.3-2.7h1.7c0,1-0.4,1.8-0.9,2.6s-1.3,1.4-2.2,1.9
			s-1.9,0.7-3,0.7c-2.1,0-3.7-0.7-4.9-2.2s-1.8-3.4-1.8-5.8V635c0-1.6,0.3-2.9,0.8-4.1s1.3-2.1,2.4-2.8s2.2-1,3.6-1
			c1.7,0,3.2,0.5,4.3,1.6s1.7,2.4,1.8,4.1h-1.7c-0.1-1.2-0.5-2.2-1.3-3s-1.8-1.1-3.1-1.1c-1.6,0-2.8,0.6-3.7,1.7s-1.3,2.7-1.3,4.8
			v0.5c0,2,0.4,3.6,1.3,4.7S220.4,642,222,642z"/>
		<path class="st6" d="M231.5,622.8c0-0.3,0.1-0.6,0.3-0.8s0.5-0.3,0.9-0.3s0.7,0.1,0.9,0.3s0.3,0.5,0.3,0.8s-0.1,0.6-0.3,0.8
			s-0.5,0.3-0.9,0.3s-0.7-0.1-0.9-0.3C231.6,623.4,231.5,623.1,231.5,622.8z M233.6,643.2h-1.8v-15.8h1.8V643.2z"/>
		<path class="st6" d="M251.1,635.4c0,2.5-0.5,4.4-1.6,5.9s-2.6,2.2-4.4,2.2c-2.2,0-3.8-0.8-5-2.3v8.1h-1.7v-21.9h1.6l0.1,2.2
			c1.1-1.7,2.8-2.5,5-2.5c1.9,0,3.4,0.7,4.5,2.2s1.6,3.4,1.6,6v0.1H251.1z M249.3,635.1c0-2-0.4-3.6-1.2-4.8s-2-1.8-3.5-1.8
			c-1.1,0-2,0.3-2.8,0.8s-1.4,1.3-1.8,2.3v7.6c0.4,0.9,1,1.6,1.8,2.1s1.7,0.7,2.8,0.7c1.5,0,2.6-0.6,3.4-1.8
			S249.3,637.4,249.3,635.1z"/>
		<path class="st6" d="M254.9,622.8c0-0.3,0.1-0.6,0.3-0.8s0.5-0.3,0.9-0.3c0.4,0,0.7,0.1,0.9,0.3c0.2,0.2,0.3,0.5,0.3,0.8
			s-0.1,0.6-0.3,0.8c-0.2,0.2-0.5,0.3-0.9,0.3s-0.7-0.1-0.9-0.3C255,623.4,254.9,623.1,254.9,622.8z M256.9,643.2h-1.8v-15.8h1.8
			V643.2z"/>
		<path class="st6" d="M260.7,635c0-1.5,0.3-2.9,0.9-4.1s1.4-2.2,2.5-2.8c1.1-0.7,2.3-1,3.7-1c2.1,0,3.8,0.7,5.1,2.2
			c1.3,1.5,2,3.4,2,5.9v0.4c0,1.5-0.3,2.9-0.9,4.1s-1.4,2.2-2.5,2.8s-2.3,1-3.7,1c-2.1,0-3.8-0.7-5.1-2.2c-1.3-1.5-2-3.4-2-5.9V635z
			 M262.5,635.5c0,1.9,0.5,3.4,1.5,4.7c1,1.2,2.3,1.8,3.9,1.8s2.9-0.6,3.8-1.8c1-1.2,1.5-2.8,1.5-4.8V635c0-1.2-0.2-2.3-0.7-3.3
			s-1.1-1.8-1.9-2.3s-1.7-0.8-2.8-0.8c-1.6,0-2.8,0.6-3.8,1.8s-1.5,2.8-1.5,4.8V635.5z"/>
		<path class="st6" d="M298.9,643.2h-13.4v-1.3l7.3-8.3c1.2-1.4,2.1-2.5,2.5-3.5s0.7-1.8,0.7-2.7c0-1.3-0.4-2.4-1.2-3.2
			s-1.9-1.2-3.3-1.2s-2.6,0.5-3.5,1.4s-1.3,2.1-1.3,3.6H285c0-1.2,0.3-2.3,0.8-3.3s1.3-1.8,2.3-2.3c1-0.6,2.1-0.8,3.4-0.8
			c2,0,3.5,0.5,4.6,1.5s1.6,2.4,1.6,4.2c0,1-0.3,2.1-0.9,3.3s-1.7,2.7-3.3,4.4l-5.9,6.7h11.2L298.9,643.2L298.9,643.2z"/>
	</g>
	<rect x="164.7" y="665.5" class="st7" width="422.6" height="137.2"/>
	<g class="st5">
		<path d="M167.5,675.6l2.6,4.1h-1.4l-3-4v-0.2l3-4h1.4L167.5,675.6z M170.9,675.6l2.6,4.1h-1.4l-3-4v-0.2l3-4h1.4L170.9,675.6z"/>
		<path d="M178.2,679.6h7.1v1.6h-9.1v-14.9h2V679.6z"/>
		<path d="M194.1,681.2c-0.1-0.2-0.2-0.6-0.3-1.2c-0.9,0.9-1.9,1.4-3.2,1.4c-1.1,0-2-0.3-2.7-0.9c-0.7-0.6-1.1-1.4-1.1-2.4
			c0-1.2,0.4-2.1,1.3-2.7c0.9-0.6,2.1-1,3.7-1h1.8v-0.9c0-0.7-0.2-1.2-0.6-1.6c-0.4-0.4-1-0.6-1.8-0.6c-0.7,0-1.2,0.2-1.7,0.5
			s-0.7,0.8-0.7,1.2h-1.9c0-0.6,0.2-1.1,0.6-1.6c0.4-0.5,0.9-0.9,1.6-1.2s1.4-0.5,2.2-0.5c1.3,0,2.3,0.3,3,1
			c0.7,0.6,1.1,1.5,1.1,2.6v5.1c0,1,0.1,1.8,0.4,2.4v0.2h-1.7V681.2z M191,679.8c0.6,0,1.2-0.2,1.7-0.5s0.9-0.7,1.2-1.2v-2.3h-1.5
			c-2.3,0-3.5,0.7-3.5,2c0,0.6,0.2,1.1,0.6,1.4S190.3,679.8,191,679.8z"/>
		<path d="M205.1,678.3c0-0.5-0.2-0.9-0.6-1.2c-0.4-0.3-1.1-0.5-2-0.7s-1.7-0.5-2.3-0.7c-0.6-0.3-1-0.6-1.3-1s-0.4-0.9-0.4-1.4
			c0-0.9,0.4-1.7,1.2-2.3s1.8-0.9,2.9-0.9c1.3,0,2.3,0.3,3.1,1s1.2,1.5,1.2,2.5H205c0-0.5-0.2-1-0.7-1.3c-0.4-0.4-1-0.6-1.7-0.6
			s-1.2,0.2-1.6,0.5s-0.6,0.7-0.6,1.2s0.2,0.8,0.5,1s1,0.5,2,0.7c0.9,0.2,1.7,0.5,2.3,0.8s1,0.6,1.3,1.1c0.3,0.4,0.4,0.9,0.4,1.5
			c0,1-0.4,1.8-1.2,2.4c-0.8,0.6-1.8,0.9-3.1,0.9c-0.9,0-1.7-0.2-2.4-0.5s-1.2-0.8-1.6-1.3c-0.4-0.6-0.6-1.2-0.6-1.8h1.9
			c0,0.6,0.3,1.1,0.8,1.5s1.1,0.6,1.9,0.6c0.7,0,1.3-0.1,1.7-0.4C204.9,679.2,205.1,678.8,205.1,678.3z"/>
		<path d="M219.3,681.4c-1.5,0-2.7-0.5-3.7-1.5c-0.9-1-1.4-2.3-1.4-4v-0.3c0-1.1,0.2-2.1,0.6-2.9c0.4-0.9,1-1.5,1.8-2
			s1.6-0.7,2.5-0.7c1.4,0,2.6,0.5,3.4,1.4c0.8,1,1.2,2.3,1.2,4.1v0.8h-7.5c0,1.1,0.3,2,1,2.7c0.6,0.7,1.4,1,2.3,1
			c0.7,0,1.2-0.1,1.7-0.4c0.5-0.3,0.9-0.6,1.2-1.1l1.2,0.9C222.6,680.7,221.2,681.4,219.3,681.4z M219.1,671.5
			c-0.8,0-1.4,0.3-1.9,0.8c-0.5,0.6-0.8,1.3-1,2.3h5.6v-0.1c-0.1-1-0.3-1.7-0.8-2.2C220.5,671.8,219.9,671.5,219.1,671.5z"/>
		<path d="M227.6,670.1l0.1,1.2c0.8-1,1.9-1.4,3.3-1.4c1.6,0,2.6,0.6,3.2,1.8c0.4-0.5,0.8-1,1.4-1.3c0.6-0.3,1.3-0.5,2.1-0.5
			c2.4,0,3.7,1.3,3.7,3.9v7.4h-1.9v-7.3c0-0.8-0.2-1.4-0.5-1.8c-0.4-0.4-1-0.6-1.8-0.6c-0.7,0-1.3,0.2-1.8,0.6
			c-0.5,0.4-0.7,1-0.8,1.7v7.4h-1.9V674c0-1.6-0.8-2.4-2.4-2.4c-1.2,0-2.1,0.5-2.6,1.6v8.1h-1.9v-11.1L227.6,670.1L227.6,670.1z"/>
		<path d="M253.6,675.8c0,1.7-0.4,3-1.2,4.1c-0.8,1-1.8,1.5-3.1,1.5s-2.4-0.4-3.2-1.3v5.3h-1.9V670h1.7l0.1,1.2
			c0.8-1,1.8-1.4,3.2-1.4c1.3,0,2.4,0.5,3.2,1.5s1.2,2.4,1.2,4.2V675.8z M251.7,675.6c0-1.3-0.3-2.2-0.8-3c-0.5-0.7-1.3-1.1-2.2-1.1
			c-1.1,0-2,0.5-2.6,1.5v5.3c0.6,1,1.4,1.5,2.6,1.5c0.9,0,1.6-0.4,2.2-1.1C251.4,678.1,251.7,677,251.7,675.6z"/>
		<path d="M261.4,671.8c-0.3,0-0.6-0.1-0.9-0.1c-1.2,0-2.1,0.5-2.5,1.6v7.9h-2v-11.1h1.8v1.3c0.6-1,1.5-1.5,2.6-1.5
			c0.4,0,0.6,0,0.8,0.1v1.8H261.4z"/>
		<path d="M267.5,681.4c-1.5,0-2.7-0.5-3.7-1.5c-0.9-1-1.4-2.3-1.4-4v-0.3c0-1.1,0.2-2.1,0.6-2.9c0.4-0.9,1-1.5,1.8-2
			s1.6-0.7,2.5-0.7c1.4,0,2.6,0.5,3.4,1.4c0.8,1,1.2,2.3,1.2,4.1v0.8h-7.5c0,1.1,0.3,2,1,2.7c0.6,0.7,1.4,1,2.3,1
			c0.7,0,1.2-0.1,1.7-0.4c0.5-0.3,0.9-0.6,1.2-1.1l1.2,0.9C270.8,680.7,269.4,681.4,267.5,681.4z M267.3,671.5
			c-0.8,0-1.4,0.3-1.9,0.8c-0.5,0.6-0.8,1.3-1,2.3h5.6v-0.1c-0.1-1-0.3-1.7-0.8-2.2S268.1,671.5,267.3,671.5z"/>
		<path d="M280.5,678.3c0-0.5-0.2-0.9-0.6-1.2s-1.1-0.5-2-0.7s-1.7-0.5-2.3-0.7c-0.6-0.3-1-0.6-1.3-1s-0.4-0.9-0.4-1.4
			c0-0.9,0.4-1.7,1.2-2.3c0.8-0.6,1.8-0.9,2.9-0.9c1.3,0,2.3,0.3,3.1,1c0.8,0.7,1.2,1.5,1.2,2.5h-1.9c0-0.5-0.2-1-0.7-1.3
			c-0.4-0.4-1-0.6-1.7-0.6s-1.2,0.2-1.6,0.5s-0.6,0.7-0.6,1.2s0.2,0.8,0.5,1s1,0.5,2,0.7c0.9,0.2,1.7,0.5,2.3,0.8
			c0.6,0.3,1,0.6,1.3,1.1c0.3,0.4,0.4,0.9,0.4,1.5c0,1-0.4,1.8-1.2,2.4c-0.8,0.6-1.8,0.9-3.1,0.9c-0.9,0-1.7-0.2-2.4-0.5
			s-1.2-0.8-1.6-1.3c-0.4-0.6-0.6-1.2-0.6-1.8h1.9c0,0.6,0.3,1.1,0.8,1.5s1.1,0.6,1.9,0.6c0.7,0,1.3-0.1,1.7-0.4
			C280.3,679.2,280.5,678.8,280.5,678.3z"/>
		<path d="M291.7,681.2c-0.1-0.2-0.2-0.6-0.3-1.2c-0.9,0.9-1.9,1.4-3.2,1.4c-1.1,0-2-0.3-2.7-0.9c-0.7-0.6-1.1-1.4-1.1-2.4
			c0-1.2,0.4-2.1,1.3-2.7c0.9-0.6,2.1-1,3.7-1h1.8v-0.9c0-0.7-0.2-1.2-0.6-1.6c-0.4-0.4-1-0.6-1.8-0.6c-0.7,0-1.2,0.2-1.7,0.5
			s-0.7,0.8-0.7,1.2h-1.9c0-0.6,0.2-1.1,0.6-1.6s0.9-0.9,1.6-1.2s1.4-0.5,2.2-0.5c1.3,0,2.3,0.3,3,1c0.7,0.6,1.1,1.5,1.1,2.6v5.1
			c0,1,0.1,1.8,0.4,2.4v0.2h-1.7V681.2z M288.6,679.8c0.6,0,1.2-0.2,1.7-0.5s0.9-0.7,1.2-1.2v-2.3H290c-2.3,0-3.5,0.7-3.5,2
			c0,0.6,0.2,1.1,0.6,1.4S288,679.8,288.6,679.8z"/>
		<path d="M302.8,678.3c0-0.5-0.2-0.9-0.6-1.2s-1.1-0.5-2-0.7s-1.7-0.5-2.3-0.7c-0.6-0.3-1-0.6-1.3-1s-0.4-0.9-0.4-1.4
			c0-0.9,0.4-1.7,1.2-2.3c0.8-0.6,1.8-0.9,2.9-0.9c1.3,0,2.3,0.3,3.1,1c0.8,0.7,1.2,1.5,1.2,2.5h-1.9c0-0.5-0.2-1-0.7-1.3
			c-0.4-0.4-1-0.6-1.7-0.6s-1.2,0.2-1.6,0.5s-0.6,0.7-0.6,1.2s0.2,0.8,0.5,1s1,0.5,2,0.7c0.9,0.2,1.7,0.5,2.3,0.8
			c0.6,0.3,1,0.6,1.3,1.1c0.3,0.4,0.4,0.9,0.4,1.5c0,1-0.4,1.8-1.2,2.4c-0.8,0.6-1.8,0.9-3.1,0.9c-0.9,0-1.7-0.2-2.4-0.5
			s-1.2-0.8-1.6-1.3c-0.4-0.6-0.6-1.2-0.6-1.8h1.9c0,0.6,0.3,1.1,0.8,1.5s1.1,0.6,1.9,0.6c0.7,0,1.3-0.1,1.7-0.4
			C302.5,679.2,302.8,678.8,302.8,678.3z"/>
		<path d="M311.9,675.6c0-1.7,0.4-3.1,1.2-4.1c0.8-1,1.9-1.6,3.2-1.6c1.3,0,2.3,0.4,3.1,1.3v-5.8h1.9v15.8h-1.7l-0.1-1.2
			c-0.8,0.9-1.8,1.4-3.2,1.4c-1.3,0-2.3-0.5-3.1-1.6c-0.8-1.1-1.2-2.4-1.2-4.1L311.9,675.6L311.9,675.6z M313.8,675.8
			c0,1.3,0.3,2.2,0.8,3s1.2,1.1,2.2,1.1c1.2,0,2.1-0.5,2.6-1.6v-5.1c-0.6-1-1.4-1.6-2.6-1.6c-0.9,0-1.7,0.4-2.2,1.1
			S313.8,674.4,313.8,675.8z"/>
		<path d="M328.8,681.4c-1.5,0-2.7-0.5-3.7-1.5c-0.9-1-1.4-2.3-1.4-4v-0.3c0-1.1,0.2-2.1,0.6-2.9c0.4-0.9,1-1.5,1.8-2
			s1.6-0.7,2.5-0.7c1.4,0,2.6,0.5,3.4,1.4c0.8,1,1.2,2.3,1.2,4.1v0.8h-7.5c0,1.1,0.3,2,1,2.7c0.6,0.7,1.4,1,2.3,1
			c0.7,0,1.2-0.1,1.7-0.4c0.5-0.3,0.9-0.6,1.2-1.1l1.2,0.9C332,680.7,330.6,681.4,328.8,681.4z M328.5,671.5c-0.8,0-1.4,0.3-1.9,0.8
			c-0.5,0.6-0.8,1.3-1,2.3h5.6v-0.1c-0.1-1-0.3-1.7-0.8-2.2C330,671.8,329.3,671.5,328.5,671.5z"/>
		<path d="M344.7,675.8c0,1.7-0.4,3.1-1.2,4.1c-0.8,1-1.8,1.5-3.1,1.5c-1.4,0-2.5-0.5-3.3-1.5l-0.1,1.3h-1.7v-15.8h1.9v5.9
			c0.8-0.9,1.8-1.4,3.2-1.4s2.4,0.5,3.2,1.5c0.8,1,1.2,2.4,1.2,4.2v0.2H344.7z M342.8,675.6c0-1.3-0.2-2.3-0.7-3s-1.2-1.1-2.2-1.1
			c-1.3,0-2.1,0.6-2.7,1.7v4.8c0.6,1.2,1.5,1.7,2.7,1.7c0.9,0,1.6-0.4,2.1-1.1S342.8,677,342.8,675.6z"/>
		<path d="M351.7,681.4c-1.5,0-2.7-0.5-3.7-1.5c-0.9-1-1.4-2.3-1.4-4v-0.3c0-1.1,0.2-2.1,0.6-2.9c0.4-0.9,1-1.5,1.8-2
			s1.6-0.7,2.5-0.7c1.4,0,2.6,0.5,3.4,1.4c0.8,1,1.2,2.3,1.2,4.1v0.8h-7.5c0,1.1,0.3,2,1,2.7c0.6,0.7,1.4,1,2.3,1
			c0.7,0,1.2-0.1,1.7-0.4c0.5-0.3,0.9-0.6,1.2-1.1l1.2,0.9C354.9,680.7,353.5,681.4,351.7,681.4z M351.5,671.5
			c-0.8,0-1.4,0.3-1.9,0.8c-0.5,0.6-0.8,1.3-1,2.3h5.6v-0.1c-0.1-1-0.3-1.7-0.8-2.2C352.9,671.8,352.2,671.5,351.5,671.5z"/>
		<path d="M360,670.1l0.1,1.4c0.8-1.1,2-1.6,3.3-1.6c2.3,0,3.5,1.3,3.5,4v7.3H365v-7.3c0-0.8-0.2-1.4-0.5-1.8s-0.9-0.6-1.7-0.6
			c-0.6,0-1.2,0.2-1.6,0.5s-0.8,0.8-1.1,1.3v7.9h-1.9v-11.1L360,670.1L360,670.1z"/>
		<path d="M381.8,681.2c-0.1-0.2-0.2-0.6-0.3-1.2c-0.9,0.9-1.9,1.4-3.2,1.4c-1.1,0-2-0.3-2.7-0.9c-0.7-0.6-1.1-1.4-1.1-2.4
			c0-1.2,0.4-2.1,1.3-2.7c0.9-0.6,2.1-1,3.7-1h1.8v-0.9c0-0.7-0.2-1.2-0.6-1.6c-0.4-0.4-1-0.6-1.8-0.6c-0.7,0-1.2,0.2-1.7,0.5
			s-0.7,0.8-0.7,1.2h-1.9c0-0.6,0.2-1.1,0.6-1.6s0.9-0.9,1.6-1.2s1.4-0.5,2.2-0.5c1.3,0,2.3,0.3,3,1c0.7,0.6,1.1,1.5,1.1,2.6v5.1
			c0,1,0.1,1.8,0.4,2.4v0.2h-1.7V681.2z M378.7,679.8c0.6,0,1.2-0.2,1.7-0.5s0.9-0.7,1.2-1.2v-2.3h-1.5c-2.3,0-3.5,0.7-3.5,2
			c0,0.6,0.2,1.1,0.6,1.4S378.1,679.8,378.7,679.8z"/>
		<path d="M392.9,678.3c0-0.5-0.2-0.9-0.6-1.2s-1.1-0.5-2-0.7c-1-0.2-1.7-0.5-2.3-0.7c-0.6-0.3-1-0.6-1.3-1s-0.4-0.9-0.4-1.4
			c0-0.9,0.4-1.7,1.2-2.3c0.8-0.6,1.8-0.9,2.9-0.9c1.3,0,2.3,0.3,3.1,1c0.8,0.7,1.2,1.5,1.2,2.5h-1.9c0-0.5-0.2-1-0.7-1.3
			c-0.4-0.4-1-0.6-1.7-0.6s-1.2,0.2-1.6,0.5s-0.6,0.7-0.6,1.2s0.2,0.8,0.5,1c0.4,0.2,1,0.5,2,0.7c0.9,0.2,1.7,0.5,2.3,0.8
			c0.6,0.3,1,0.6,1.3,1.1c0.3,0.4,0.4,0.9,0.4,1.5c0,1-0.4,1.8-1.2,2.4c-0.8,0.6-1.8,0.9-3.1,0.9c-0.9,0-1.7-0.2-2.4-0.5
			s-1.2-0.8-1.6-1.3c-0.4-0.6-0.6-1.2-0.6-1.8h1.9c0,0.6,0.3,1.1,0.8,1.5s1.1,0.6,1.9,0.6c0.7,0,1.3-0.1,1.7-0.4
			C392.7,679.2,392.9,678.8,392.9,678.3z"/>
		<path d="M401.8,681.4c-1.5,0-2.7-0.5-3.7-1.5c-0.9-1-1.4-2.3-1.4-4v-0.3c0-1.1,0.2-2.1,0.6-2.9c0.4-0.9,1-1.5,1.8-2
			s1.6-0.7,2.5-0.7c1.4,0,2.6,0.5,3.4,1.4c0.8,1,1.2,2.3,1.2,4.1v0.8h-7.5c0,1.1,0.3,2,1,2.7c0.6,0.7,1.4,1,2.3,1
			c0.7,0,1.2-0.1,1.7-0.4c0.5-0.3,0.9-0.6,1.2-1.1l1.2,0.9C405.1,680.7,403.7,681.4,401.8,681.4z M401.6,671.5
			c-0.8,0-1.4,0.3-1.9,0.8c-0.5,0.6-0.8,1.3-1,2.3h5.6v-0.1c-0.1-1-0.3-1.7-0.8-2.2C403,671.8,402.4,671.5,401.6,671.5z"/>
		<path d="M407.9,675.6c0-1.7,0.4-3.1,1.2-4.1c0.8-1,1.9-1.5,3.2-1.5c1.4,0,2.4,0.5,3.2,1.4l0.1-1.2h1.7V681c0,1.4-0.4,2.6-1.3,3.4
			s-2,1.2-3.4,1.2c-0.8,0-1.6-0.2-2.3-0.5s-1.4-0.8-1.8-1.4l1-1.1c0.8,1,1.8,1.5,3,1.5c0.9,0,1.6-0.3,2.2-0.8
			c0.5-0.5,0.8-1.3,0.8-2.2v-1c-0.8,0.9-1.8,1.3-3.1,1.3c-1.3,0-2.3-0.5-3.2-1.6C408.3,678.8,407.9,677.4,407.9,675.6z M409.8,675.8
			c0,1.3,0.3,2.2,0.8,2.9s1.2,1.1,2.2,1.1c1.2,0,2.1-0.5,2.6-1.6v-5.1c-0.6-1.1-1.5-1.6-2.6-1.6c-0.9,0-1.6,0.4-2.2,1.1
			S409.8,674.4,409.8,675.8z"/>
		<path d="M427,680.1c-0.7,0.9-1.8,1.3-3.3,1.3c-1.2,0-2.1-0.3-2.7-1s-0.9-1.7-0.9-3.1v-7.2h1.9v7.2c0,1.7,0.7,2.5,2.1,2.5
			s2.4-0.5,2.9-1.6v-8.1h1.9v11.1H427V680.1z"/>
		<path d="M437.1,671.8c-0.3,0-0.6-0.1-0.9-0.1c-1.2,0-2.1,0.5-2.5,1.6v7.9h-1.9v-11.1h1.8v1.3c0.6-1,1.5-1.5,2.6-1.5
			c0.4,0,0.7,0,0.8,0.1v1.8H437.1z"/>
		<path d="M445.3,681.2c-0.1-0.2-0.2-0.6-0.3-1.2c-0.9,0.9-1.9,1.4-3.2,1.4c-1.1,0-2-0.3-2.7-0.9c-0.7-0.6-1.1-1.4-1.1-2.4
			c0-1.2,0.4-2.1,1.3-2.7c0.9-0.6,2.1-1,3.7-1h1.8v-0.9c0-0.7-0.2-1.2-0.6-1.6c-0.4-0.4-1-0.6-1.8-0.6c-0.7,0-1.2,0.2-1.7,0.5
			s-0.7,0.8-0.7,1.2h-1.9c0-0.6,0.2-1.1,0.6-1.6s0.9-0.9,1.6-1.2s1.4-0.5,2.2-0.5c1.3,0,2.3,0.3,3,1c0.7,0.6,1.1,1.5,1.1,2.6v5.1
			c0,1,0.1,1.8,0.4,2.4v0.2h-1.7V681.2z M442.1,679.8c0.6,0,1.2-0.2,1.7-0.5s0.9-0.7,1.2-1.2v-2.3h-1.5c-2.3,0-3.5,0.7-3.5,2
			c0,0.6,0.2,1.1,0.6,1.4S441.5,679.8,442.1,679.8z"/>
		<path d="M455.2,671.8c-0.3,0-0.6-0.1-0.9-0.1c-1.2,0-2.1,0.5-2.5,1.6v7.9h-1.9v-11.1h1.8v1.3c0.6-1,1.5-1.5,2.6-1.5
			c0.4,0,0.7,0,0.8,0.1v1.8H455.2z"/>
		<path d="M463.4,678.3c0-0.5-0.2-0.9-0.6-1.2s-1.1-0.5-2-0.7s-1.7-0.5-2.3-0.7s-1-0.6-1.3-1s-0.4-0.9-0.4-1.4
			c0-0.9,0.4-1.7,1.2-2.3s1.8-0.9,2.9-0.9c1.3,0,2.3,0.3,3.1,1c0.8,0.7,1.2,1.5,1.2,2.5h-1.9c0-0.5-0.2-1-0.7-1.3
			c-0.4-0.4-1-0.6-1.7-0.6s-1.2,0.2-1.6,0.5s-0.6,0.7-0.6,1.2s0.2,0.8,0.5,1c0.4,0.2,1,0.5,2,0.7s1.7,0.5,2.3,0.8
			c0.6,0.3,1,0.6,1.3,1.1c0.3,0.4,0.4,0.9,0.4,1.5c0,1-0.4,1.8-1.2,2.4c-0.8,0.6-1.8,0.9-3.1,0.9c-0.9,0-1.7-0.2-2.4-0.5
			s-1.2-0.8-1.6-1.3c-0.4-0.6-0.6-1.2-0.6-1.8h1.9c0,0.6,0.3,1.1,0.8,1.5s1.1,0.6,1.9,0.6c0.7,0,1.3-0.1,1.7-0.4
			C463.2,679.2,463.4,678.8,463.4,678.3z"/>
		<path d="M472.4,681.4c-1.5,0-2.7-0.5-3.7-1.5c-0.9-1-1.4-2.3-1.4-4v-0.3c0-1.1,0.2-2.1,0.6-2.9c0.4-0.9,1-1.5,1.8-2
			s1.6-0.7,2.5-0.7c1.4,0,2.6,0.5,3.4,1.4c0.8,1,1.2,2.3,1.2,4.1v0.8h-7.5c0,1.1,0.3,2,1,2.7c0.6,0.7,1.4,1,2.3,1
			c0.7,0,1.2-0.1,1.7-0.4c0.5-0.3,0.9-0.6,1.2-1.1l1.2,0.9C475.6,680.7,474.2,681.4,472.4,681.4z M472.2,671.5
			c-0.8,0-1.4,0.3-1.9,0.8c-0.5,0.6-0.8,1.3-1,2.3h5.6v-0.1c-0.1-1-0.3-1.7-0.8-2.2C473.6,671.8,472.9,671.5,472.2,671.5z"/>
		<path d="M483.6,675.6c0-1.7,0.4-3.1,1.2-4.1c0.8-1,1.9-1.6,3.2-1.6c1.3,0,2.3,0.4,3.1,1.3v-5.8h1.9v15.8h-1.7l-0.1-1.2
			c-0.8,0.9-1.8,1.4-3.2,1.4c-1.3,0-2.3-0.5-3.1-1.6s-1.2-2.4-1.2-4.1L483.6,675.6L483.6,675.6z M485.5,675.8c0,1.3,0.3,2.2,0.8,3
			s1.2,1.1,2.2,1.1c1.2,0,2.1-0.5,2.6-1.6v-5.1c-0.6-1-1.4-1.6-2.6-1.6c-0.9,0-1.7,0.4-2.2,1.1S485.5,674.4,485.5,675.8z"/>
		<path d="M500.6,681.4c-1.5,0-2.7-0.5-3.7-1.5c-0.9-1-1.4-2.3-1.4-4v-0.3c0-1.1,0.2-2.1,0.6-2.9c0.4-0.9,1-1.5,1.8-2
			s1.6-0.7,2.5-0.7c1.4,0,2.6,0.5,3.4,1.4c0.8,1,1.2,2.3,1.2,4.1v0.8h-7.5c0,1.1,0.3,2,1,2.7c0.6,0.7,1.4,1,2.3,1
			c0.7,0,1.2-0.1,1.7-0.4c0.5-0.3,0.9-0.6,1.2-1.1l1.2,0.9C503.8,680.7,502.4,681.4,500.6,681.4z M500.3,671.5
			c-0.8,0-1.4,0.3-1.9,0.8c-0.5,0.6-0.8,1.3-1,2.3h5.6v-0.1c-0.1-1-0.3-1.7-0.8-2.2S501.1,671.5,500.3,671.5z"/>
		<path d="M511.8,675.6c0-1.7,0.4-3.1,1.2-4.1s1.9-1.5,3.2-1.5s2.3,0.4,3.1,1.3l0.1-1.1h1.7v15.4h-1.9v-5.3
			c-0.8,0.8-1.8,1.2-3.1,1.2s-2.4-0.5-3.2-1.6c-0.8-1-1.2-2.4-1.2-4.1v-0.2H511.8z M513.7,675.8c0,1.3,0.3,2.3,0.8,3
			s1.3,1.1,2.2,1.1c1.1,0,2-0.5,2.6-1.5V673c-0.6-1-1.5-1.5-2.6-1.5c-0.9,0-1.6,0.4-2.2,1.1C514,673.3,513.7,674.4,513.7,675.8z"/>
		<path d="M531.1,680.1c-0.7,0.9-1.8,1.3-3.3,1.3c-1.2,0-2.1-0.3-2.7-1c-0.6-0.7-0.9-1.7-0.9-3.1v-7.2h1.9v7.2
			c0,1.7,0.7,2.5,2.1,2.5c1.4,0,2.4-0.5,2.9-1.6v-8.1h1.9v11.1h-1.8L531.1,680.1z"/>
		<path d="M540.4,681.4c-1.5,0-2.7-0.5-3.7-1.5c-0.9-1-1.4-2.3-1.4-4v-0.3c0-1.1,0.2-2.1,0.6-2.9c0.4-0.9,1-1.5,1.8-2
			s1.6-0.7,2.5-0.7c1.4,0,2.6,0.5,3.4,1.4c0.8,1,1.2,2.3,1.2,4.1v0.8h-7.5c0,1.1,0.3,2,1,2.7c0.6,0.7,1.4,1,2.3,1
			c0.7,0,1.2-0.1,1.7-0.4c0.5-0.3,0.9-0.6,1.2-1.1l1.2,0.9C543.6,680.7,542.2,681.4,540.4,681.4z M540.2,671.5
			c-0.8,0-1.4,0.3-1.9,0.8c-0.5,0.6-0.8,1.3-1,2.3h5.6v-0.1c-0.1-1-0.3-1.7-0.8-2.2S540.9,671.5,540.2,671.5z"/>
		<path d="M558.6,678.3c0-0.5-0.2-0.9-0.6-1.2c-0.4-0.3-1.1-0.5-2-0.7s-1.7-0.5-2.3-0.7s-1-0.6-1.3-1s-0.4-0.9-0.4-1.4
			c0-0.9,0.4-1.7,1.2-2.3s1.8-0.9,2.9-0.9c1.3,0,2.3,0.3,3.1,1s1.2,1.5,1.2,2.5h-1.9c0-0.5-0.2-1-0.7-1.3c-0.4-0.4-1-0.6-1.7-0.6
			s-1.2,0.2-1.6,0.5c-0.4,0.3-0.6,0.7-0.6,1.2s0.2,0.8,0.5,1c0.4,0.2,1,0.5,2,0.7s1.7,0.5,2.3,0.8s1,0.6,1.3,1.1
			c0.3,0.4,0.4,0.9,0.4,1.5c0,1-0.4,1.8-1.2,2.4c-0.8,0.6-1.8,0.9-3.1,0.9c-0.9,0-1.7-0.2-2.4-0.5s-1.2-0.8-1.6-1.3
			c-0.4-0.6-0.6-1.2-0.6-1.8h1.9c0,0.6,0.3,1.1,0.8,1.5s1.1,0.6,1.9,0.6c0.7,0,1.3-0.1,1.7-0.4C558.4,679.2,558.6,678.8,558.6,678.3
			z"/>
		<path d="M569.8,680.1c-0.7,0.9-1.8,1.3-3.3,1.3c-1.2,0-2.1-0.3-2.7-1c-0.6-0.7-0.9-1.7-0.9-3.1v-7.2h1.9v7.2
			c0,1.7,0.7,2.5,2.1,2.5c1.4,0,2.4-0.5,2.9-1.6v-8.1h1.9v11.1h-1.8L569.8,680.1z"/>
		<path d="M581,678.3c0-0.5-0.2-0.9-0.6-1.2c-0.4-0.3-1.1-0.5-2-0.7c-1-0.2-1.7-0.5-2.3-0.7c-0.6-0.3-1-0.6-1.3-1s-0.4-0.9-0.4-1.4
			c0-0.9,0.4-1.7,1.2-2.3s1.8-0.9,2.9-0.9c1.3,0,2.3,0.3,3.1,1s1.2,1.5,1.2,2.5h-1.9c0-0.5-0.2-1-0.7-1.3c-0.4-0.4-1-0.6-1.7-0.6
			s-1.2,0.2-1.6,0.5c-0.4,0.3-0.6,0.7-0.6,1.2s0.2,0.8,0.5,1c0.4,0.2,1,0.5,2,0.7c0.9,0.2,1.7,0.5,2.3,0.8s1,0.6,1.3,1.1
			c0.3,0.4,0.4,0.9,0.4,1.5c0,1-0.4,1.8-1.2,2.4c-0.8,0.6-1.8,0.9-3.1,0.9c-0.9,0-1.7-0.2-2.4-0.5s-1.2-0.8-1.6-1.3
			c-0.4-0.6-0.6-1.2-0.6-1.8h1.9c0,0.6,0.3,1.1,0.8,1.5s1.1,0.6,1.9,0.6c0.7,0,1.3-0.1,1.7-0.4C580.8,679.2,581,678.8,581,678.3z"/>
	</g>
	<g class="st5">
		<path d="M170.7,706.6c-1.5,0-2.7-0.5-3.7-1.5c-0.9-1-1.4-2.3-1.4-4v-0.3c0-1.1,0.2-2.1,0.6-2.9c0.4-0.9,1-1.5,1.8-2
			s1.6-0.7,2.5-0.7c1.4,0,2.6,0.5,3.4,1.4c0.8,1,1.2,2.3,1.2,4.1v0.8h-7.5c0,1.1,0.3,2,1,2.7c0.6,0.7,1.4,1,2.3,1
			c0.7,0,1.2-0.1,1.7-0.4c0.5-0.3,0.9-0.6,1.2-1.1l1.2,0.9C174,705.9,172.6,706.6,170.7,706.6z M170.5,696.7c-0.8,0-1.4,0.3-1.9,0.8
			c-0.5,0.6-0.8,1.3-1,2.3h5.6v-0.1c-0.1-1-0.3-1.7-0.8-2.2C171.9,697,171.3,696.7,170.5,696.7z"/>
		<path d="M179,695.3l0.1,1.2c0.8-1,1.9-1.4,3.3-1.4c1.6,0,2.6,0.6,3.2,1.8c0.4-0.5,0.8-1,1.4-1.3c0.6-0.3,1.3-0.5,2.1-0.5
			c2.4,0,3.7,1.3,3.7,3.9v7.4h-1.9v-7.3c0-0.8-0.2-1.4-0.5-1.8c-0.4-0.4-1-0.6-1.8-0.6c-0.7,0-1.3,0.2-1.8,0.6
			c-0.5,0.4-0.7,1-0.8,1.7v7.4h-2v-7.3c0-1.6-0.8-2.4-2.4-2.4c-1.2,0-2.1,0.5-2.6,1.6v8.1h-1.9v-11.1L179,695.3L179,695.3z"/>
		<path d="M205,701c0,1.7-0.4,3-1.2,4.1c-0.8,1-1.8,1.5-3.1,1.5s-2.4-0.4-3.2-1.3v5.3h-1.9v-15.4h1.7l0.1,1.2c0.8-1,1.8-1.4,3.2-1.4
			c1.3,0,2.4,0.5,3.2,1.5s1.2,2.4,1.2,4.2V701z M203.1,700.8c0-1.3-0.3-2.2-0.8-3c-0.5-0.7-1.3-1.1-2.2-1.1c-1.1,0-2,0.5-2.6,1.5
			v5.3c0.6,1,1.4,1.5,2.6,1.5c0.9,0,1.6-0.4,2.2-1.1C202.8,703.3,203.1,702.2,203.1,700.8z"/>
		<path d="M212.8,697c-0.3,0-0.6-0.1-0.9-0.1c-1.2,0-2.1,0.5-2.5,1.6v7.9h-1.9v-11.1h1.8v1.3c0.6-1,1.5-1.5,2.6-1.5
			c0.4,0,0.6,0,0.8,0.1L212.8,697L212.8,697z"/>
		<path d="M218.9,706.6c-1.5,0-2.7-0.5-3.7-1.5c-0.9-1-1.4-2.3-1.4-4v-0.3c0-1.1,0.2-2.1,0.6-2.9c0.4-0.9,1-1.5,1.8-2
			s1.6-0.7,2.5-0.7c1.4,0,2.6,0.5,3.4,1.4c0.8,1,1.2,2.3,1.2,4.1v0.8h-7.5c0,1.1,0.3,2,1,2.7c0.6,0.7,1.4,1,2.3,1
			c0.7,0,1.2-0.1,1.7-0.4c0.5-0.3,0.9-0.6,1.2-1.1l1.2,0.9C222.2,705.9,220.8,706.6,218.9,706.6z M218.7,696.7
			c-0.8,0-1.4,0.3-1.9,0.8c-0.5,0.6-0.8,1.3-1,2.3h5.6v-0.1c-0.1-1-0.3-1.7-0.8-2.2S219.5,696.7,218.7,696.7z"/>
		<path d="M231.9,703.5c0-0.5-0.2-0.9-0.6-1.2c-0.4-0.3-1.1-0.5-2-0.7s-1.7-0.5-2.3-0.7c-0.6-0.3-1-0.6-1.3-1s-0.4-0.9-0.4-1.4
			c0-0.9,0.4-1.7,1.2-2.3s1.8-0.9,2.9-0.9c1.3,0,2.3,0.3,3.1,1s1.2,1.5,1.2,2.5h-1.9c0-0.5-0.2-1-0.7-1.3c-0.4-0.4-1-0.6-1.7-0.6
			s-1.2,0.2-1.6,0.5s-0.6,0.7-0.6,1.2s0.2,0.8,0.5,1s1,0.5,2,0.7c0.9,0.2,1.7,0.5,2.3,0.8s1,0.6,1.3,1.1c0.3,0.4,0.4,0.9,0.4,1.5
			c0,1-0.4,1.8-1.2,2.4c-0.8,0.6-1.8,0.9-3.1,0.9c-0.9,0-1.7-0.2-2.4-0.5s-1.2-0.8-1.6-1.3c-0.4-0.6-0.6-1.2-0.6-1.8h1.9
			c0,0.6,0.3,1.1,0.8,1.5s1.1,0.6,1.9,0.6c0.7,0,1.3-0.1,1.7-0.4C231.7,704.4,231.9,704,231.9,703.5z"/>
		<path d="M243.1,706.4c-0.1-0.2-0.2-0.6-0.3-1.2c-0.9,0.9-1.9,1.4-3.2,1.4c-1.1,0-2-0.3-2.7-0.9c-0.7-0.6-1.1-1.4-1.1-2.4
			c0-1.2,0.4-2.1,1.3-2.7c0.9-0.6,2.1-1,3.7-1h1.8v-0.9c0-0.7-0.2-1.2-0.6-1.6c-0.4-0.4-1-0.6-1.8-0.6c-0.7,0-1.2,0.2-1.7,0.5
			s-0.7,0.8-0.7,1.2h-1.9c0-0.6,0.2-1.1,0.6-1.6c0.4-0.5,0.9-0.9,1.6-1.2s1.4-0.5,2.2-0.5c1.3,0,2.3,0.3,3,1
			c0.7,0.6,1.1,1.5,1.1,2.6v5.1c0,1,0.1,1.8,0.4,2.4v0.2h-1.7V706.4z M240,705c0.6,0,1.2-0.2,1.7-0.5s0.9-0.7,1.2-1.2V701h-1.5
			c-2.3,0-3.5,0.7-3.5,2c0,0.6,0.2,1.1,0.6,1.4S239.4,705,240,705z"/>
		<path d="M254.2,703.5c0-0.5-0.2-0.9-0.6-1.2c-0.4-0.3-1.1-0.5-2-0.7s-1.7-0.5-2.3-0.7c-0.6-0.3-1-0.6-1.3-1s-0.4-0.9-0.4-1.4
			c0-0.9,0.4-1.7,1.2-2.3s1.8-0.9,2.9-0.9c1.3,0,2.3,0.3,3.1,1s1.2,1.5,1.2,2.5h-2c0-0.5-0.2-1-0.7-1.3c-0.4-0.4-1-0.6-1.7-0.6
			s-1.2,0.2-1.6,0.5s-0.6,0.7-0.6,1.2s0.2,0.8,0.5,1s1,0.5,2,0.7c0.9,0.2,1.7,0.5,2.3,0.8s1,0.6,1.3,1.1c0.3,0.4,0.4,0.9,0.4,1.5
			c0,1-0.4,1.8-1.2,2.4c-0.8,0.6-1.8,0.9-3.1,0.9c-0.9,0-1.7-0.2-2.4-0.5s-1.2-0.8-1.6-1.3c-0.4-0.6-0.6-1.2-0.6-1.8h1.9
			c0,0.6,0.3,1.1,0.8,1.5s1.1,0.6,1.9,0.6c0.7,0,1.3-0.1,1.7-0.4C253.9,704.4,254.2,704,254.2,703.5z"/>
		<path d="M265.5,695.3l0.1,1.4c0.8-1.1,2-1.6,3.3-1.6c2.3,0,3.5,1.3,3.5,4v7.3h-1.9v-7.3c0-0.8-0.2-1.4-0.5-1.8
			c-0.4-0.4-0.9-0.6-1.7-0.6c-0.6,0-1.2,0.2-1.6,0.5s-0.8,0.8-1.1,1.3v7.9h-1.9v-11.1L265.5,695.3L265.5,695.3z"/>
		<path d="M274.8,700.8c0-1.1,0.2-2.1,0.6-2.9c0.4-0.9,1-1.5,1.8-2s1.6-0.7,2.6-0.7c1.5,0,2.7,0.5,3.7,1.6c0.9,1,1.4,2.4,1.4,4.2
			v0.1c0,1.1-0.2,2-0.6,2.9s-1,1.5-1.8,2s-1.7,0.7-2.7,0.7c-1.5,0-2.7-0.5-3.7-1.6c-0.9-1-1.4-2.4-1.4-4.2v-0.1H274.8z M276.7,701
			c0,1.2,0.3,2.2,0.9,3s1.3,1.1,2.3,1.1s1.7-0.4,2.3-1.1c0.6-0.8,0.9-1.8,0.9-3.2c0-1.2-0.3-2.2-0.9-3s-1.3-1.1-2.3-1.1
			c-0.9,0-1.7,0.4-2.3,1.1S276.7,699.6,276.7,701z"/>
		<path d="M299,703.5c0-0.5-0.2-0.9-0.6-1.2s-1.1-0.5-2-0.7s-1.7-0.5-2.3-0.7c-0.6-0.3-1-0.6-1.3-1s-0.4-0.9-0.4-1.4
			c0-0.9,0.4-1.7,1.2-2.3c0.8-0.6,1.8-0.9,2.9-0.9c1.3,0,2.3,0.3,3.1,1c0.8,0.7,1.2,1.5,1.2,2.5h-1.9c0-0.5-0.2-1-0.7-1.3
			c-0.4-0.4-1-0.6-1.7-0.6s-1.2,0.2-1.6,0.5s-0.6,0.7-0.6,1.2s0.2,0.8,0.5,1s1,0.5,2,0.7c0.9,0.2,1.7,0.5,2.3,0.8
			c0.6,0.3,1,0.6,1.3,1.1c0.3,0.4,0.4,0.9,0.4,1.5c0,1-0.4,1.8-1.2,2.4c-0.8,0.6-1.8,0.9-3.1,0.9c-0.9,0-1.7-0.2-2.4-0.5
			s-1.2-0.8-1.6-1.3c-0.4-0.6-0.6-1.2-0.6-1.8h1.9c0,0.6,0.3,1.1,0.8,1.5s1.1,0.6,1.9,0.6c0.7,0,1.3-0.1,1.7-0.4
			C298.7,704.4,299,704,299,703.5z"/>
		<path d="M302.8,700.8c0-1.1,0.2-2.1,0.6-2.9c0.4-0.9,1-1.5,1.8-2s1.6-0.7,2.6-0.7c1.5,0,2.7,0.5,3.7,1.6c0.9,1,1.4,2.4,1.4,4.2
			v0.1c0,1.1-0.2,2-0.6,2.9s-1,1.5-1.8,2s-1.7,0.7-2.7,0.7c-1.5,0-2.7-0.5-3.7-1.6c-0.9-1-1.4-2.4-1.4-4.2v-0.1H302.8z M304.7,701
			c0,1.2,0.3,2.2,0.9,3s1.3,1.1,2.3,1.1s1.7-0.4,2.3-1.1c0.6-0.8,0.9-1.8,0.9-3.2c0-1.2-0.3-2.2-0.9-3s-1.3-1.1-2.3-1.1
			c-0.9,0-1.7,0.4-2.3,1.1S304.7,699.6,304.7,701z"/>
		<path d="M317.1,695.3l0.1,1.4c0.8-1.1,2-1.6,3.3-1.6c2.3,0,3.5,1.3,3.5,4v7.3h-1.9v-7.3c0-0.8-0.2-1.4-0.5-1.8
			c-0.4-0.4-0.9-0.6-1.7-0.6c-0.6,0-1.2,0.2-1.6,0.5s-0.8,0.8-1.1,1.3v7.9h-1.9v-11.1L317.1,695.3L317.1,695.3z"/>
		<path d="M336.5,705.1c0.7,0,1.3-0.2,1.8-0.6s0.8-0.9,0.8-1.5h1.8c0,0.6-0.3,1.2-0.7,1.8s-0.9,1-1.6,1.4s-1.4,0.5-2.1,0.5
			c-1.5,0-2.7-0.5-3.6-1.5s-1.3-2.4-1.3-4.1v-0.3c0-1.1,0.2-2,0.6-2.9c0.4-0.8,1-1.5,1.7-2s1.6-0.7,2.6-0.7c1.2,0,2.3,0.4,3.1,1.1
			c0.8,0.7,1.3,1.7,1.3,2.9h-1.8c-0.1-0.7-0.3-1.3-0.8-1.8s-1.1-0.7-1.8-0.7c-1,0-1.7,0.3-2.2,1s-0.8,1.7-0.8,3v0.4
			c0,1.3,0.3,2.3,0.8,3S335.6,705.1,336.5,705.1z"/>
		<path d="M342.6,700.8c0-1.1,0.2-2.1,0.6-2.9c0.4-0.9,1-1.5,1.8-2s1.6-0.7,2.6-0.7c1.5,0,2.7,0.5,3.7,1.6c0.9,1,1.4,2.4,1.4,4.2
			v0.1c0,1.1-0.2,2-0.6,2.9s-1,1.5-1.8,2s-1.7,0.7-2.7,0.7c-1.5,0-2.7-0.5-3.7-1.6c-0.9-1-1.4-2.4-1.4-4.2v-0.1H342.6z M344.5,701
			c0,1.2,0.3,2.2,0.9,3s1.3,1.1,2.3,1.1s1.7-0.4,2.3-1.1c0.6-0.8,0.9-1.8,0.9-3.2c0-1.2-0.3-2.2-0.9-3s-1.3-1.1-2.3-1.1
			c-0.9,0-1.7,0.4-2.3,1.1S344.5,699.6,344.5,701z M348.5,690.7h2.3l-2.7,3h-1.5L348.5,690.7z"/>
		<path d="M356.8,695.3l0.1,1.2c0.8-1,1.9-1.4,3.3-1.4c1.6,0,2.6,0.6,3.2,1.8c0.4-0.5,0.8-1,1.4-1.3s1.3-0.5,2.1-0.5
			c2.4,0,3.7,1.3,3.7,3.9v7.4h-1.9v-7.3c0-0.8-0.2-1.4-0.5-1.8c-0.4-0.4-1-0.6-1.8-0.6c-0.7,0-1.3,0.2-1.8,0.6
			c-0.5,0.4-0.7,1-0.8,1.7v7.4h-1.9v-7.3c0-1.6-0.8-2.4-2.4-2.4c-1.2,0-2.1,0.5-2.6,1.6v8.1H355v-11.1L356.8,695.3L356.8,695.3z"/>
		<path d="M382.8,701c0,1.7-0.4,3-1.2,4.1c-0.8,1-1.8,1.5-3.1,1.5c-1.3,0-2.4-0.4-3.2-1.3v5.3h-1.9v-15.4h1.7l0.1,1.2
			c0.8-1,1.8-1.4,3.2-1.4c1.3,0,2.4,0.5,3.2,1.5c0.8,1,1.2,2.4,1.2,4.2L382.8,701L382.8,701z M380.9,700.8c0-1.3-0.3-2.2-0.8-3
			c-0.5-0.7-1.3-1.1-2.2-1.1c-1.1,0-2,0.5-2.6,1.5v5.3c0.6,1,1.4,1.5,2.6,1.5c0.9,0,1.6-0.4,2.2-1.1
			C380.7,703.3,380.9,702.2,380.9,700.8z"/>
		<path d="M387.3,706.4h-1.9v-15.8h1.9V706.4z"/>
		<path d="M390.3,692.4c0-0.3,0.1-0.6,0.3-0.8s0.5-0.3,0.8-0.3s0.6,0.1,0.8,0.3s0.3,0.5,0.3,0.8s-0.1,0.6-0.3,0.8s-0.5,0.3-0.8,0.3
			s-0.6-0.1-0.8-0.3S390.3,692.7,390.3,692.4z M392.4,706.4h-1.9v-11.1h1.9V706.4z"/>
		<path d="M399.9,705.1c0.7,0,1.3-0.2,1.8-0.6s0.8-0.9,0.8-1.5h1.8c0,0.6-0.3,1.2-0.7,1.8c-0.4,0.6-0.9,1-1.6,1.4
			c-0.7,0.3-1.4,0.5-2.1,0.5c-1.5,0-2.7-0.5-3.6-1.5s-1.3-2.4-1.3-4.1v-0.3c0-1.1,0.2-2,0.6-2.9c0.4-0.8,1-1.5,1.7-2
			s1.6-0.7,2.6-0.7c1.2,0,2.3,0.4,3.1,1.1c0.8,0.7,1.3,1.7,1.3,2.9h-1.8c-0.1-0.7-0.3-1.3-0.8-1.8s-1.1-0.7-1.8-0.7
			c-1,0-1.7,0.3-2.2,1s-0.8,1.7-0.8,3v0.4c0,1.3,0.3,2.3,0.8,3C398.2,704.7,398.9,705.1,399.9,705.1z"/>
		<path d="M411,706.6c-1.5,0-2.7-0.5-3.7-1.5c-0.9-1-1.4-2.3-1.4-4v-0.3c0-1.1,0.2-2.1,0.6-2.9c0.4-0.9,1-1.5,1.8-2s1.6-0.7,2.5-0.7
			c1.4,0,2.6,0.5,3.4,1.4c0.8,1,1.2,2.3,1.2,4.1v0.8h-7.5c0,1.1,0.3,2,1,2.7c0.6,0.7,1.4,1,2.3,1c0.7,0,1.2-0.1,1.7-0.4
			c0.5-0.3,0.9-0.6,1.2-1.1l1.2,0.9C414.3,705.9,412.9,706.6,411,706.6z M410.8,696.7c-0.8,0-1.4,0.3-1.9,0.8
			c-0.5,0.6-0.8,1.3-1,2.3h5.6v-0.1c-0.1-1-0.3-1.7-0.8-2.2S411.6,696.7,410.8,696.7z"/>
		<path d="M424,703.5c0-0.5-0.2-0.9-0.6-1.2s-1.1-0.5-2-0.7c-1-0.2-1.7-0.5-2.3-0.7c-0.6-0.3-1-0.6-1.3-1s-0.4-0.9-0.4-1.4
			c0-0.9,0.4-1.7,1.2-2.3c0.8-0.6,1.8-0.9,2.9-0.9c1.3,0,2.3,0.3,3.1,1c0.8,0.7,1.2,1.5,1.2,2.5h-1.9c0-0.5-0.2-1-0.7-1.3
			c-0.4-0.4-1-0.6-1.7-0.6s-1.2,0.2-1.6,0.5s-0.6,0.7-0.6,1.2s0.2,0.8,0.5,1c0.4,0.2,1,0.5,2,0.7c0.9,0.2,1.7,0.5,2.3,0.8
			c0.6,0.3,1,0.6,1.3,1.1c0.3,0.4,0.4,0.9,0.4,1.5c0,1-0.4,1.8-1.2,2.4c-0.8,0.6-1.8,0.9-3.1,0.9c-0.9,0-1.7-0.2-2.4-0.5
			s-1.2-0.8-1.6-1.3c-0.4-0.6-0.6-1.2-0.6-1.8h1.9c0,0.6,0.3,1.1,0.8,1.5s1.1,0.6,1.9,0.6c0.7,0,1.3-0.1,1.7-0.4
			C423.8,704.4,424,704,424,703.5z"/>
		<path d="M438.2,706.6c-1.5,0-2.7-0.5-3.7-1.5c-0.9-1-1.4-2.3-1.4-4v-0.3c0-1.1,0.2-2.1,0.6-2.9c0.4-0.9,1-1.5,1.8-2
			s1.6-0.7,2.5-0.7c1.4,0,2.6,0.5,3.4,1.4c0.8,1,1.2,2.3,1.2,4.1v0.8H435c0,1.1,0.3,2,1,2.7c0.6,0.7,1.4,1,2.3,1
			c0.7,0,1.2-0.1,1.7-0.4c0.5-0.3,0.9-0.6,1.2-1.1l1.2,0.9C441.4,705.9,440,706.6,438.2,706.6z M437.9,696.7c-0.8,0-1.4,0.3-1.9,0.8
			c-0.5,0.6-0.8,1.3-1,2.3h5.6v-0.1c-0.1-1-0.3-1.7-0.8-2.2C439.4,697,438.7,696.7,437.9,696.7z"/>
		<path d="M446.5,695.3l0.1,1.4c0.8-1.1,2-1.6,3.3-1.6c2.3,0,3.5,1.3,3.5,4v7.3h-1.9v-7.3c0-0.8-0.2-1.4-0.5-1.8
			c-0.4-0.4-0.9-0.6-1.7-0.6c-0.6,0-1.2,0.2-1.6,0.5c-0.5,0.3-0.8,0.8-1.1,1.3v7.9h-1.9v-11.1L446.5,695.3L446.5,695.3z"/>
		<path d="M463.5,706.4h-1.9v-15.8h1.9V706.4z"/>
		<path d="M473.4,706.4c-0.1-0.2-0.2-0.6-0.3-1.2c-0.9,0.9-1.9,1.4-3.2,1.4c-1.1,0-2-0.3-2.7-0.9c-0.7-0.6-1.1-1.4-1.1-2.4
			c0-1.2,0.4-2.1,1.3-2.7c0.9-0.6,2.1-1,3.7-1h1.8v-0.9c0-0.7-0.2-1.2-0.6-1.6c-0.4-0.4-1-0.6-1.8-0.6c-0.7,0-1.2,0.2-1.7,0.5
			s-0.7,0.8-0.7,1.2h-1.9c0-0.6,0.2-1.1,0.6-1.6s0.9-0.9,1.6-1.2s1.4-0.5,2.2-0.5c1.3,0,2.3,0.3,3,1c0.7,0.6,1.1,1.5,1.1,2.6v5.1
			c0,1,0.1,1.8,0.4,2.4v0.2h-1.7V706.4z M470.3,705c0.6,0,1.2-0.2,1.7-0.5s0.9-0.7,1.2-1.2V701h-1.5c-2.3,0-3.5,0.7-3.5,2
			c0,0.6,0.2,1.1,0.6,1.4S469.7,705,470.3,705z"/>
	</g>
	<g class="st5">
		<path d="M169.8,729.1l2.7-8.5h1.9l-4,11.1H169l-4-11.1h1.9L169.8,729.1z"/>
		<path d="M183.1,730.5c-0.7,0.9-1.8,1.3-3.3,1.3c-1.2,0-2.1-0.3-2.7-1c-0.6-0.7-0.9-1.7-0.9-3.1v-7.2h1.9v7.2
			c0,1.7,0.7,2.5,2.1,2.5c1.4,0,2.4-0.5,2.9-1.6v-8.1h1.9v11.1h-1.8L183.1,730.5z"/>
		<path d="M189.9,731.6H188v-15.8h1.9V731.6z"/>
		<path d="M194.7,720.5l0.1,1.4c0.8-1.1,2-1.6,3.3-1.6c2.3,0,3.5,1.3,3.5,4v7.3h-1.9v-7.3c0-0.8-0.2-1.4-0.5-1.8
			c-0.4-0.4-0.9-0.6-1.7-0.6c-0.6,0-1.2,0.2-1.6,0.5s-0.8,0.8-1.1,1.3v7.9h-1.9v-11.1L194.7,720.5L194.7,720.5z"/>
		<path d="M209.1,731.8c-1.5,0-2.7-0.5-3.7-1.5c-0.9-1-1.4-2.3-1.4-4V726c0-1.1,0.2-2.1,0.6-2.9c0.4-0.9,1-1.5,1.8-2
			s1.6-0.7,2.5-0.7c1.4,0,2.6,0.5,3.4,1.4c0.8,1,1.2,2.3,1.2,4.1v0.8H206c0,1.1,0.3,2,1,2.7c0.6,0.7,1.4,1,2.3,1
			c0.7,0,1.2-0.1,1.7-0.4c0.5-0.3,0.9-0.6,1.2-1.1l1.2,0.9C212.4,731.1,211,731.8,209.1,731.8z M208.9,721.9c-0.8,0-1.4,0.3-1.9,0.8
			c-0.5,0.6-0.8,1.3-1,2.3h5.6v-0.1c-0.1-1-0.3-1.7-0.8-2.2S209.7,721.9,208.9,721.9z"/>
		<path d="M221,722.2c-0.3,0-0.6-0.1-0.9-0.1c-1.2,0-2.1,0.5-2.5,1.6v7.9h-1.9v-11.1h1.8v1.3c0.6-1,1.5-1.5,2.6-1.5
			c0.4,0,0.6,0,0.8,0.1L221,722.2L221,722.2z"/>
		<path d="M229.2,731.6c-0.1-0.2-0.2-0.6-0.3-1.2c-0.9,0.9-1.9,1.4-3.2,1.4c-1.1,0-2-0.3-2.7-0.9c-0.7-0.6-1.1-1.4-1.1-2.4
			c0-1.2,0.4-2.1,1.3-2.7c0.9-0.6,2.1-1,3.7-1h1.8V724c0-0.7-0.2-1.2-0.6-1.6c-0.4-0.4-1-0.6-1.8-0.6c-0.7,0-1.2,0.2-1.7,0.5
			s-0.7,0.8-0.7,1.2H222c0-0.6,0.2-1.1,0.6-1.6c0.4-0.5,0.9-0.9,1.6-1.2s1.4-0.5,2.2-0.5c1.3,0,2.3,0.3,3,1c0.7,0.6,1.1,1.5,1.1,2.6
			v5.1c0,1,0.1,1.8,0.4,2.4v0.2L229.2,731.6L229.2,731.6z M226.1,730.2c0.6,0,1.2-0.2,1.7-0.5s0.9-0.7,1.2-1.2v-2.3h-1.5
			c-2.3,0-3.5,0.7-3.5,2c0,0.6,0.2,1.1,0.6,1.4S225.4,730.2,226.1,730.2z"/>
		<path d="M238.2,730.3c0.7,0,1.3-0.2,1.8-0.6s0.8-0.9,0.8-1.5h1.8c0,0.6-0.3,1.2-0.7,1.8s-0.9,1-1.6,1.4s-1.4,0.5-2.1,0.5
			c-1.5,0-2.7-0.5-3.6-1.5c-0.9-1-1.3-2.4-1.3-4.1V726c0-1.1,0.2-2,0.6-2.9c0.4-0.8,1-1.5,1.7-2s1.6-0.7,2.6-0.7
			c1.2,0,2.3,0.4,3.1,1.1c0.8,0.7,1.3,1.7,1.3,2.9h-1.8c-0.1-0.7-0.3-1.3-0.8-1.8s-1.1-0.7-1.8-0.7c-1,0-1.7,0.3-2.2,1
			s-0.8,1.7-0.8,3v0.4c0,1.3,0.3,2.3,0.8,3S237.3,730.3,238.2,730.3z"/>
		<path d="M244.8,717.6c0-0.3,0.1-0.6,0.3-0.8s0.5-0.3,0.8-0.3s0.6,0.1,0.8,0.3s0.3,0.5,0.3,0.8s-0.1,0.6-0.3,0.8s-0.5,0.3-0.8,0.3
			s-0.6-0.1-0.8-0.3S244.8,717.9,244.8,717.6z M246.8,731.6h-1.9v-11.1h1.9V731.6z"/>
		<path d="M249.4,726c0-1.1,0.2-2.1,0.6-2.9c0.4-0.9,1-1.5,1.8-2s1.6-0.7,2.6-0.7c1.5,0,2.7,0.5,3.7,1.6c0.9,1,1.4,2.4,1.4,4.2v0.1
			c0,1.1-0.2,2-0.6,2.9s-1,1.5-1.8,2s-1.7,0.7-2.7,0.7c-1.5,0-2.7-0.5-3.7-1.6C249.8,729.3,249.3,727.9,249.4,726L249.4,726
			L249.4,726z M251.3,726.2c0,1.2,0.3,2.2,0.9,3s1.3,1.1,2.3,1.1s1.7-0.4,2.3-1.1c0.6-0.8,0.9-1.8,0.9-3.2c0-1.2-0.3-2.2-0.9-3
			s-1.3-1.1-2.3-1.1c-0.9,0-1.7,0.4-2.3,1.1S251.3,724.8,251.3,726.2z M255.3,715.9h2.3l-2.7,3h-1.5L255.3,715.9z"/>
		<path d="M263.6,720.5l0.1,1.4c0.8-1.1,2-1.6,3.3-1.6c2.3,0,3.5,1.3,3.5,4v7.3h-1.9v-7.3c0-0.8-0.2-1.4-0.5-1.8
			c-0.4-0.4-0.9-0.6-1.7-0.6c-0.6,0-1.2,0.2-1.6,0.5s-0.8,0.8-1.1,1.3v7.9h-1.9v-11.1L263.6,720.5L263.6,720.5z"/>
		<path d="M278.2,726c0-1.7,0.4-3.1,1.2-4.1c0.8-1,1.9-1.6,3.2-1.6c1.3,0,2.3,0.4,3.1,1.3v-5.8h1.9v15.8h-1.7l-0.1-1.2
			c-0.8,0.9-1.8,1.4-3.2,1.4c-1.3,0-2.3-0.5-3.1-1.6c-0.8-1.1-1.2-2.4-1.2-4.1L278.2,726L278.2,726z M280.1,726.2
			c0,1.3,0.3,2.2,0.8,3s1.2,1.1,2.2,1.1c1.2,0,2.1-0.5,2.6-1.6v-5.1c-0.6-1-1.4-1.6-2.6-1.6c-0.9,0-1.7,0.4-2.2,1.1
			S280.1,724.8,280.1,726.2z"/>
		<path d="M295.1,731.8c-1.5,0-2.7-0.5-3.7-1.5c-0.9-1-1.4-2.3-1.4-4V726c0-1.1,0.2-2.1,0.6-2.9c0.4-0.9,1-1.5,1.8-2
			s1.6-0.7,2.5-0.7c1.4,0,2.6,0.5,3.4,1.4c0.8,1,1.2,2.3,1.2,4.1v0.8H292c0,1.1,0.3,2,1,2.7c0.6,0.7,1.4,1,2.3,1
			c0.7,0,1.2-0.1,1.7-0.4c0.5-0.3,0.9-0.6,1.2-1.1l1.2,0.9C298.3,731.1,296.9,731.8,295.1,731.8z M294.8,721.9
			c-0.8,0-1.4,0.3-1.9,0.8c-0.5,0.6-0.8,1.3-1,2.3h5.6v-0.1c-0.1-1-0.3-1.7-0.8-2.2C296.3,722.2,295.6,721.9,294.8,721.9z"/>
		<path d="M308.9,731.6H307v-15.8h1.9V731.6z"/>
		<path d="M311.4,726c0-1.1,0.2-2.1,0.6-2.9c0.4-0.9,1-1.5,1.8-2s1.6-0.7,2.6-0.7c1.5,0,2.7,0.5,3.7,1.6c0.9,1,1.4,2.4,1.4,4.2v0.1
			c0,1.1-0.2,2-0.6,2.9s-1,1.5-1.8,2s-1.7,0.7-2.7,0.7c-1.5,0-2.7-0.5-3.7-1.6c-0.9-1-1.4-2.4-1.4-4.2V726H311.4z M313.3,726.2
			c0,1.2,0.3,2.2,0.9,3c0.6,0.7,1.3,1.1,2.3,1.1s1.7-0.4,2.3-1.1c0.6-0.8,0.9-1.8,0.9-3.2c0-1.2-0.3-2.2-0.9-3s-1.3-1.1-2.3-1.1
			c-0.9,0-1.7,0.4-2.3,1.1S313.3,724.8,313.3,726.2z"/>
		<path d="M330.3,728.7c0-0.5-0.2-0.9-0.6-1.2s-1.1-0.5-2-0.7c-1-0.2-1.7-0.5-2.3-0.7c-0.6-0.3-1-0.6-1.3-1s-0.4-0.9-0.4-1.4
			c0-0.9,0.4-1.7,1.2-2.3c0.8-0.6,1.8-0.9,2.9-0.9c1.3,0,2.3,0.3,3.1,1c0.8,0.7,1.2,1.5,1.2,2.5h-1.9c0-0.5-0.2-1-0.7-1.3
			c-0.4-0.4-1-0.6-1.7-0.6s-1.2,0.2-1.6,0.5s-0.6,0.7-0.6,1.2s0.2,0.8,0.5,1c0.4,0.2,1,0.5,2,0.7c0.9,0.2,1.7,0.5,2.3,0.8
			c0.6,0.3,1,0.6,1.3,1.1c0.3,0.4,0.4,0.9,0.4,1.5c0,1-0.4,1.8-1.2,2.4c-0.8,0.6-1.8,0.9-3.1,0.9c-0.9,0-1.7-0.2-2.4-0.5
			s-1.2-0.8-1.6-1.3c-0.4-0.6-0.6-1.2-0.6-1.8h1.9c0,0.6,0.3,1.1,0.8,1.5s1.1,0.6,1.9,0.6c0.7,0,1.3-0.1,1.7-0.4
			C330.1,729.6,330.3,729.2,330.3,728.7z"/>
		<path d="M340.2,731.6v-14.9h4.2c1.3,0,2.4,0.3,3.4,0.9s1.8,1.4,2.3,2.5s0.8,2.3,0.8,3.7v1c0,1.4-0.3,2.6-0.8,3.7
			c-0.5,1.1-1.3,1.9-2.3,2.4c-1,0.6-2.2,0.9-3.5,0.9h-4.1V731.6z M342.2,718.3V730h2.1c1.5,0,2.7-0.5,3.5-1.4s1.3-2.3,1.3-4v-0.9
			c0-1.7-0.4-3-1.2-4c-0.8-0.9-1.9-1.4-3.4-1.4L342.2,718.3L342.2,718.3z"/>
		<path d="M358.3,731.8c-1.5,0-2.7-0.5-3.7-1.5c-0.9-1-1.4-2.3-1.4-4V726c0-1.1,0.2-2.1,0.6-2.9c0.4-0.9,1-1.5,1.8-2
			s1.6-0.7,2.5-0.7c1.4,0,2.6,0.5,3.4,1.4c0.8,1,1.2,2.3,1.2,4.1v0.8h-7.5c0,1.1,0.3,2,1,2.7c0.6,0.7,1.4,1,2.3,1
			c0.7,0,1.2-0.1,1.7-0.4c0.5-0.3,0.9-0.6,1.2-1.1l1.2,0.9C361.5,731.1,360.1,731.8,358.3,731.8z M358,721.9c-0.8,0-1.4,0.3-1.9,0.8
			c-0.5,0.6-0.8,1.3-1,2.3h5.6v-0.1c-0.1-1-0.3-1.7-0.8-2.2C359.5,722.2,358.8,721.9,358,721.9z"/>
		<path d="M370.2,722.2c-0.3,0-0.6-0.1-0.9-0.1c-1.2,0-2.1,0.5-2.5,1.6v7.9h-1.9v-11.1h1.8v1.3c0.6-1,1.5-1.5,2.6-1.5
			c0.4,0,0.7,0,0.8,0.1v1.8H370.2z"/>
		<path d="M376.3,731.8c-1.5,0-2.7-0.5-3.7-1.5c-0.9-1-1.4-2.3-1.4-4V726c0-1.1,0.2-2.1,0.6-2.9c0.4-0.9,1-1.5,1.8-2
			s1.6-0.7,2.5-0.7c1.4,0,2.6,0.5,3.4,1.4c0.8,1,1.2,2.3,1.2,4.1v0.8h-7.5c0,1.1,0.3,2,1,2.7c0.6,0.7,1.4,1,2.3,1
			c0.7,0,1.2-0.1,1.7-0.4c0.5-0.3,0.9-0.6,1.2-1.1l1.2,0.9C379.6,731.1,378.2,731.8,376.3,731.8z M376.1,721.9
			c-0.8,0-1.4,0.3-1.9,0.8c-0.5,0.6-0.8,1.3-1,2.3h5.6v-0.1c-0.1-1-0.3-1.7-0.8-2.2C377.5,722.2,376.9,721.9,376.1,721.9z"/>
		<path d="M387.3,730.3c0.7,0,1.3-0.2,1.8-0.6s0.8-0.9,0.8-1.5h1.8c0,0.6-0.3,1.2-0.7,1.8c-0.4,0.6-0.9,1-1.6,1.4
			c-0.7,0.3-1.4,0.5-2.1,0.5c-1.5,0-2.7-0.5-3.6-1.5s-1.3-2.4-1.3-4.1V726c0-1.1,0.2-2,0.6-2.9c0.4-0.8,1-1.5,1.7-2s1.6-0.7,2.6-0.7
			c1.2,0,2.3,0.4,3.1,1.1c0.8,0.7,1.3,1.7,1.3,2.9h-1.8c-0.1-0.7-0.3-1.3-0.8-1.8s-1.1-0.7-1.8-0.7c-1,0-1.7,0.3-2.2,1
			s-0.8,1.7-0.8,3v0.4c0,1.3,0.3,2.3,0.8,3C385.5,729.9,386.3,730.3,387.3,730.3z"/>
		<path d="M395.7,721.9c0.8-1,1.9-1.5,3.3-1.5c2.3,0,3.5,1.3,3.5,4v7.3h-1.9v-7.3c0-0.8-0.2-1.4-0.5-1.8s-0.9-0.6-1.7-0.6
			c-0.6,0-1.2,0.2-1.6,0.5s-0.8,0.8-1.1,1.3v7.9h-1.9v-15.8h1.9L395.7,721.9L395.7,721.9z"/>
		<path d="M404.9,726c0-1.1,0.2-2.1,0.6-2.9s1-1.5,1.8-2s1.6-0.7,2.6-0.7c1.5,0,2.7,0.5,3.7,1.6c0.9,1,1.4,2.4,1.4,4.2v0.1
			c0,1.1-0.2,2-0.6,2.9s-1,1.5-1.8,2s-1.7,0.7-2.7,0.7c-1.5,0-2.7-0.5-3.7-1.6c-0.9-1-1.4-2.4-1.4-4.2V726H404.9z M406.8,726.2
			c0,1.2,0.3,2.2,0.9,3s1.3,1.1,2.3,1.1s1.7-0.4,2.3-1.1c0.6-0.8,0.9-1.8,0.9-3.2c0-1.2-0.3-2.2-0.9-3s-1.3-1.1-2.3-1.1
			c-0.9,0-1.7,0.4-2.3,1.1S406.8,724.8,406.8,726.2z"/>
		<path d="M423.8,728.7c0-0.5-0.2-0.9-0.6-1.2s-1.1-0.5-2-0.7s-1.7-0.5-2.3-0.7s-1-0.6-1.3-1s-0.4-0.9-0.4-1.4
			c0-0.9,0.4-1.7,1.2-2.3s1.8-0.9,2.9-0.9c1.3,0,2.3,0.3,3.1,1c0.8,0.7,1.2,1.5,1.2,2.5h-1.9c0-0.5-0.2-1-0.7-1.3
			c-0.4-0.4-1-0.6-1.7-0.6s-1.2,0.2-1.6,0.5s-0.6,0.7-0.6,1.2s0.2,0.8,0.5,1c0.4,0.2,1,0.5,2,0.7s1.7,0.5,2.3,0.8
			c0.6,0.3,1,0.6,1.3,1.1c0.3,0.4,0.4,0.9,0.4,1.5c0,1-0.4,1.8-1.2,2.4c-0.8,0.6-1.8,0.9-3.1,0.9c-0.9,0-1.7-0.2-2.4-0.5
			s-1.2-0.8-1.6-1.3c-0.4-0.6-0.6-1.2-0.6-1.8h1.9c0,0.6,0.3,1.1,0.8,1.5s1.1,0.6,1.9,0.6c0.7,0,1.3-0.1,1.7-0.4
			C423.6,729.6,423.8,729.2,423.8,728.7z"/>
		<path d="M445.2,731.6h-2v-6.9h-7.5v6.9h-2v-14.9h2v6.4h7.5v-6.4h2V731.6z"/>
		<path d="M455.2,730.5c-0.7,0.9-1.8,1.3-3.3,1.3c-1.2,0-2.1-0.3-2.7-1s-0.9-1.7-0.9-3.1v-7.2h1.9v7.2c0,1.7,0.7,2.5,2.1,2.5
			s2.4-0.5,2.9-1.6v-8.1h1.9v11.1h-1.8L455.2,730.5z"/>
		<path d="M461.7,720.5l0.1,1.2c0.8-1,1.9-1.4,3.3-1.4c1.6,0,2.6,0.6,3.2,1.8c0.4-0.5,0.8-1,1.4-1.3s1.3-0.5,2.1-0.5
			c2.4,0,3.7,1.3,3.7,3.9v7.4h-1.9v-7.3c0-0.8-0.2-1.4-0.5-1.8c-0.4-0.4-1-0.6-1.8-0.6c-0.7,0-1.3,0.2-1.8,0.6
			c-0.5,0.4-0.7,1-0.8,1.7v7.4h-1.9v-7.3c0-1.6-0.8-2.4-2.4-2.4c-1.2,0-2.1,0.5-2.6,1.6v8.1h-1.9v-11.1L461.7,720.5L461.7,720.5z"/>
		<path d="M485.2,731.6c-0.1-0.2-0.2-0.6-0.3-1.2c-0.9,0.9-1.9,1.4-3.2,1.4c-1.1,0-2-0.3-2.7-0.9c-0.7-0.6-1.1-1.4-1.1-2.4
			c0-1.2,0.4-2.1,1.3-2.7c0.9-0.6,2.1-1,3.7-1h1.8V724c0-0.7-0.2-1.2-0.6-1.6c-0.4-0.4-1-0.6-1.8-0.6c-0.7,0-1.2,0.2-1.7,0.5
			s-0.7,0.8-0.7,1.2H478c0-0.6,0.2-1.1,0.6-1.6s0.9-0.9,1.6-1.2s1.4-0.5,2.2-0.5c1.3,0,2.3,0.3,3,1c0.7,0.6,1.1,1.5,1.1,2.6v5.1
			c0,1,0.1,1.8,0.4,2.4v0.2L485.2,731.6L485.2,731.6z M482,730.2c0.6,0,1.2-0.2,1.7-0.5s0.9-0.7,1.2-1.2v-2.3h-1.5
			c-2.3,0-3.5,0.7-3.5,2c0,0.6,0.2,1.1,0.6,1.4S481.4,730.2,482,730.2z"/>
		<path d="M491.6,720.5l0.1,1.4c0.8-1.1,2-1.6,3.3-1.6c2.3,0,3.5,1.3,3.5,4v7.3h-1.9v-7.3c0-0.8-0.2-1.4-0.5-1.8s-0.9-0.6-1.7-0.6
			c-0.6,0-1.2,0.2-1.6,0.5s-0.8,0.8-1.1,1.3v7.9h-1.9v-11.1L491.6,720.5L491.6,720.5z"/>
		<path d="M500.9,726c0-1.1,0.2-2.1,0.6-2.9s1-1.5,1.8-2s1.6-0.7,2.6-0.7c1.5,0,2.7,0.5,3.7,1.6c0.9,1,1.4,2.4,1.4,4.2v0.1
			c0,1.1-0.2,2-0.6,2.9s-1,1.5-1.8,2s-1.7,0.7-2.7,0.7c-1.5,0-2.7-0.5-3.7-1.6c-0.9-1-1.4-2.4-1.4-4.2V726H500.9z M502.8,726.2
			c0,1.2,0.3,2.2,0.9,3s1.3,1.1,2.3,1.1s1.7-0.4,2.3-1.1c0.6-0.8,0.9-1.8,0.9-3.2c0-1.2-0.3-2.2-0.9-3s-1.3-1.1-2.3-1.1
			c-0.9,0-1.7,0.4-2.3,1.1S502.8,724.8,502.8,726.2z"/>
		<path d="M519.8,728.7c0-0.5-0.2-0.9-0.6-1.2c-0.4-0.3-1.1-0.5-2-0.7s-1.7-0.5-2.3-0.7s-1-0.6-1.3-1s-0.4-0.9-0.4-1.4
			c0-0.9,0.4-1.7,1.2-2.3s1.8-0.9,2.9-0.9c1.3,0,2.3,0.3,3.1,1s1.2,1.5,1.2,2.5h-1.9c0-0.5-0.2-1-0.7-1.3c-0.4-0.4-1-0.6-1.7-0.6
			s-1.2,0.2-1.6,0.5c-0.4,0.3-0.6,0.7-0.6,1.2s0.2,0.8,0.5,1c0.4,0.2,1,0.5,2,0.7s1.7,0.5,2.3,0.8s1,0.6,1.3,1.1
			c0.3,0.4,0.4,0.9,0.4,1.5c0,1-0.4,1.8-1.2,2.4c-0.8,0.6-1.8,0.9-3.1,0.9c-0.9,0-1.7-0.2-2.4-0.5s-1.2-0.8-1.6-1.3
			c-0.4-0.6-0.6-1.2-0.6-1.8h1.9c0,0.6,0.3,1.1,0.8,1.5s1.1,0.6,1.9,0.6c0.7,0,1.3-0.1,1.7-0.4C519.6,729.6,519.8,729.2,519.8,728.7
			z"/>
		<path d="M525.2,721.9l3,4v0.2l-3,4h-1.5l2.6-4.1l-2.6-4.1L525.2,721.9L525.2,721.9z M528.8,721.9l3,4v0.2l-3,4h-1.5l2.6-4.1
			l-2.6-4.1L528.8,721.9L528.8,721.9z"/>
	</g>
</g>
<g id="Guías">
</g>
</svg>
