<?xml version="1.0" encoding="utf-8"?>
<!-- Generator: Adobe Illustrator 24.0.2, SVG Export Plug-In . SVG Version: 6.00 Build 0)  -->
<svg version="1.1" id="Layer_1" xmlns="http://www.w3.org/2000/svg" xmlns:xlink="http://www.w3.org/1999/xlink" x="0px" y="0px"
	 viewBox="0 0 612 800" style="enable-background:new 0 0 612 800;" xml:space="preserve">
<style type="text/css">
	.st0{fill:#70813A;}
	.st1{clip-path:url(#SVGID_2_);fill:#5C692F;}
	.st2{clip-path:url(#SVGID_4_);fill:#FFFFFF;}
	.st3{clip-path:url(#SVGID_6_);fill:#FFFFFF;}
	.st4{fill:#FFFFFF;}
</style>
<g id="Fondo">
</g>
<g id="Primer_plano">
	<g>
		<rect x="21.9" y="609.8" class="st0" width="125.6" height="125.7"/>
		<g>
			<g>
				<defs>
					<rect id="SVGID_1_" x="21.9" y="609.8" width="125.6" height="125.7"/>
				</defs>
				<clipPath id="SVGID_2_">
					<use xlink:href="#SVGID_1_"  style="overflow:visible;"/>
				</clipPath>
				<path class="st1" d="M147.5,699.8c0-0.2-0.4-0.3-0.6-0.5c-20.2-20.2-40.6-40.5-60.8-60.8c-0.5-0.5-0.7-0.4-1,0.1
					c-3.2,4.9-6.5,9.7-9.8,14.6c-4.3,6.4-8.5,12.7-12.8,19.1c-0.4,0.6-0.7,0.6-1.1,0.1c-1.3-1.4-2.7-2.7-4-4
					c-0.4-0.4-0.6-0.4-0.7,0.2c-0.3,1.3-0.6,2.6-0.8,3.9c-0.3,2.4-0.4,4.8-0.1,7.2c0.2,1.5,0.3,2.8-0.7,4.2
					c-4.5,6.6-8.9,13.3-13.3,20c-0.3,0.4-0.3,0.7,0.1,1.1c9.9,9.9,19.8,20,29.7,29.9c0.2,0.2,0.4,0.6,0.5,0.6h75.4V699.8z"/>
			</g>
			<g>
				<defs>
					<rect id="SVGID_3_" x="21.9" y="609.8" width="125.6" height="125.7"/>
				</defs>
				<clipPath id="SVGID_4_">
					<use xlink:href="#SVGID_3_"  style="overflow:visible;"/>
				</clipPath>
				<path class="st2" d="M129.3,705.3l-13.4-20.9c-1.4,6.8-5.7,11.3-9.7,13.8c-5,3.2-13.3,2.3-15.7-1.4v-0.1
					c3.8-5.1,8.2-8.1,17.2-7.4c0,0-11.9-2.7-17.7,6.4c-1.6-3.6,0.2-7.9,5.3-10.8c4.9-2.8,11,0.5,18.3-4.6L85.4,638l-23.9,35.7
					c6.5,5.7,13.6,4.5,18,8.8c5.1,5,5.8,10.7,2.9,14.4c-4.1-12.6-18.9-13.1-18.9-13.1c10.8,2,15.1,6.8,18,14l0,0
					c-4,3.7-14,2-18.9-3.4c-2.8-3-5.4-7.1-6.6-12.3l5.4-8.5c-1.6-1.4-3.2-3.3-4.7-5.8c-1.6,5-1.7,10.6-0.8,14.7l-14.8,22.7
					L129.3,705.3L129.3,705.3z M93.6,673.3c-1.3,0-2.3-1-2.3-2.3s1-2.3,2.3-2.3s2.3,1,2.3,2.3C95.9,672.2,94.9,673.3,93.6,673.3
					 M98.4,679.9c-1.3,0-2.3-1-2.3-2.3s1-2.3,2.3-2.3s2.3,1,2.3,2.3C100.7,678.9,99.7,679.9,98.4,679.9 M76.7,676.2
					c-1.3,0-2.3-1-2.3-2.3s1-2.3,2.3-2.3s2.3,1,2.3,2.3C79,675.1,77.9,676.2,76.7,676.2 M68.1,672.9c0.1-0.4,0.2-0.7,0.3-1.1
					c2.8-9.7,12.8-15.3,22.5-12.5s15.3,12.8,12.5,22.5c-0.1,0.4-0.2,0.7-0.4,1.1c2-9.3-3.5-18.8-12.8-21.4
					C81,658.8,71.3,663.8,68.1,672.9 M82.8,668.6c0-1.3,1-2.3,2.3-2.3s2.3,1,2.3,2.3s-1,2.3-2.3,2.3
					C83.8,670.9,82.8,669.8,82.8,668.6"/>
			</g>
			<g>
				<defs>
					<rect id="SVGID_5_" x="21.9" y="609.8" width="125.6" height="125.7"/>
				</defs>
				<clipPath id="SVGID_6_">
					<use xlink:href="#SVGID_5_"  style="overflow:visible;"/>
				</clipPath>
				<path class="st3" d="M116.2,678c-0.9,0.9-1.8,1.7-2.7,2.3l2.3,3.5C116.2,682,116.3,680,116.2,678"/>
			</g>
		</g>
	</g>
	<rect x="373.9" y="609.8" class="st0" width="214.3" height="44"/>
	<rect x="153.4" y="609.8" class="st0" width="217.5" height="44"/>
	<g>
		<path class="st4" d="M387.8,624.9l4.1,10.9l4.1-10.9h3.2v14.2h-2.5v-4.7l0.2-6.3l-4.2,11h-1.8l-4.2-10.9l0.2,6.3v4.7h-2.5V625
			L387.8,624.9L387.8,624.9z"/>
		<path class="st4" d="M406.6,639.3c-1.5,0-2.7-0.5-3.7-1.4c-0.9-0.9-1.4-2.2-1.4-3.8v-0.3c0-1.1,0.2-2,0.6-2.8s1-1.5,1.7-1.9
			c0.7-0.5,1.6-0.7,2.5-0.7c1.4,0,2.5,0.5,3.3,1.4s1.2,2.2,1.2,3.9v1h-6.9c0.1,0.9,0.4,1.6,0.9,2.1s1.2,0.8,1.9,0.8
			c1.1,0,2-0.4,2.7-1.3l1.3,1.2c-0.4,0.6-1,1.1-1.7,1.5C408.3,639.2,407.5,639.3,406.6,639.3z M406.3,630.3c-0.7,0-1.2,0.2-1.6,0.7
			s-0.7,1.1-0.8,1.9h4.5v-0.2c-0.1-0.8-0.3-1.4-0.6-1.8C407.5,630.5,407,630.3,406.3,630.3z"/>
		<path class="st4" d="M412.2,633.8c0-1.6,0.4-2.9,1.1-3.9c0.8-1,1.8-1.5,3-1.5c1.1,0,2,0.4,2.7,1.2v-5.4h2.4v15h-2.1l-0.1-1.1
			c-0.7,0.9-1.7,1.3-2.8,1.3c-1.2,0-2.2-0.5-3-1.5C412.6,636.8,412.2,635.5,412.2,633.8z M414.6,634c0,1.1,0.2,1.9,0.6,2.5
			s1,0.9,1.8,0.9c1,0,1.7-0.4,2.1-1.3v-4.5c-0.4-0.8-1.1-1.3-2.1-1.3c-0.8,0-1.4,0.3-1.8,0.9C414.8,631.8,414.6,632.8,414.6,634z"/>
		<path class="st4" d="M424,625.8c0-0.4,0.1-0.7,0.3-0.9c0.2-0.2,0.6-0.4,1-0.4s0.8,0.1,1,0.4c0.2,0.2,0.4,0.5,0.4,0.9
			s-0.1,0.7-0.4,0.9s-0.6,0.4-1,0.4s-0.8-0.1-1-0.4C424.1,626.5,424,626.2,424,625.8z M426.5,639.1h-2.4v-10.6h2.4V639.1z"/>
		<path class="st4" d="M428.6,633.8c0-1,0.2-2,0.6-2.8s1-1.5,1.7-1.9s1.6-0.7,2.6-0.7c1.4,0,2.6,0.5,3.5,1.4s1.4,2.1,1.4,3.7v0.6
			c0,1-0.2,2-0.6,2.8s-1,1.5-1.7,1.9s-1.6,0.7-2.6,0.7c-1.5,0-2.7-0.5-3.6-1.5s-1.3-2.3-1.3-4V633.8z M431,634
			c0,1.1,0.2,1.9,0.7,2.6s1.1,0.9,1.9,0.9s1.4-0.3,1.9-0.9c0.4-0.6,0.7-1.5,0.7-2.7c0-1.1-0.2-1.9-0.7-2.5s-1.1-0.9-1.9-0.9
			s-1.4,0.3-1.8,0.9C431.2,631.8,431,632.7,431,634z"/>
		<path class="st4" d="M453.6,635.8h-5.5l-1.2,3.3h-2.6l5.4-14.2h2.2l5.4,14.2h-2.6L453.6,635.8z M448.8,633.8h4.1l-2.1-5.9
			L448.8,633.8z"/>
		<path class="st4" d="M460.5,628.6l0.1,1.1c0.7-0.9,1.8-1.3,3-1.3c1.4,0,2.4,0.5,2.9,1.6c0.8-1.1,1.8-1.6,3.2-1.6
			c1.2,0,2,0.3,2.6,1c0.6,0.6,0.9,1.6,0.9,2.9v6.9h-2.4v-6.9c0-0.7-0.1-1.2-0.4-1.5s-0.8-0.5-1.5-0.5c-0.5,0-1,0.1-1.3,0.4
			c-0.3,0.3-0.6,0.7-0.7,1.1v7.2h-2.4v-7c0-1.2-0.7-1.9-1.9-1.9c-1,0-1.6,0.4-2,1.2v7.7h-2.4v-10.6h2.3V628.6z"/>
		<path class="st4" d="M484.9,634c0,1.6-0.4,2.9-1.1,3.9s-1.7,1.5-3,1.5c-1.2,0-2.2-0.4-2.9-1.3l-0.1,1.1h-2.1v-15h2.4v5.4
			c0.7-0.8,1.6-1.2,2.8-1.2c1.3,0,2.3,0.5,3,1.4c0.7,1,1.1,2.3,1.1,4L484.9,634L484.9,634z M482.6,633.8c0-1.1-0.2-2-0.6-2.6
			s-1-0.9-1.8-0.9c-1,0-1.8,0.4-2.2,1.3v4.4c0.4,0.9,1.2,1.4,2.2,1.4c0.7,0,1.3-0.3,1.7-0.8c0.4-0.6,0.6-1.4,0.6-2.5L482.6,633.8
			L482.6,633.8z"/>
		<path class="st4" d="M486.9,625.8c0-0.4,0.1-0.7,0.3-0.9c0.2-0.2,0.6-0.4,1-0.4s0.8,0.1,1,0.4c0.2,0.2,0.4,0.5,0.4,0.9
			s-0.1,0.7-0.4,0.9s-0.6,0.4-1,0.4s-0.8-0.1-1-0.4C487,626.5,486.9,626.2,486.9,625.8z M489.5,639.1h-2.4v-10.6h2.4V639.1z"/>
		<path class="st4" d="M496.7,639.3c-1.5,0-2.7-0.5-3.7-1.4c-0.9-0.9-1.4-2.2-1.4-3.8v-0.3c0-1.1,0.2-2,0.6-2.8s1-1.5,1.7-1.9
			c0.7-0.5,1.6-0.7,2.5-0.7c1.4,0,2.5,0.5,3.3,1.4s1.2,2.2,1.2,3.9v1H494c0.1,0.9,0.4,1.6,0.9,2.1s1.2,0.8,1.9,0.8
			c1.1,0,2-0.4,2.7-1.3l1.3,1.2c-0.4,0.6-1,1.1-1.7,1.5C498.4,639.2,497.6,639.3,496.7,639.3z M496.4,630.3c-0.7,0-1.2,0.2-1.6,0.7
			s-0.7,1.1-0.8,1.9h4.5v-0.2c-0.1-0.8-0.3-1.4-0.6-1.8C497.6,630.5,497.1,630.3,496.4,630.3z"/>
		<path class="st4" d="M505,628.6l0.1,1.2c0.8-0.9,1.8-1.4,3.1-1.4c2.2,0,3.3,1.3,3.4,3.8v7h-2.4v-6.8c0-0.7-0.1-1.2-0.4-1.5
			s-0.8-0.5-1.4-0.5c-1,0-1.7,0.4-2.1,1.3v7.5h-2.4v-10.6H505z"/>
		<path class="st4" d="M516.9,626v2.6h1.9v1.8h-1.9v5.9c0,0.4,0.1,0.7,0.2,0.9c0.2,0.2,0.4,0.3,0.9,0.3c0.3,0,0.5,0,0.8-0.1v1.8
			c-0.5,0.1-1.1,0.2-1.6,0.2c-1.8,0-2.7-1-2.7-3v-6h-1.7v-1.8h1.7V626H516.9z"/>
		<path class="st4" d="M525.2,639.3c-1.5,0-2.7-0.5-3.7-1.4c-0.9-0.9-1.4-2.2-1.4-3.8v-0.3c0-1.1,0.2-2,0.6-2.8
			c0.4-0.8,1-1.5,1.7-1.9c0.7-0.5,1.6-0.7,2.5-0.7c1.4,0,2.5,0.5,3.3,1.4s1.2,2.2,1.2,3.9v1h-6.9c0.1,0.9,0.4,1.6,0.9,2.1
			s1.2,0.8,1.9,0.8c1.1,0,2-0.4,2.7-1.3l1.3,1.2c-0.4,0.6-1,1.1-1.7,1.5C526.9,639.2,526.1,639.3,525.2,639.3z M524.9,630.3
			c-0.7,0-1.2,0.2-1.6,0.7c-0.4,0.5-0.7,1.1-0.8,1.9h4.5v-0.2c-0.1-0.8-0.3-1.4-0.6-1.8C526.1,630.5,525.6,630.3,524.9,630.3z"/>
	</g>
	<g>
		<path class="st4" d="M167.5,635v8.7h-1.8v-21.3h7.3c2.2,0,4,0.6,5.3,1.7s1.9,2.7,1.9,4.7s-0.6,3.5-1.9,4.6s-3,1.6-5.4,1.6H167.5z
			 M167.5,633.5h5.5c1.7,0,3.1-0.4,4-1.2s1.4-2,1.4-3.5s-0.5-2.7-1.4-3.5s-2.2-1.3-3.9-1.3h-5.6V633.5z"/>
		<path class="st4" d="M191.1,629.3c-0.4-0.1-0.8-0.1-1.2-0.1c-1.1,0-2,0.3-2.8,0.9s-1.3,1.5-1.6,2.7v10.9h-1.7v-15.8h1.7v2.5
			c0.9-1.9,2.4-2.8,4.5-2.8c0.5,0,0.9,0.1,1.2,0.2L191.1,629.3z"/>
		<path class="st4" d="M193.7,623.3c0-0.3,0.1-0.6,0.3-0.8s0.5-0.3,0.9-0.3s0.7,0.1,0.9,0.3s0.3,0.5,0.3,0.8s-0.1,0.6-0.3,0.8
			s-0.5,0.3-0.9,0.3s-0.7-0.1-0.9-0.3C193.8,623.9,193.7,623.6,193.7,623.3z M195.8,643.7H194v-15.8h1.8V643.7z"/>
		<path class="st4" d="M202.2,627.9l0.1,2.7c0.6-1,1.3-1.7,2.2-2.2s1.9-0.8,2.9-0.8c1.7,0,3,0.5,3.8,1.4s1.3,2.4,1.3,4.3v10.4h-1.7
			v-10.4c0-1.4-0.3-2.5-0.9-3.2s-1.5-1-2.8-1c-1.1,0-2,0.3-2.9,1s-1.5,1.6-1.9,2.7v10.9h-1.7v-15.8L202.2,627.9L202.2,627.9z"/>
		<path class="st4" d="M222.9,642.5c1.2,0,2.2-0.3,3.1-1s1.3-1.6,1.3-2.7h1.7c0,1-0.4,1.8-0.9,2.6s-1.3,1.4-2.2,1.9s-1.9,0.7-3,0.7
			c-2.1,0-3.7-0.7-4.9-2.2s-1.8-3.4-1.8-5.8v-0.5c0-1.6,0.3-2.9,0.8-4.1s1.3-2.1,2.4-2.8s2.2-1,3.6-1c1.7,0,3.2,0.5,4.3,1.6
			s1.7,2.4,1.8,4.1h-1.7c-0.1-1.2-0.5-2.2-1.3-3s-1.8-1.1-3.1-1.1c-1.6,0-2.8,0.6-3.7,1.7s-1.3,2.7-1.3,4.8v0.5c0,2,0.4,3.6,1.3,4.7
			S221.3,642.5,222.9,642.5z"/>
		<path class="st4" d="M232.4,623.3c0-0.3,0.1-0.6,0.3-0.8s0.5-0.3,0.9-0.3s0.7,0.1,0.9,0.3s0.3,0.5,0.3,0.8s-0.1,0.6-0.3,0.8
			s-0.5,0.3-0.9,0.3s-0.7-0.1-0.9-0.3C232.5,623.9,232.4,623.6,232.4,623.3z M234.5,643.7h-1.8v-15.8h1.8V643.7z"/>
		<path class="st4" d="M252,635.9c0,2.5-0.5,4.4-1.6,5.9s-2.6,2.2-4.4,2.2c-2.2,0-3.8-0.8-5-2.3v8.1h-1.7v-21.9h1.6l0.1,2.2
			c1.1-1.7,2.8-2.5,5-2.5c1.9,0,3.4,0.7,4.5,2.2s1.6,3.4,1.6,6v0.1H252z M250.2,635.6c0-2-0.4-3.6-1.2-4.8s-2-1.8-3.5-1.8
			c-1.1,0-2,0.3-2.8,0.8s-1.4,1.3-1.8,2.3v7.6c0.4,0.9,1,1.6,1.8,2.1s1.7,0.7,2.8,0.7c1.5,0,2.6-0.6,3.4-1.8
			S250.2,637.9,250.2,635.6z"/>
		<path class="st4" d="M255.7,623.3c0-0.3,0.1-0.6,0.3-0.8c0.2-0.2,0.5-0.3,0.9-0.3s0.7,0.1,0.9,0.3s0.3,0.5,0.3,0.8
			s-0.1,0.6-0.3,0.8c-0.2,0.2-0.5,0.3-0.9,0.3s-0.7-0.1-0.9-0.3C255.9,623.9,255.7,623.6,255.7,623.3z M257.8,643.7H256v-15.8h1.8
			V643.7z"/>
		<path class="st4" d="M261.6,635.5c0-1.5,0.3-2.9,0.9-4.1s1.4-2.2,2.5-2.8s2.3-1,3.7-1c2.1,0,3.8,0.7,5.1,2.2s2,3.4,2,5.9v0.4
			c0,1.5-0.3,2.9-0.9,4.1s-1.4,2.2-2.5,2.8s-2.3,1-3.7,1c-2.1,0-3.8-0.7-5.1-2.2s-2-3.4-2-5.9V635.5z M263.4,636
			c0,1.9,0.5,3.4,1.5,4.7s2.3,1.8,3.9,1.8s2.9-0.6,3.8-1.8s1.5-2.8,1.5-4.8v-0.3c0-1.2-0.2-2.3-0.7-3.3s-1.1-1.8-1.9-2.3
			s-1.7-0.8-2.8-0.8c-1.6,0-2.8,0.6-3.8,1.8s-1.5,2.8-1.5,4.8V636z"/>
		<path class="st4" d="M299,627.9c0,1.1-0.3,2.1-1,3s-1.5,1.5-2.5,1.9c1.2,0.4,2.2,1.1,3,2s1.1,2,1.1,3.3c0,1.8-0.6,3.3-1.9,4.3
			s-2.9,1.6-4.9,1.6c-2.1,0-3.7-0.5-4.9-1.6s-1.9-2.5-1.9-4.3c0-1.2,0.4-2.3,1.1-3.2s1.7-1.6,2.9-2.1c-1.1-0.4-1.9-1.1-2.5-1.9
			s-0.9-1.9-0.9-3c0-1.8,0.6-3.2,1.7-4.2s2.6-1.6,4.5-1.6s3.4,0.5,4.5,1.6S299,626.1,299,627.9z M297.8,638.1c0-1.3-0.5-2.4-1.4-3.3
			s-2.2-1.3-3.6-1.3s-2.7,0.4-3.6,1.3s-1.4,1.9-1.4,3.3s0.5,2.4,1.4,3.2s2.1,1.2,3.7,1.2c1.5,0,2.7-0.4,3.6-1.2
			S297.8,639.4,297.8,638.1z M297.2,627.9c0-1.2-0.4-2.2-1.3-3.1s-1.9-1.2-3.2-1.2c-1.3,0-2.4,0.4-3.2,1.2s-1.2,1.8-1.2,3.1
			s0.4,2.3,1.2,3s1.9,1.1,3.2,1.1c1.3,0,2.4-0.4,3.2-1.2S297.2,629.1,297.2,627.9z"/>
	</g>
	<g>
		<path d="M168.4,676.1l2.6,4.1h-1.4l-3-4V676l3-4h1.4L168.4,676.1z M171.8,676.1l2.6,4.1H173l-3-4V676l3-4h1.4L171.8,676.1z"/>
		<path d="M179.1,680.1h7.1v1.6h-9.1v-14.9h2V680.1z"/>
		<path d="M195,681.7c-0.1-0.2-0.2-0.6-0.3-1.2c-0.9,0.9-1.9,1.4-3.2,1.4c-1.1,0-2-0.3-2.7-0.9c-0.7-0.6-1.1-1.4-1.1-2.4
			c0-1.2,0.4-2.1,1.3-2.7c0.9-0.6,2.1-1,3.7-1h1.8V674c0-0.7-0.2-1.2-0.6-1.6c-0.4-0.4-1-0.6-1.8-0.6c-0.7,0-1.2,0.2-1.7,0.5
			s-0.7,0.8-0.7,1.2H188c0-0.6,0.2-1.1,0.6-1.6c0.4-0.5,0.9-0.9,1.6-1.2c0.7-0.3,1.4-0.5,2.2-0.5c1.3,0,2.3,0.3,3,1
			c0.7,0.6,1.1,1.5,1.1,2.6v5.1c0,1,0.1,1.8,0.4,2.4v0.2H195V681.7z M191.8,680.3c0.6,0,1.2-0.2,1.7-0.5s0.9-0.7,1.2-1.2v-2.3h-1.5
			c-2.3,0-3.5,0.7-3.5,2c0,0.6,0.2,1.1,0.6,1.4S191.2,680.3,191.8,680.3z"/>
		<path d="M206,678.8c0-0.5-0.2-0.9-0.6-1.2c-0.4-0.3-1.1-0.5-2-0.7c-1-0.2-1.7-0.5-2.3-0.7c-0.6-0.3-1-0.6-1.3-1s-0.4-0.9-0.4-1.4
			c0-0.9,0.4-1.7,1.2-2.3s1.8-0.9,2.9-0.9c1.3,0,2.3,0.3,3.1,1c0.8,0.6,1.2,1.5,1.2,2.5h-1.9c0-0.5-0.2-1-0.7-1.3
			c-0.4-0.4-1-0.6-1.7-0.6s-1.2,0.2-1.6,0.5s-0.6,0.7-0.6,1.2s0.2,0.8,0.5,1s1,0.5,2,0.7c0.9,0.2,1.7,0.5,2.3,0.8s1,0.6,1.3,1.1
			c0.3,0.4,0.4,0.9,0.4,1.5c0,1-0.4,1.8-1.2,2.4c-0.8,0.6-1.8,0.9-3.1,0.9c-0.9,0-1.7-0.2-2.4-0.5s-1.2-0.8-1.6-1.3
			c-0.4-0.6-0.6-1.2-0.6-1.8h1.9c0,0.6,0.3,1.1,0.8,1.5s1.1,0.6,1.9,0.6c0.7,0,1.3-0.1,1.7-0.4C205.8,679.7,206,679.3,206,678.8z"/>
		<path d="M220.2,681.9c-1.5,0-2.7-0.5-3.7-1.5c-0.9-1-1.4-2.3-1.4-4v-0.3c0-1.1,0.2-2.1,0.6-2.9c0.4-0.9,1-1.5,1.8-2
			s1.6-0.7,2.5-0.7c1.4,0,2.6,0.5,3.4,1.4s1.2,2.3,1.2,4.1v0.8H217c0,1.1,0.3,2,1,2.7c0.6,0.7,1.4,1,2.3,1c0.7,0,1.2-0.1,1.7-0.4
			s0.9-0.6,1.2-1.1l1.2,0.9C223.4,681.2,222,681.9,220.2,681.9z M219.9,672c-0.8,0-1.4,0.3-1.9,0.8c-0.5,0.6-0.8,1.3-1,2.3h5.6V675
			c-0.1-1-0.3-1.7-0.8-2.2C221.4,672.3,220.7,672,219.9,672z"/>
		<path d="M228.5,670.6l0.1,1.2c0.8-1,1.9-1.4,3.3-1.4c1.6,0,2.6,0.6,3.2,1.8c0.4-0.5,0.8-1,1.4-1.3c0.6-0.3,1.3-0.5,2.1-0.5
			c2.4,0,3.7,1.3,3.7,3.9v7.4h-1.9v-7.3c0-0.8-0.2-1.4-0.5-1.8c-0.4-0.4-1-0.6-1.8-0.6c-0.7,0-1.3,0.2-1.8,0.6
			c-0.5,0.4-0.7,1-0.8,1.7v7.4h-1.9v-7.3c0-1.6-0.8-2.4-2.4-2.4c-1.2,0-2.1,0.5-2.6,1.6v8.1h-1.9v-11.1L228.5,670.6L228.5,670.6z"/>
		<path d="M254.5,676.3c0,1.7-0.4,3-1.2,4.1s-1.8,1.5-3.1,1.5s-2.4-0.4-3.2-1.3v5.3h-1.9v-15.4h1.7l0.1,1.2c0.8-1,1.8-1.4,3.2-1.4
			c1.3,0,2.4,0.5,3.2,1.5s1.2,2.4,1.2,4.2V676.3z M252.6,676.1c0-1.3-0.3-2.2-0.8-3s-1.3-1.1-2.2-1.1c-1.1,0-2,0.5-2.6,1.5v5.3
			c0.6,1,1.4,1.5,2.6,1.5c0.9,0,1.6-0.4,2.2-1.1C252.3,678.6,252.6,677.5,252.6,676.1z"/>
		<path d="M262.2,672.3c-0.3,0-0.6-0.1-0.9-0.1c-1.2,0-2.1,0.5-2.5,1.6v7.9h-1.9v-11.1h1.8v1.3c0.6-1,1.5-1.5,2.6-1.5
			c0.4,0,0.6,0,0.8,0.1v1.8H262.2z"/>
		<path d="M268.4,681.9c-1.5,0-2.7-0.5-3.7-1.5c-0.9-1-1.4-2.3-1.4-4v-0.3c0-1.1,0.2-2.1,0.6-2.9c0.4-0.9,1-1.5,1.8-2
			s1.6-0.7,2.5-0.7c1.4,0,2.6,0.5,3.4,1.4s1.2,2.3,1.2,4.1v0.8h-7.5c0,1.1,0.3,2,1,2.7c0.6,0.7,1.4,1,2.3,1c0.7,0,1.2-0.1,1.7-0.4
			s0.9-0.6,1.2-1.1l1.2,0.9C271.7,681.2,270.3,681.9,268.4,681.9z M268.2,672c-0.8,0-1.4,0.3-1.9,0.8c-0.5,0.6-0.8,1.3-1,2.3h5.6
			V675c-0.1-1-0.3-1.7-0.8-2.2C269.6,672.3,269,672,268.2,672z"/>
		<path d="M281.4,678.8c0-0.5-0.2-0.9-0.6-1.2s-1.1-0.5-2-0.7c-1-0.2-1.7-0.5-2.3-0.7c-0.6-0.3-1-0.6-1.3-1s-0.4-0.9-0.4-1.4
			c0-0.9,0.4-1.7,1.2-2.3c0.8-0.6,1.8-0.9,2.9-0.9c1.3,0,2.3,0.3,3.1,1c0.8,0.6,1.2,1.5,1.2,2.5h-1.9c0-0.5-0.2-1-0.7-1.3
			c-0.4-0.4-1-0.6-1.7-0.6s-1.2,0.2-1.6,0.5s-0.6,0.7-0.6,1.2s0.2,0.8,0.5,1s1,0.5,2,0.7c0.9,0.2,1.7,0.5,2.3,0.8s1,0.6,1.3,1.1
			c0.3,0.4,0.4,0.9,0.4,1.5c0,1-0.4,1.8-1.2,2.4c-0.8,0.6-1.8,0.9-3.1,0.9c-0.9,0-1.7-0.2-2.4-0.5s-1.2-0.8-1.6-1.3
			c-0.4-0.6-0.6-1.2-0.6-1.8h1.9c0,0.6,0.3,1.1,0.8,1.5s1.1,0.6,1.9,0.6c0.7,0,1.3-0.1,1.7-0.4C281.2,679.7,281.4,679.3,281.4,678.8
			z"/>
		<path d="M292.6,681.7c-0.1-0.2-0.2-0.6-0.3-1.2c-0.9,0.9-1.9,1.4-3.2,1.4c-1.1,0-2-0.3-2.7-0.9c-0.7-0.6-1.1-1.4-1.1-2.4
			c0-1.2,0.4-2.1,1.3-2.7c0.9-0.6,2.1-1,3.7-1h1.8V674c0-0.7-0.2-1.2-0.6-1.6c-0.4-0.4-1-0.6-1.8-0.6c-0.7,0-1.2,0.2-1.7,0.5
			s-0.7,0.8-0.7,1.2h-1.9c0-0.6,0.2-1.1,0.6-1.6s0.9-0.9,1.6-1.2s1.4-0.5,2.2-0.5c1.3,0,2.3,0.3,3,1c0.7,0.6,1.1,1.5,1.1,2.6v5.1
			c0,1,0.1,1.8,0.4,2.4v0.2h-1.7V681.7z M289.5,680.3c0.6,0,1.2-0.2,1.7-0.5s0.9-0.7,1.2-1.2v-2.3h-1.5c-2.3,0-3.5,0.7-3.5,2
			c0,0.6,0.2,1.1,0.6,1.4S288.8,680.3,289.5,680.3z"/>
		<path d="M303.6,678.8c0-0.5-0.2-0.9-0.6-1.2s-1.1-0.5-2-0.7c-1-0.2-1.7-0.5-2.3-0.7c-0.6-0.3-1-0.6-1.3-1s-0.4-0.9-0.4-1.4
			c0-0.9,0.4-1.7,1.2-2.3c0.8-0.6,1.8-0.9,2.9-0.9c1.3,0,2.3,0.3,3.1,1c0.8,0.6,1.2,1.5,1.2,2.5h-1.9c0-0.5-0.2-1-0.7-1.3
			c-0.4-0.4-1-0.6-1.7-0.6s-1.2,0.2-1.6,0.5s-0.6,0.7-0.6,1.2s0.2,0.8,0.5,1s1,0.5,2,0.7c0.9,0.2,1.7,0.5,2.3,0.8s1,0.6,1.3,1.1
			c0.3,0.4,0.4,0.9,0.4,1.5c0,1-0.4,1.8-1.2,2.4c-0.8,0.6-1.8,0.9-3.1,0.9c-0.9,0-1.7-0.2-2.4-0.5s-1.2-0.8-1.6-1.3
			c-0.4-0.6-0.6-1.2-0.6-1.8h1.9c0,0.6,0.3,1.1,0.8,1.5s1.1,0.6,1.9,0.6c0.7,0,1.3-0.1,1.7-0.4C303.4,679.7,303.6,679.3,303.6,678.8
			z"/>
		<path d="M312.7,676.1c0-1.7,0.4-3.1,1.2-4.1c0.8-1,1.9-1.6,3.2-1.6c1.3,0,2.3,0.4,3.1,1.3V666h1.9v15.8h-1.7l-0.1-1.2
			c-0.8,0.9-1.8,1.4-3.2,1.4c-1.3,0-2.3-0.5-3.1-1.6c-0.8-1.1-1.2-2.4-1.2-4.1L312.7,676.1L312.7,676.1z M314.6,676.3
			c0,1.3,0.3,2.2,0.8,3s1.2,1.1,2.2,1.1c1.2,0,2.1-0.5,2.6-1.6v-5.1c-0.6-1-1.4-1.6-2.6-1.6c-0.9,0-1.7,0.4-2.2,1.1
			S314.6,674.9,314.6,676.3z"/>
		<path d="M329.6,681.9c-1.5,0-2.7-0.5-3.7-1.5c-0.9-1-1.4-2.3-1.4-4v-0.3c0-1.1,0.2-2.1,0.6-2.9c0.4-0.9,1-1.5,1.8-2
			s1.6-0.7,2.5-0.7c1.4,0,2.6,0.5,3.4,1.4s1.2,2.3,1.2,4.1v0.8h-7.5c0,1.1,0.3,2,1,2.7c0.6,0.7,1.4,1,2.3,1c0.7,0,1.2-0.1,1.7-0.4
			s0.9-0.6,1.2-1.1l1.2,0.9C332.9,681.2,331.5,681.9,329.6,681.9z M329.4,672c-0.8,0-1.4,0.3-1.9,0.8c-0.5,0.6-0.8,1.3-1,2.3h5.6
			V675c-0.1-1-0.3-1.7-0.8-2.2C330.8,672.3,330.2,672,329.4,672z"/>
		<path d="M345.6,676.3c0,1.7-0.4,3.1-1.2,4.1c-0.8,1-1.8,1.5-3.1,1.5c-1.4,0-2.5-0.5-3.3-1.5l-0.1,1.3h-1.7V666h1.9v5.9
			c0.8-1,1.8-1.4,3.2-1.4s2.4,0.5,3.2,1.5c0.8,1,1.2,2.4,1.2,4.2v0.1H345.6z M343.7,676.1c0-1.3-0.3-2.3-0.7-3s-1.2-1.1-2.2-1.1
			c-1.3,0-2.1,0.6-2.7,1.7v4.8c0.6,1.2,1.5,1.7,2.7,1.7c0.9,0,1.6-0.4,2.1-1.1S343.7,677.5,343.7,676.1z"/>
		<path d="M352.6,681.9c-1.5,0-2.7-0.5-3.7-1.5c-0.9-1-1.4-2.3-1.4-4v-0.3c0-1.1,0.2-2.1,0.6-2.9c0.4-0.9,1-1.5,1.8-2
			s1.6-0.7,2.5-0.7c1.4,0,2.6,0.5,3.4,1.4s1.2,2.3,1.2,4.1v0.8h-7.5c0,1.1,0.3,2,1,2.7c0.6,0.7,1.4,1,2.3,1c0.7,0,1.2-0.1,1.7-0.4
			s0.9-0.6,1.2-1.1l1.2,0.9C355.8,681.2,354.4,681.9,352.6,681.9z M352.3,672c-0.8,0-1.4,0.3-1.9,0.8c-0.5,0.6-0.8,1.3-1,2.3h5.6
			V675c-0.1-1-0.3-1.7-0.8-2.2S353.1,672,352.3,672z"/>
		<path d="M360.9,670.6l0.1,1.4c0.8-1.1,2-1.6,3.3-1.6c2.3,0,3.5,1.3,3.5,4v7.3h-1.9v-7.3c0-0.8-0.2-1.4-0.5-1.8
			c-0.4-0.4-0.9-0.6-1.7-0.6c-0.6,0-1.2,0.2-1.6,0.5s-0.8,0.8-1.1,1.3v7.9h-1.9v-11.1L360.9,670.6L360.9,670.6z"/>
		<path d="M376.8,681.7v-9.6H375v-1.5h1.8v-1.1c0-1.2,0.3-2.1,1-2.8s1.5-1,2.7-1c0.4,0,0.9,0.1,1.3,0.2l-0.1,1.5
			c-0.3-0.1-0.7-0.1-1-0.1c-0.6,0-1.1,0.2-1.4,0.5c-0.3,0.4-0.5,0.9-0.5,1.5v1.2h2.4v1.5h-2.4v9.6L376.8,681.7L376.8,681.7z"/>
		<path d="M382.7,676.1c0-1.1,0.2-2.1,0.6-2.9c0.4-0.9,1-1.5,1.8-2s1.6-0.7,2.6-0.7c1.5,0,2.7,0.5,3.7,1.6c0.9,1,1.4,2.4,1.4,4.2
			v0.1c0,1.1-0.2,2-0.6,2.9s-1,1.5-1.8,2s-1.7,0.7-2.7,0.7c-1.5,0-2.7-0.5-3.7-1.6c-0.9-1-1.4-2.4-1.4-4.2v-0.1H382.7z M384.6,676.3
			c0,1.2,0.3,2.2,0.9,3c0.6,0.7,1.3,1.1,2.3,1.1s1.7-0.4,2.3-1.1c0.6-0.8,0.9-1.8,0.9-3.2c0-1.2-0.3-2.2-0.9-3s-1.3-1.1-2.3-1.1
			c-0.9,0-1.7,0.4-2.3,1.1S384.6,674.9,384.6,676.3z"/>
		<path d="M396.9,670.6l0.1,1.2c0.8-1,1.9-1.4,3.3-1.4c1.6,0,2.6,0.6,3.2,1.8c0.4-0.5,0.8-1,1.4-1.3s1.3-0.5,2.1-0.5
			c2.4,0,3.7,1.3,3.7,3.9v7.4h-1.9v-7.3c0-0.8-0.2-1.4-0.5-1.8c-0.4-0.4-1-0.6-1.8-0.6c-0.7,0-1.3,0.2-1.8,0.6
			c-0.5,0.4-0.7,1-0.8,1.7v7.4H402v-7.3c0-1.6-0.8-2.4-2.4-2.4c-1.2,0-2.1,0.5-2.6,1.6v8.1h-1.9v-11.1L396.9,670.6L396.9,670.6z"/>
		<path d="M418.1,681.9c-1.5,0-2.7-0.5-3.7-1.5c-0.9-1-1.4-2.3-1.4-4v-0.3c0-1.1,0.2-2.1,0.6-2.9c0.4-0.9,1-1.5,1.8-2
			s1.6-0.7,2.5-0.7c1.4,0,2.6,0.5,3.4,1.4s1.2,2.3,1.2,4.1v0.8H415c0,1.1,0.3,2,1,2.7c0.6,0.7,1.4,1,2.3,1c0.7,0,1.2-0.1,1.7-0.4
			s0.9-0.6,1.2-1.1l1.2,0.9C421.4,681.2,420,681.9,418.1,681.9z M417.9,672c-0.8,0-1.4,0.3-1.9,0.8c-0.5,0.6-0.8,1.3-1,2.3h5.6V675
			c-0.1-1-0.3-1.7-0.8-2.2C419.3,672.3,418.7,672,417.9,672z"/>
		<path d="M426.5,670.6l0.1,1.4c0.8-1.1,2-1.6,3.3-1.6c2.3,0,3.5,1.3,3.5,4v7.3h-1.9v-7.3c0-0.8-0.2-1.4-0.5-1.8
			c-0.4-0.4-0.9-0.6-1.7-0.6c-0.6,0-1.2,0.2-1.6,0.5s-0.8,0.8-1.1,1.3v7.9h-1.9v-11.1L426.5,670.6L426.5,670.6z"/>
		<path d="M438.8,667.9v2.7h2.1v1.5h-2.1v6.9c0,0.4,0.1,0.8,0.3,1s0.5,0.3,0.9,0.3c0.2,0,0.5,0,0.9-0.1v1.5c-0.5,0.1-1,0.2-1.5,0.2
			c-0.8,0-1.5-0.3-1.9-0.8s-0.6-1.2-0.6-2.2V672h-2v-1.5h2v-2.7L438.8,667.9L438.8,667.9z"/>
		<path d="M450,681.7c-0.1-0.2-0.2-0.6-0.3-1.2c-0.9,0.9-1.9,1.4-3.2,1.4c-1.1,0-2-0.3-2.7-0.9c-0.7-0.6-1.1-1.4-1.1-2.4
			c0-1.2,0.4-2.1,1.3-2.7c0.9-0.6,2.1-1,3.7-1h1.8V674c0-0.7-0.2-1.2-0.6-1.6c-0.4-0.4-1-0.6-1.8-0.6c-0.7,0-1.2,0.2-1.7,0.5
			s-0.7,0.8-0.7,1.2H443c0-0.6,0.2-1.1,0.6-1.6s0.9-0.9,1.6-1.2s1.4-0.5,2.2-0.5c1.3,0,2.3,0.3,3,1c0.7,0.6,1.1,1.5,1.1,2.6v5.1
			c0,1,0.1,1.8,0.4,2.4v0.2H450V681.7z M446.8,680.3c0.6,0,1.2-0.2,1.7-0.5s0.9-0.7,1.2-1.2v-2.3h-1.5c-2.3,0-3.5,0.7-3.5,2
			c0,0.6,0.2,1.1,0.6,1.4S446.2,680.3,446.8,680.3z"/>
		<path d="M459.9,672.3c-0.3,0-0.6-0.1-0.9-0.1c-1.2,0-2.1,0.5-2.5,1.6v7.9h-1.9v-11.1h1.8v1.3c0.6-1,1.5-1.5,2.6-1.5
			c0.4,0,0.6,0,0.8,0.1v1.8H459.9z"/>
		<path d="M468.9,681.7H467V666h1.9V681.7z"/>
		<path d="M478.8,681.7c-0.1-0.2-0.2-0.6-0.3-1.2c-0.9,0.9-1.9,1.4-3.2,1.4c-1.1,0-2-0.3-2.7-0.9c-0.7-0.6-1.1-1.4-1.1-2.4
			c0-1.2,0.4-2.1,1.3-2.7c0.9-0.6,2.1-1,3.7-1h1.8V674c0-0.7-0.2-1.2-0.6-1.6c-0.4-0.4-1-0.6-1.8-0.6c-0.7,0-1.2,0.2-1.7,0.5
			s-0.7,0.8-0.7,1.2h-1.9c0-0.6,0.2-1.1,0.6-1.6s0.9-0.9,1.6-1.2s1.4-0.5,2.2-0.5c1.3,0,2.3,0.3,3,1c0.7,0.6,1.1,1.5,1.1,2.6v5.1
			c0,1,0.1,1.8,0.4,2.4v0.2h-1.7V681.7z M475.6,680.3c0.6,0,1.2-0.2,1.7-0.5s0.9-0.7,1.2-1.2v-2.3H477c-2.3,0-3.5,0.7-3.5,2
			c0,0.6,0.2,1.1,0.6,1.4S475,680.3,475.6,680.3z"/>
		<path d="M489.8,678.8c0-0.5-0.2-0.9-0.6-1.2s-1.1-0.5-2-0.7c-1-0.2-1.7-0.5-2.3-0.7c-0.6-0.3-1-0.6-1.3-1s-0.4-0.9-0.4-1.4
			c0-0.9,0.4-1.7,1.2-2.3c0.8-0.6,1.8-0.9,2.9-0.9c1.3,0,2.3,0.3,3.1,1c0.8,0.6,1.2,1.5,1.2,2.5h-1.9c0-0.5-0.2-1-0.7-1.3
			c-0.4-0.4-1-0.6-1.7-0.6s-1.2,0.2-1.6,0.5s-0.6,0.7-0.6,1.2s0.2,0.8,0.5,1s1,0.5,2,0.7c0.9,0.2,1.7,0.5,2.3,0.8s1,0.6,1.3,1.1
			c0.3,0.4,0.4,0.9,0.4,1.5c0,1-0.4,1.8-1.2,2.4c-0.8,0.6-1.8,0.9-3.1,0.9c-0.9,0-1.7-0.2-2.4-0.5s-1.2-0.8-1.6-1.3
			c-0.4-0.6-0.6-1.2-0.6-1.8h1.9c0,0.6,0.3,1.1,0.8,1.5s1.1,0.6,1.9,0.6c0.7,0,1.3-0.1,1.7-0.4C489.6,679.7,489.8,679.3,489.8,678.8
			z"/>
		<path d="M167,692.9c0-0.3,0.1-0.6,0.3-0.8s0.5-0.3,0.8-0.3s0.6,0.1,0.8,0.3s0.3,0.5,0.3,0.8s-0.1,0.6-0.3,0.8s-0.5,0.3-0.8,0.3
			s-0.6-0.1-0.8-0.3S167,693.2,167,692.9z M169,706.9h-1.9v-11.1h1.9V706.9z"/>
		<path d="M173.9,695.8l0.1,1.4c0.8-1.1,2-1.6,3.3-1.6c2.3,0,3.5,1.3,3.5,4v7.3h-1.9v-7.3c0-0.8-0.2-1.4-0.5-1.8
			c-0.4-0.4-0.9-0.6-1.7-0.6c-0.6,0-1.2,0.2-1.6,0.5s-0.8,0.8-1.1,1.3v7.9h-1.9v-11.1L173.9,695.8L173.9,695.8z"/>
		<path d="M183.7,692.9c0-0.3,0.1-0.6,0.3-0.8s0.5-0.3,0.8-0.3s0.6,0.1,0.8,0.3s0.3,0.5,0.3,0.8s-0.1,0.6-0.3,0.8s-0.5,0.3-0.8,0.3
			s-0.6-0.1-0.8-0.3S183.7,693.2,183.7,692.9z M185.7,706.9h-1.9v-11.1h1.9V706.9z"/>
		<path d="M193.2,705.6c0.7,0,1.3-0.2,1.8-0.6s0.8-0.9,0.8-1.5h1.8c0,0.6-0.3,1.2-0.7,1.8s-0.9,1-1.6,1.4c-0.7,0.3-1.4,0.5-2.1,0.5
			c-1.5,0-2.7-0.5-3.6-1.5c-0.9-1-1.3-2.4-1.3-4.1v-0.3c0-1.1,0.2-2,0.6-2.9s1-1.5,1.7-2s1.6-0.7,2.6-0.7c1.2,0,2.3,0.4,3.1,1.1
			c0.8,0.7,1.3,1.7,1.3,2.9h-1.8c-0.1-0.7-0.3-1.3-0.8-1.8s-1.1-0.7-1.8-0.7c-1,0-1.7,0.3-2.2,1s-0.8,1.7-0.8,3v0.4
			c0,1.3,0.3,2.3,0.8,3S192.2,705.6,193.2,705.6z"/>
		<path d="M199.8,692.9c0-0.3,0.1-0.6,0.3-0.8s0.5-0.3,0.8-0.3s0.6,0.1,0.8,0.3s0.3,0.5,0.3,0.8s-0.1,0.6-0.3,0.8s-0.5,0.3-0.8,0.3
			s-0.6-0.1-0.8-0.3C199.8,693.5,199.8,693.2,199.8,692.9z M201.8,706.9h-1.9v-11.1h1.9V706.9z"/>
		<path d="M211.7,706.9c-0.1-0.2-0.2-0.6-0.3-1.2c-0.9,0.9-1.9,1.4-3.2,1.4c-1.1,0-2-0.3-2.7-0.9c-0.7-0.6-1.1-1.4-1.1-2.4
			c0-1.2,0.4-2.1,1.3-2.7c0.9-0.6,2.1-1,3.7-1h1.8v-0.9c0-0.7-0.2-1.2-0.6-1.6c-0.4-0.4-1-0.6-1.8-0.6c-0.7,0-1.2,0.2-1.7,0.5
			s-0.7,0.8-0.7,1.2h-1.9c0-0.6,0.2-1.1,0.6-1.6c0.4-0.5,0.9-0.9,1.6-1.2c0.7-0.3,1.4-0.5,2.2-0.5c1.3,0,2.3,0.3,3,1
			c0.7,0.6,1.1,1.5,1.1,2.6v5.1c0,1,0.1,1.8,0.4,2.4v0.2h-1.7V706.9z M208.5,705.5c0.6,0,1.2-0.2,1.7-0.5s0.9-0.7,1.2-1.2v-2.3h-1.5
			c-2.3,0-3.5,0.7-3.5,2c0,0.6,0.2,1.1,0.6,1.4S207.9,705.5,208.5,705.5z"/>
		<path d="M218.8,693.1v2.7h2.1v1.5h-2.1v6.9c0,0.4,0.1,0.8,0.3,1s0.5,0.3,0.9,0.3c0.2,0,0.5,0,0.9-0.1v1.5c-0.5,0.1-1,0.2-1.5,0.2
			c-0.8,0-1.5-0.3-1.9-0.8s-0.6-1.2-0.6-2.2v-6.9h-2v-1.5h2V693L218.8,693.1L218.8,693.1z"/>
		<path d="M223.1,692.9c0-0.3,0.1-0.6,0.3-0.8s0.5-0.3,0.8-0.3s0.6,0.1,0.8,0.3s0.3,0.5,0.3,0.8s-0.1,0.6-0.3,0.8s-0.5,0.3-0.8,0.3
			s-0.6-0.1-0.8-0.3C223.2,693.5,223.1,693.2,223.1,692.9z M225.2,706.9h-1.9v-11.1h1.9V706.9z"/>
		<path d="M231.9,704.4l2.7-8.5h1.9l-4,11.1h-1.4l-4-11.1h1.9L231.9,704.4z"/>
		<path d="M245.1,706.9c-0.1-0.2-0.2-0.6-0.3-1.2c-0.9,0.9-1.9,1.4-3.2,1.4c-1.1,0-2-0.3-2.7-0.9c-0.7-0.6-1.1-1.4-1.1-2.4
			c0-1.2,0.4-2.1,1.3-2.7c0.9-0.6,2.1-1,3.7-1h1.8v-0.9c0-0.7-0.2-1.2-0.6-1.6c-0.4-0.4-1-0.6-1.8-0.6c-0.7,0-1.2,0.2-1.7,0.5
			s-0.7,0.8-0.7,1.2h-1.9c0-0.6,0.2-1.1,0.6-1.6c0.4-0.5,0.9-0.9,1.6-1.2c0.7-0.3,1.4-0.5,2.2-0.5c1.3,0,2.3,0.3,3,1
			c0.7,0.6,1.1,1.5,1.1,2.6v5.1c0,1,0.1,1.8,0.4,2.4v0.2h-1.7V706.9z M241.9,705.5c0.6,0,1.2-0.2,1.7-0.5s0.9-0.7,1.2-1.2v-2.3h-1.5
			c-2.3,0-3.5,0.7-3.5,2c0,0.6,0.2,1.1,0.6,1.4S241.3,705.5,241.9,705.5z"/>
		<path d="M256.1,704c0-0.5-0.2-0.9-0.6-1.2c-0.4-0.3-1.1-0.5-2-0.7c-1-0.2-1.7-0.5-2.3-0.7c-0.6-0.3-1-0.6-1.3-1s-0.4-0.9-0.4-1.4
			c0-0.9,0.4-1.7,1.2-2.3s1.8-0.9,2.9-0.9c1.3,0,2.3,0.3,3.1,1c0.8,0.6,1.2,1.5,1.2,2.5H256c0-0.5-0.2-1-0.7-1.3
			c-0.4-0.4-1-0.6-1.7-0.6s-1.2,0.2-1.6,0.5s-0.6,0.7-0.6,1.2s0.2,0.8,0.5,1s1,0.5,2,0.7c0.9,0.2,1.7,0.5,2.3,0.8
			c0.6,0.3,1,0.6,1.3,1.1c0.3,0.4,0.4,0.9,0.4,1.5c0,1-0.4,1.8-1.2,2.4c-0.8,0.6-1.8,0.9-3.1,0.9c-0.9,0-1.7-0.2-2.4-0.5
			s-1.2-0.8-1.6-1.3c-0.4-0.6-0.6-1.2-0.6-1.8h1.9c0,0.6,0.3,1.1,0.8,1.5s1.1,0.6,1.9,0.6c0.7,0,1.3-0.1,1.7-0.4
			C255.9,704.9,256.1,704.5,256.1,704z"/>
		<path d="M265.2,701.3c0-1.7,0.4-3.1,1.2-4.1c0.8-1,1.9-1.5,3.2-1.5c1.3,0,2.3,0.4,3.1,1.3l0.1-1.1h1.7v15.4h-1.9V706
			c-0.8,0.8-1.8,1.2-3.1,1.2c-1.3,0-2.4-0.5-3.2-1.6c-0.8-1-1.2-2.4-1.2-4.1L265.2,701.3L265.2,701.3z M267.1,701.5
			c0,1.3,0.3,2.3,0.8,3s1.3,1.1,2.2,1.1c1.1,0,2-0.5,2.6-1.5v-5.4c-0.6-1-1.5-1.5-2.6-1.5c-0.9,0-1.6,0.4-2.2,1.1
			C267.4,699,267.1,700.1,267.1,701.5z"/>
		<path d="M284.5,705.8c-0.7,0.9-1.8,1.3-3.3,1.3c-1.2,0-2.1-0.3-2.7-1s-0.9-1.7-0.9-3.1v-7.2h1.9v7.2c0,1.7,0.7,2.5,2.1,2.5
			s2.4-0.5,2.9-1.6v-8.1h1.9v11.1h-1.8L284.5,705.8z"/>
		<path d="M293.8,707.1c-1.5,0-2.7-0.5-3.7-1.5c-0.9-1-1.4-2.3-1.4-4v-0.3c0-1.1,0.2-2.1,0.6-2.9c0.4-0.9,1-1.5,1.8-2
			s1.6-0.7,2.5-0.7c1.4,0,2.6,0.5,3.4,1.4s1.2,2.3,1.2,4.1v0.8h-7.5c0,1.1,0.3,2,1,2.7c0.6,0.7,1.4,1,2.3,1c0.7,0,1.2-0.1,1.7-0.4
			s0.9-0.6,1.2-1.1l1.2,0.9C297.1,706.4,295.7,707.1,293.8,707.1z M293.6,697.2c-0.8,0-1.4,0.3-1.9,0.8c-0.5,0.6-0.8,1.3-1,2.3h5.6
			v-0.1c-0.1-1-0.3-1.7-0.8-2.2C295,697.5,294.4,697.2,293.6,697.2z"/>
		<path d="M314.9,701.5c0,1.7-0.4,3-1.2,4.1s-1.8,1.5-3.1,1.5c-1.3,0-2.4-0.4-3.2-1.3v5.3h-1.9v-15.4h1.7l0.1,1.2
			c0.8-1,1.8-1.4,3.2-1.4c1.3,0,2.4,0.5,3.2,1.5c0.8,1,1.2,2.4,1.2,4.2L314.9,701.5L314.9,701.5z M313,701.3c0-1.3-0.3-2.2-0.8-3
			s-1.3-1.1-2.2-1.1c-1.1,0-2,0.5-2.6,1.5v5.3c0.6,1,1.4,1.5,2.6,1.5c0.9,0,1.6-0.4,2.2-1.1C312.7,703.8,313,702.7,313,701.3z"/>
		<path d="M322.7,697.5c-0.3,0-0.6-0.1-0.9-0.1c-1.2,0-2.1,0.5-2.5,1.6v7.9h-1.9v-11.1h1.8v1.3c0.6-1,1.5-1.5,2.6-1.5
			c0.4,0,0.6,0,0.8,0.1v1.8H322.7z"/>
		<path d="M323.7,701.3c0-1.1,0.2-2.1,0.6-2.9c0.4-0.9,1-1.5,1.8-2s1.6-0.7,2.6-0.7c1.5,0,2.7,0.5,3.7,1.6c0.9,1,1.4,2.4,1.4,4.2
			v0.1c0,1.1-0.2,2-0.6,2.9s-1,1.5-1.8,2s-1.7,0.7-2.7,0.7c-1.5,0-2.7-0.5-3.7-1.6c-0.9-1-1.4-2.4-1.4-4.2v-0.1H323.7z M325.6,701.5
			c0,1.2,0.3,2.2,0.9,3c0.6,0.7,1.3,1.1,2.3,1.1s1.7-0.4,2.3-1.1c0.6-0.8,0.9-1.8,0.9-3.2c0-1.2-0.3-2.2-0.9-3s-1.3-1.1-2.3-1.1
			c-0.9,0-1.7,0.4-2.3,1.1S325.6,700.1,325.6,701.5z"/>
		<path d="M338,695.8l0.1,1.2c0.8-1,1.9-1.4,3.3-1.4c1.6,0,2.6,0.6,3.2,1.8c0.4-0.5,0.8-1,1.4-1.3s1.3-0.5,2.1-0.5
			c2.4,0,3.7,1.3,3.7,3.9v7.4h-1.9v-7.3c0-0.8-0.2-1.4-0.5-1.8c-0.4-0.4-1-0.6-1.8-0.6c-0.7,0-1.3,0.2-1.8,0.6
			c-0.5,0.4-0.7,1-0.8,1.7v7.4h-2v-7.3c0-1.6-0.8-2.4-2.4-2.4c-1.2,0-2.1,0.5-2.6,1.6v8.1h-1.9v-11.1L338,695.8L338,695.8z"/>
		<path d="M361.4,705.8c-0.7,0.9-1.8,1.3-3.3,1.3c-1.2,0-2.1-0.3-2.7-1s-0.9-1.7-0.9-3.1v-7.2h1.9v7.2c0,1.7,0.7,2.5,2.1,2.5
			s2.4-0.5,2.9-1.6v-8.1h1.9v11.1h-1.8L361.4,705.8z"/>
		<path d="M370.8,707.1c-1.5,0-2.7-0.5-3.7-1.5c-0.9-1-1.4-2.3-1.4-4v-0.3c0-1.1,0.2-2.1,0.6-2.9c0.4-0.9,1-1.5,1.8-2
			s1.6-0.7,2.5-0.7c1.4,0,2.6,0.5,3.4,1.4s1.2,2.3,1.2,4.1v0.8h-7.5c0,1.1,0.3,2,1,2.7c0.6,0.7,1.4,1,2.3,1c0.7,0,1.2-0.1,1.7-0.4
			s0.9-0.6,1.2-1.1l1.2,0.9C374,706.4,372.6,707.1,370.8,707.1z M370.5,697.2c-0.8,0-1.4,0.3-1.9,0.8c-0.5,0.6-0.8,1.3-1,2.3h5.6
			v-0.1c-0.1-1-0.3-1.7-0.8-2.2C372,697.5,371.3,697.2,370.5,697.2z"/>
		<path d="M380.8,704.4l2.7-8.5h1.9l-4,11.1H380l-4-11.1h1.9L380.8,704.4z"/>
		<path d="M394,706.9c-0.1-0.2-0.2-0.6-0.3-1.2c-0.9,0.9-1.9,1.4-3.2,1.4c-1.1,0-2-0.3-2.7-0.9c-0.7-0.6-1.1-1.4-1.1-2.4
			c0-1.2,0.4-2.1,1.3-2.7c0.9-0.6,2.1-1,3.7-1h1.8v-0.9c0-0.7-0.2-1.2-0.6-1.6c-0.4-0.4-1-0.6-1.8-0.6c-0.7,0-1.2,0.2-1.7,0.5
			s-0.7,0.8-0.7,1.2h-1.9c0-0.6,0.2-1.1,0.6-1.6s0.9-0.9,1.6-1.2s1.4-0.5,2.2-0.5c1.3,0,2.3,0.3,3,1c0.7,0.6,1.1,1.5,1.1,2.6v5.1
			c0,1,0.1,1.8,0.4,2.4v0.2H394V706.9z M390.9,705.5c0.6,0,1.2-0.2,1.7-0.5s0.9-0.7,1.2-1.2v-2.3h-1.5c-2.3,0-3.5,0.7-3.5,2
			c0,0.6,0.2,1.1,0.6,1.4S390.3,705.5,390.9,705.5z"/>
		<path d="M400.4,695.8l0.1,1.4c0.8-1.1,2-1.6,3.3-1.6c2.3,0,3.5,1.3,3.5,4v7.3h-1.9v-7.3c0-0.8-0.2-1.4-0.5-1.8
			c-0.4-0.4-0.9-0.6-1.7-0.6c-0.6,0-1.2,0.2-1.6,0.5s-0.8,0.8-1.1,1.3v7.9h-1.9v-11.1L400.4,695.8L400.4,695.8z"/>
		<path d="M422.2,705.8c-0.7,0.9-1.8,1.3-3.3,1.3c-1.2,0-2.1-0.3-2.7-1s-0.9-1.7-0.9-3.1v-7.2h1.9v7.2c0,1.7,0.7,2.5,2.1,2.5
			s2.4-0.5,2.9-1.6v-8.1h1.9v11.1h-1.8L422.2,705.8z"/>
		<path d="M428.8,695.8l0.1,1.4c0.8-1.1,2-1.6,3.3-1.6c2.3,0,3.5,1.3,3.5,4v7.3h-1.9v-7.3c0-0.8-0.2-1.4-0.5-1.8
			c-0.4-0.4-0.9-0.6-1.7-0.6c-0.6,0-1.2,0.2-1.6,0.5s-0.8,0.8-1.1,1.3v7.9H427v-11.1L428.8,695.8L428.8,695.8z"/>
		<path d="M445.4,706.9c-0.1-0.2-0.2-0.6-0.3-1.2c-0.9,0.9-1.9,1.4-3.2,1.4c-1.1,0-2-0.3-2.7-0.9c-0.7-0.6-1.1-1.4-1.1-2.4
			c0-1.2,0.4-2.1,1.3-2.7c0.9-0.6,2.1-1,3.7-1h1.8v-0.9c0-0.7-0.2-1.2-0.6-1.6c-0.4-0.4-1-0.6-1.8-0.6c-0.7,0-1.2,0.2-1.7,0.5
			s-0.7,0.8-0.7,1.2h-1.9c0-0.6,0.2-1.1,0.6-1.6s0.9-0.9,1.6-1.2s1.4-0.5,2.2-0.5c1.3,0,2.3,0.3,3,1c0.7,0.6,1.1,1.5,1.1,2.6v5.1
			c0,1,0.1,1.8,0.4,2.4v0.2h-1.7V706.9z M442.2,705.5c0.6,0,1.2-0.2,1.7-0.5s0.9-0.7,1.2-1.2v-2.3h-1.5c-2.3,0-3.5,0.7-3.5,2
			c0,0.6,0.2,1.1,0.6,1.4S441.6,705.5,442.2,705.5z"/>
		<path d="M457,695.8l0.1,1.2c0.8-1,1.9-1.4,3.3-1.4c1.6,0,2.6,0.6,3.2,1.8c0.4-0.5,0.8-1,1.4-1.3s1.3-0.5,2.1-0.5
			c2.4,0,3.7,1.3,3.7,3.9v7.4h-1.9v-7.3c0-0.8-0.2-1.4-0.5-1.8c-0.4-0.4-1-0.6-1.8-0.6c-0.7,0-1.3,0.2-1.8,0.6
			c-0.5,0.4-0.7,1-0.8,1.7v7.4h-2v-7.3c0-1.6-0.8-2.4-2.4-2.4c-1.2,0-2.1,0.5-2.6,1.6v8.1h-1.9v-11.1L457,695.8L457,695.8z"/>
		<path d="M480.4,706.9c-0.1-0.2-0.2-0.6-0.3-1.2c-0.9,0.9-1.9,1.4-3.2,1.4c-1.1,0-2-0.3-2.7-0.9c-0.7-0.6-1.1-1.4-1.1-2.4
			c0-1.2,0.4-2.1,1.3-2.7c0.9-0.6,2.1-1,3.7-1h1.8v-0.9c0-0.7-0.2-1.2-0.6-1.6c-0.4-0.4-1-0.6-1.8-0.6c-0.7,0-1.2,0.2-1.7,0.5
			s-0.7,0.8-0.7,1.2h-1.9c0-0.6,0.2-1.1,0.6-1.6s0.9-0.9,1.6-1.2s1.4-0.5,2.2-0.5c1.3,0,2.3,0.3,3,1c0.7,0.6,1.1,1.5,1.1,2.6v5.1
			c0,1,0.1,1.8,0.4,2.4v0.2h-1.7V706.9z M477.3,705.5c0.6,0,1.2-0.2,1.7-0.5s0.9-0.7,1.2-1.2v-2.3h-1.5c-2.3,0-3.5,0.7-3.5,2
			c0,0.6,0.2,1.1,0.6,1.4S476.7,705.5,477.3,705.5z"/>
		<path d="M488.5,704.2l2.6-8.3h2l-4.5,12.8c-0.7,1.8-1.8,2.8-3.3,2.8h-0.4l-0.7-0.1v-1.5h0.5c0.6,0,1.1-0.1,1.5-0.4
			c0.4-0.3,0.7-0.7,0.9-1.4l0.4-1.1l-4-11h2.1L488.5,704.2z"/>
		<path d="M494.1,701.3c0-1.1,0.2-2.1,0.6-2.9c0.4-0.9,1-1.5,1.8-2s1.6-0.7,2.6-0.7c1.5,0,2.7,0.5,3.7,1.6c0.9,1,1.4,2.4,1.4,4.2
			v0.1c0,1.1-0.2,2-0.6,2.9s-1,1.5-1.8,2s-1.7,0.7-2.7,0.7c-1.5,0-2.7-0.5-3.7-1.6c-0.9-1-1.4-2.4-1.4-4.2v-0.1H494.1z M496,701.5
			c0,1.2,0.3,2.2,0.9,3c0.6,0.7,1.3,1.1,2.3,1.1s1.7-0.4,2.3-1.1c0.6-0.8,0.9-1.8,0.9-3.2c0-1.2-0.3-2.2-0.9-3s-1.3-1.1-2.3-1.1
			c-0.9,0-1.7,0.4-2.3,1.1S496,700.1,496,701.5z"/>
		<path d="M512,697.5c-0.3,0-0.6-0.1-0.9-0.1c-1.2,0-2.1,0.5-2.5,1.6v7.9h-1.9v-11.1h1.8v1.3c0.6-1,1.5-1.5,2.6-1.5
			c0.4,0,0.6,0,0.8,0.1v1.8H512z"/>
		<path d="M172.3,722.7c-0.3,0-0.6-0.1-0.9-0.1c-1.2,0-2.1,0.5-2.5,1.6v7.9H167V721h1.8v1.3c0.6-1,1.5-1.5,2.6-1.5
			c0.4,0,0.6,0,0.8,0.1L172.3,722.7L172.3,722.7z"/>
		<path d="M178.5,732.3c-1.5,0-2.7-0.5-3.7-1.5c-0.9-1-1.4-2.3-1.4-4v-0.3c0-1.1,0.2-2.1,0.6-2.9c0.4-0.9,1-1.5,1.8-2
			s1.6-0.7,2.5-0.7c1.4,0,2.6,0.5,3.4,1.4s1.2,2.3,1.2,4.1v0.8h-7.5c0,1.1,0.3,2,1,2.7c0.6,0.7,1.4,1,2.3,1c0.7,0,1.2-0.1,1.7-0.4
			s0.9-0.6,1.2-1.1l1.2,0.9C181.7,731.6,180.3,732.3,178.5,732.3z M178.2,722.4c-0.8,0-1.4,0.3-1.9,0.8c-0.5,0.6-0.8,1.3-1,2.3h5.6
			v-0.1c-0.1-1-0.3-1.7-0.8-2.2C179.7,722.7,179,722.4,178.2,722.4z"/>
		<path d="M191.5,729.2c0-0.5-0.2-0.9-0.6-1.2c-0.4-0.3-1.1-0.5-2-0.7c-1-0.2-1.7-0.5-2.3-0.7c-0.6-0.3-1-0.6-1.3-1
			s-0.4-0.9-0.4-1.4c0-0.9,0.4-1.7,1.2-2.3s1.8-0.9,2.9-0.9c1.3,0,2.3,0.3,3.1,1c0.8,0.6,1.2,1.5,1.2,2.5h-1.9c0-0.5-0.2-1-0.7-1.3
			c-0.4-0.4-1-0.6-1.7-0.6s-1.2,0.2-1.6,0.5s-0.6,0.7-0.6,1.2s0.2,0.8,0.5,1s1,0.5,2,0.7c0.9,0.2,1.7,0.5,2.3,0.8s1,0.6,1.3,1.1
			c0.3,0.4,0.4,0.9,0.4,1.5c0,1-0.4,1.8-1.2,2.4c-0.8,0.6-1.8,0.9-3.1,0.9c-0.9,0-1.7-0.2-2.4-0.5s-1.2-0.8-1.6-1.3
			c-0.4-0.6-0.6-1.2-0.6-1.8h1.9c0,0.6,0.3,1.1,0.8,1.5s1.1,0.6,1.9,0.6c0.7,0,1.3-0.1,1.7-0.4C191.2,730.1,191.5,729.7,191.5,729.2
			z"/>
		<path d="M205.2,726.7c0,1.7-0.4,3-1.2,4.1s-1.8,1.5-3.1,1.5s-2.4-0.4-3.2-1.3v5.3h-1.9V721h1.7l0.1,1.2c0.8-1,1.8-1.4,3.2-1.4
			c1.3,0,2.4,0.5,3.2,1.5s1.2,2.4,1.2,4.2V726.7z M203.3,726.5c0-1.3-0.3-2.2-0.8-3s-1.3-1.1-2.2-1.1c-1.1,0-2,0.5-2.6,1.5v5.3
			c0.6,1,1.4,1.5,2.6,1.5c0.9,0,1.6-0.4,2.2-1.1C203,729,203.3,727.9,203.3,726.5z"/>
		<path d="M207.1,726.5c0-1.1,0.2-2.1,0.6-2.9c0.4-0.9,1-1.5,1.8-2s1.6-0.7,2.6-0.7c1.5,0,2.7,0.5,3.7,1.6c0.9,1,1.4,2.4,1.4,4.2
			v0.1c0,1.1-0.2,2-0.6,2.9c-0.4,0.9-1,1.5-1.8,2s-1.7,0.7-2.7,0.7c-1.5,0-2.7-0.5-3.7-1.6C207.5,729.8,207,728.4,207.1,726.5
			L207.1,726.5L207.1,726.5z M209,726.7c0,1.2,0.3,2.2,0.9,3c0.6,0.7,1.3,1.1,2.3,1.1s1.7-0.4,2.3-1.1c0.6-0.8,0.9-1.8,0.9-3.2
			c0-1.2-0.3-2.2-0.9-3c-0.6-0.8-1.3-1.1-2.3-1.1c-0.9,0-1.7,0.4-2.3,1.1S209,725.3,209,726.7z"/>
		<path d="M221.4,721l0.1,1.4c0.8-1.1,2-1.6,3.3-1.6c2.3,0,3.5,1.3,3.5,4v7.3h-1.9v-7.3c0-0.8-0.2-1.4-0.5-1.8
			c-0.4-0.4-0.9-0.6-1.7-0.6c-0.6,0-1.2,0.2-1.6,0.5s-0.8,0.8-1.1,1.3v7.9h-1.9V721H221.4z"/>
		<path d="M237.6,729.2c0-0.5-0.2-0.9-0.6-1.2c-0.4-0.3-1.1-0.5-2-0.7c-1-0.2-1.7-0.5-2.3-0.7c-0.6-0.3-1-0.6-1.3-1
			s-0.4-0.9-0.4-1.4c0-0.9,0.4-1.7,1.2-2.3s1.8-0.9,2.9-0.9c1.3,0,2.3,0.3,3.1,1c0.8,0.6,1.2,1.5,1.2,2.5h-1.9c0-0.5-0.2-1-0.7-1.3
			c-0.4-0.4-1-0.6-1.7-0.6s-1.2,0.2-1.6,0.5s-0.6,0.7-0.6,1.2s0.2,0.8,0.5,1s1,0.5,2,0.7c0.9,0.2,1.7,0.5,2.3,0.8s1,0.6,1.3,1.1
			c0.3,0.4,0.4,0.9,0.4,1.5c0,1-0.4,1.8-1.2,2.4c-0.8,0.6-1.8,0.9-3.1,0.9c-0.9,0-1.7-0.2-2.4-0.5s-1.2-0.8-1.6-1.3
			c-0.4-0.6-0.6-1.2-0.6-1.8h1.9c0,0.6,0.3,1.1,0.8,1.5s1.1,0.6,1.9,0.6c0.7,0,1.3-0.1,1.7-0.4C237.4,730.1,237.6,729.7,237.6,729.2
			z"/>
		<path d="M248.9,732.1c-0.1-0.2-0.2-0.6-0.3-1.2c-0.9,0.9-1.9,1.4-3.2,1.4c-1.1,0-2-0.3-2.7-0.9c-0.7-0.6-1.1-1.4-1.1-2.4
			c0-1.2,0.4-2.1,1.3-2.7c0.9-0.6,2.1-1,3.7-1h1.8v-0.9c0-0.7-0.2-1.2-0.6-1.6c-0.4-0.4-1-0.6-1.8-0.6c-0.7,0-1.2,0.2-1.7,0.5
			s-0.7,0.8-0.7,1.2h-1.9c0-0.6,0.2-1.1,0.6-1.6c0.4-0.5,0.9-0.9,1.6-1.2c0.7-0.3,1.4-0.5,2.2-0.5c1.3,0,2.3,0.3,3,1
			c0.7,0.6,1.1,1.5,1.1,2.6v5.1c0,1,0.1,1.8,0.4,2.4v0.2h-1.7V732.1z M245.7,730.7c0.6,0,1.2-0.2,1.7-0.5s0.9-0.7,1.2-1.2v-2.3h-1.5
			c-2.3,0-3.5,0.7-3.5,2c0,0.6,0.2,1.1,0.6,1.4S245.1,730.7,245.7,730.7z"/>
		<path d="M262.8,726.7c0,1.7-0.4,3.1-1.2,4.1c-0.8,1-1.8,1.5-3.1,1.5c-1.4,0-2.5-0.5-3.3-1.5l-0.1,1.3h-1.7v-15.8h1.9v5.9
			c0.8-1,1.8-1.4,3.2-1.4s2.4,0.5,3.2,1.5c0.8,1,1.2,2.4,1.2,4.2v0.2H262.8z M260.9,726.5c0-1.3-0.2-2.3-0.7-3s-1.2-1.1-2.2-1.1
			c-1.3,0-2.2,0.6-2.7,1.7v4.8c0.6,1.2,1.5,1.7,2.7,1.7c0.9,0,1.6-0.4,2.1-1.1S260.9,727.9,260.9,726.5z"/>
		<path d="M265.2,718.1c0-0.3,0.1-0.6,0.3-0.8c0.2-0.2,0.5-0.3,0.8-0.3s0.6,0.1,0.8,0.3s0.3,0.5,0.3,0.8s-0.1,0.6-0.3,0.8
			s-0.5,0.3-0.8,0.3s-0.6-0.1-0.8-0.3C265.3,718.7,265.2,718.4,265.2,718.1z M267.3,732.1h-1.9V721h1.9V732.1z"/>
		<path d="M272.4,732.1h-1.9v-15.8h1.9V732.1z"/>
		<path d="M275.4,718.1c0-0.3,0.1-0.6,0.3-0.8c0.2-0.2,0.5-0.3,0.8-0.3s0.6,0.1,0.8,0.3s0.3,0.5,0.3,0.8s-0.1,0.6-0.3,0.8
			s-0.5,0.3-0.8,0.3s-0.6-0.1-0.8-0.3C275.5,718.7,275.4,718.4,275.4,718.1z M277.5,732.1h-1.9V721h1.9V732.1z"/>
		<path d="M280,726.5c0-1.7,0.4-3.1,1.2-4.1c0.8-1,1.9-1.6,3.2-1.6c1.3,0,2.3,0.4,3.1,1.3v-5.8h1.9v15.8h-1.7l-0.1-1.2
			c-0.8,0.9-1.8,1.4-3.2,1.4c-1.3,0-2.3-0.5-3.1-1.6c-0.8-1.1-1.2-2.4-1.2-4.1L280,726.5L280,726.5z M281.9,726.7
			c0,1.3,0.3,2.2,0.8,3s1.2,1.1,2.2,1.1c1.2,0,2.1-0.5,2.6-1.6V724c-0.6-1-1.4-1.6-2.6-1.6c-0.9,0-1.7,0.4-2.2,1.1
			S281.9,725.3,281.9,726.7z"/>
		<path d="M299.2,732.1c-0.1-0.2-0.2-0.6-0.3-1.2c-0.9,0.9-1.9,1.4-3.2,1.4c-1.1,0-2-0.3-2.7-0.9c-0.7-0.6-1.1-1.4-1.1-2.4
			c0-1.2,0.4-2.1,1.3-2.7c0.9-0.6,2.1-1,3.7-1h1.8v-0.9c0-0.7-0.2-1.2-0.6-1.6c-0.4-0.4-1-0.6-1.8-0.6c-0.7,0-1.2,0.2-1.7,0.5
			s-0.7,0.8-0.7,1.2H292c0-0.6,0.2-1.1,0.6-1.6s0.9-0.9,1.6-1.2s1.4-0.5,2.2-0.5c1.3,0,2.3,0.3,3,1c0.7,0.6,1.1,1.5,1.1,2.6v5.1
			c0,1,0.1,1.8,0.4,2.4v0.2h-1.7V732.1z M296,730.7c0.6,0,1.2-0.2,1.7-0.5s0.9-0.7,1.2-1.2v-2.3h-1.5c-2.3,0-3.5,0.7-3.5,2
			c0,0.6,0.2,1.1,0.6,1.4S295.4,730.7,296,730.7z"/>
		<path d="M303.3,726.5c0-1.7,0.4-3.1,1.2-4.1c0.8-1,1.9-1.6,3.2-1.6c1.3,0,2.3,0.4,3.1,1.3v-5.8h1.9v15.8H311l-0.1-1.2
			c-0.8,0.9-1.8,1.4-3.2,1.4c-1.3,0-2.3-0.5-3.1-1.6c-0.8-1.1-1.2-2.4-1.2-4.1L303.3,726.5L303.3,726.5z M305.2,726.7
			c0,1.3,0.3,2.2,0.8,3s1.2,1.1,2.2,1.1c1.2,0,2.1-0.5,2.6-1.6V724c-0.6-1-1.4-1.6-2.6-1.6c-0.9,0-1.7,0.4-2.2,1.1
			S305.2,725.3,305.2,726.7z"/>
		<path d="M327.7,732.1c-0.1-0.2-0.2-0.6-0.3-1.2c-0.9,0.9-1.9,1.4-3.2,1.4c-1.1,0-2-0.3-2.7-0.9c-0.7-0.6-1.1-1.4-1.1-2.4
			c0-1.2,0.4-2.1,1.3-2.7c0.9-0.6,2.1-1,3.7-1h1.8v-0.9c0-0.7-0.2-1.2-0.6-1.6c-0.4-0.4-1-0.6-1.8-0.6c-0.7,0-1.2,0.2-1.7,0.5
			s-0.7,0.8-0.7,1.2h-1.9c0-0.6,0.2-1.1,0.6-1.6s0.9-0.9,1.6-1.2s1.4-0.5,2.2-0.5c1.3,0,2.3,0.3,3,1c0.7,0.6,1.1,1.5,1.1,2.6v5.1
			c0,1,0.1,1.8,0.4,2.4v0.2h-1.7V732.1z M324.5,730.7c0.6,0,1.2-0.2,1.7-0.5s0.9-0.7,1.2-1.2v-2.3h-1.5c-2.3,0-3.5,0.7-3.5,2
			c0,0.6,0.2,1.1,0.6,1.4S323.9,730.7,324.5,730.7z"/>
		<path d="M334,721l0.1,1.2c0.8-1,1.9-1.4,3.3-1.4c1.6,0,2.6,0.6,3.2,1.8c0.4-0.5,0.8-1,1.4-1.3s1.3-0.5,2.1-0.5
			c2.4,0,3.7,1.3,3.7,3.9v7.4h-1.9v-7.3c0-0.8-0.2-1.4-0.5-1.8c-0.4-0.4-1-0.6-1.8-0.6c-0.7,0-1.3,0.2-1.8,0.6
			c-0.5,0.4-0.7,1-0.8,1.7v7.4h-2v-7.3c0-1.6-0.8-2.4-2.4-2.4c-1.2,0-2.1,0.5-2.6,1.6v8.1h-1.9V721H334z"/>
		<path d="M360,726.7c0,1.7-0.4,3.1-1.2,4.1c-0.8,1-1.8,1.5-3.1,1.5c-1.4,0-2.5-0.5-3.3-1.5l-0.1,1.3h-1.7v-15.8h1.9v5.9
			c0.8-1,1.8-1.4,3.2-1.4s2.4,0.5,3.2,1.5c0.8,1,1.2,2.4,1.2,4.2v0.2H360z M358.1,726.5c0-1.3-0.2-2.3-0.7-3s-1.2-1.1-2.2-1.1
			c-1.3,0-2.2,0.6-2.7,1.7v4.8c0.6,1.2,1.5,1.7,2.7,1.7c0.9,0,1.6-0.4,2.1-1.1S358.1,727.9,358.1,726.5z"/>
		<path d="M362.4,718.1c0-0.3,0.1-0.6,0.3-0.8c0.2-0.2,0.5-0.3,0.8-0.3s0.6,0.1,0.8,0.3s0.3,0.5,0.3,0.8s-0.1,0.6-0.3,0.8
			s-0.5,0.3-0.8,0.3s-0.6-0.1-0.8-0.3C362.5,718.7,362.4,718.4,362.4,718.1z M364.5,732.1h-1.9V721h1.9V732.1z"/>
		<path d="M372.1,732.3c-1.5,0-2.7-0.5-3.7-1.5c-0.9-1-1.4-2.3-1.4-4v-0.3c0-1.1,0.2-2.1,0.6-2.9c0.4-0.9,1-1.5,1.8-2
			s1.6-0.7,2.5-0.7c1.4,0,2.6,0.5,3.4,1.4s1.2,2.3,1.2,4.1v0.8H369c0,1.1,0.3,2,1,2.7c0.6,0.7,1.4,1,2.3,1c0.7,0,1.2-0.1,1.7-0.4
			s0.9-0.6,1.2-1.1l1.2,0.9C375.4,731.6,374,732.3,372.1,732.3z M371.9,722.4c-0.8,0-1.4,0.3-1.9,0.8c-0.5,0.6-0.8,1.3-1,2.3h5.6
			v-0.1c-0.1-1-0.3-1.7-0.8-2.2C373.3,722.7,372.7,722.4,371.9,722.4z"/>
		<path d="M380.4,721l0.1,1.4c0.8-1.1,2-1.6,3.3-1.6c2.3,0,3.5,1.3,3.5,4v7.3h-1.9v-7.3c0-0.8-0.2-1.4-0.5-1.8
			c-0.4-0.4-0.9-0.6-1.7-0.6c-0.6,0-1.2,0.2-1.6,0.5s-0.8,0.8-1.1,1.3v7.9h-1.9V721H380.4z"/>
		<path d="M392.8,718.3v2.7h2.1v1.5h-2.1v6.9c0,0.4,0.1,0.8,0.3,1c0.2,0.2,0.5,0.3,0.9,0.3c0.2,0,0.5,0,0.9-0.1v1.5
			c-0.5,0.1-1,0.2-1.5,0.2c-0.8,0-1.5-0.3-1.9-0.8s-0.6-1.2-0.6-2.2v-6.9h-2V721h2v-2.7H392.8z"/>
		<path d="M403.9,732.1c-0.1-0.2-0.2-0.6-0.3-1.2c-0.9,0.9-1.9,1.4-3.2,1.4c-1.1,0-2-0.3-2.7-0.9c-0.7-0.6-1.1-1.4-1.1-2.4
			c0-1.2,0.4-2.1,1.3-2.7c0.9-0.6,2.1-1,3.7-1h1.8v-0.9c0-0.7-0.2-1.2-0.6-1.6c-0.4-0.4-1-0.6-1.8-0.6c-0.7,0-1.2,0.2-1.7,0.5
			s-0.7,0.8-0.7,1.2H397c0-0.6,0.2-1.1,0.6-1.6s0.9-0.9,1.6-1.2s1.4-0.5,2.2-0.5c1.3,0,2.3,0.3,3,1c0.7,0.6,1.1,1.5,1.1,2.6v5.1
			c0,1,0.1,1.8,0.4,2.4v0.2h-2V732.1z M400.8,730.7c0.6,0,1.2-0.2,1.7-0.5s0.9-0.7,1.2-1.2v-2.3h-1.5c-2.3,0-3.5,0.7-3.5,2
			c0,0.6,0.2,1.1,0.6,1.4S400.2,730.7,400.8,730.7z"/>
		<path d="M410.6,732.1h-1.9v-15.8h1.9V732.1z"/>
		<path d="M414.7,722.4l3,4v0.2l-3,4h-1.5l2.6-4.1l-2.6-4.1L414.7,722.4L414.7,722.4z M418.3,722.4l3,4v0.2l-3,4h-1.5l2.6-4.1
			l-2.6-4.1L418.3,722.4L418.3,722.4z"/>
	</g>
</g>
<g id="Guías">
</g>
</svg>
